M48
; DRILL file {KiCad (6.0.2)} date Mon Apr 11 22:56:03 2022
; FORMAT={-:-/ absolute / metric / decimal}
; #@! TF.CreationDate,2022-04-11T22:56:03+02:00
; #@! TF.GenerationSoftware,Kicad,Pcbnew,(6.0.2)
; #@! TF.FileFunction,Plated,1,2,PTH
FMAT,2
METRIC
; #@! TA.AperFunction,Plated,PTH,ViaDrill
T1C0.400
; #@! TA.AperFunction,Plated,PTH,ComponentDrill
T2C0.500
; #@! TA.AperFunction,Plated,PTH,ComponentDrill
T3C0.700
; #@! TA.AperFunction,Plated,PTH,ComponentDrill
T4C0.800
; #@! TA.AperFunction,Plated,PTH,ComponentDrill
T5C1.000
; #@! TA.AperFunction,Plated,PTH,ComponentDrill
T6C1.600
; #@! TA.AperFunction,Plated,PTH,ComponentDrill
T7C2.000
%
G90
G05
T1
X97.155Y-115.189
X98.806Y-96.698
X99.555Y-95.428
X99.568Y-111.379
X99.695Y-107.442
X102.87Y-99.568
X103.632Y-107.442
X103.702Y-100.122
X105.664Y-96.52
X105.791Y-94.945
X106.68Y-102.997
X112.649Y-110.007
X113.335Y-108.737
X113.563Y-104.089
X116.967Y-106.045
X119.761Y-128.143
X122.383Y-123.317
X124.968Y-129.298
X125.451Y-108.331
X135.1Y-68.6
X139.192Y-128.397
X160.782Y-122.682
X164.2Y-107.7
X165.024Y-74.066
X172.593Y-122.428
X172.8Y-99.4
X173.8Y-64.6
X174.9Y-62.8
X178.13Y-127.737
X178.232Y-118.008
X182.118Y-112.268
X182.5Y-110.3
X182.575Y-121.615
X182.651Y-126.517
X182.651Y-130.962
X182.88Y-111.506
X183.769Y-113.03
X184.777Y-137.964
X185.4Y-69.1
X185.623Y-133.071
X187.02Y-138.557
X187.427Y-131.928
X187.7Y-66.8
X188.887Y-58.6
X188.938Y-74.881
T3
X185.287Y-109.258
X185.287Y-114.108
T4
X156.896Y-72.854
X156.896Y-76.354
T5
X96.52Y-81.28
X96.52Y-91.44
X96.52Y-132.08
X96.52Y-142.24
X99.06Y-81.28
X99.06Y-91.44
X99.06Y-132.08
X99.06Y-142.24
X101.6Y-81.28
X101.6Y-91.44
X101.6Y-132.08
X101.6Y-142.24
X104.14Y-81.28
X104.14Y-91.44
X104.14Y-132.08
X104.14Y-142.24
X106.68Y-81.28
X106.68Y-91.44
X106.68Y-132.08
X106.68Y-142.24
X109.22Y-81.28
X109.22Y-91.44
X109.22Y-132.08
X109.22Y-142.24
X111.76Y-81.28
X111.76Y-91.44
X111.76Y-132.08
X111.76Y-142.24
X114.3Y-81.28
X114.3Y-91.44
X114.3Y-132.08
X114.3Y-142.24
X116.84Y-81.28
X116.84Y-91.44
X116.84Y-132.08
X116.84Y-142.24
X117.602Y-114.3
X117.602Y-116.84
X119.38Y-81.28
X119.38Y-91.44
X119.38Y-132.08
X119.38Y-142.24
X121.92Y-81.28
X121.92Y-91.44
X121.92Y-132.08
X121.92Y-142.24
X124.46Y-81.28
X124.46Y-91.44
X124.46Y-132.08
X124.46Y-142.24
X127.0Y-81.28
X127.0Y-91.44
X127.0Y-132.08
X127.0Y-142.24
X129.54Y-81.28
X129.54Y-91.44
X129.54Y-132.08
X129.54Y-142.24
X129.662Y-127.381
X130.6Y-70.425
X130.6Y-72.965
X131.293Y-96.317
X131.293Y-98.857
X132.08Y-81.28
X132.08Y-91.44
X132.08Y-132.08
X132.08Y-142.24
X132.202Y-127.381
X134.62Y-81.28
X134.62Y-91.44
X134.62Y-132.08
X134.62Y-142.24
X136.982Y-96.413
X136.982Y-98.953
X137.16Y-81.28
X137.16Y-91.44
X137.16Y-132.08
X137.16Y-142.24
X139.7Y-81.28
X139.7Y-91.44
X139.7Y-132.08
X139.7Y-142.24
X141.935Y-96.236
X141.935Y-98.776
X142.24Y-81.28
X142.24Y-91.44
X142.24Y-132.08
X142.24Y-142.24
X144.78Y-81.28
X144.78Y-91.44
X144.78Y-132.08
X144.78Y-142.24
X145.034Y-74.828
X145.034Y-77.368
X146.736Y-96.876
X146.736Y-99.416
X147.32Y-81.28
X147.32Y-91.44
X147.32Y-132.08
X147.32Y-142.24
X149.606Y-74.676
X149.606Y-77.216
X149.86Y-81.28
X149.86Y-91.44
X149.86Y-132.08
X149.86Y-142.24
X151.1Y-101.725
X151.1Y-104.265
X152.4Y-81.28
X152.4Y-91.44
X152.4Y-132.08
X152.4Y-142.24
X154.94Y-81.28
X154.94Y-91.44
X154.94Y-132.08
X154.94Y-142.24
X157.48Y-81.28
X157.48Y-91.44
X157.48Y-132.08
X157.48Y-142.24
X160.02Y-81.28
X160.02Y-91.44
X160.02Y-132.08
X160.02Y-142.24
X162.56Y-81.28
X162.56Y-91.44
X162.56Y-132.08
X162.56Y-142.24
X165.1Y-81.28
X165.1Y-91.44
X165.1Y-132.08
X165.1Y-142.24
X165.8Y-124.7
X165.8Y-127.24
X167.535Y-101.0
X167.6Y-96.9
X167.64Y-81.28
X167.64Y-91.44
X167.64Y-132.08
X167.64Y-142.24
X170.075Y-101.0
X170.118Y-124.5
X170.118Y-127.04
X170.14Y-96.9
X170.18Y-81.28
X170.18Y-91.44
X170.18Y-132.08
X170.18Y-142.24
X170.4Y-72.925
X170.4Y-75.465
X172.72Y-81.28
X172.72Y-91.44
X172.72Y-132.08
X172.72Y-142.24
X172.87Y-51.8
X172.87Y-54.34
X174.3Y-72.925
X174.3Y-75.465
X175.26Y-81.28
X175.26Y-91.44
X175.26Y-132.08
X175.26Y-142.24
X175.844Y-124.384
X175.844Y-126.924
X176.7Y-51.8
X176.7Y-54.34
X177.8Y-81.28
X177.8Y-91.44
X177.8Y-132.08
X177.8Y-142.24
X180.45Y-51.76
X180.45Y-54.3
X181.661Y-136.754
X181.661Y-139.294
X184.226Y-143.51
X185.2Y-51.81
X185.2Y-54.35
X185.445Y-123.551
X185.445Y-126.091
X186.766Y-143.51
T6
X180.8Y-58.68
X180.8Y-73.92
X186.2Y-83.08
X186.2Y-98.32
T7
X94.26Y-57.74
X166.26Y-57.74
T2
X188.338Y-108.083G85X187.537Y-108.083
G05
X188.338Y-115.283G85X187.537Y-115.283
G05
T0
M30
