%TF.GenerationSoftware,KiCad,Pcbnew,(6.0.2)*%
%TF.CreationDate,2022-04-08T22:15:33+02:00*%
%TF.ProjectId,main,6d61696e-2e6b-4696-9361-645f70636258,rev?*%
%TF.SameCoordinates,Original*%
%TF.FileFunction,AssemblyDrawing,Top*%
%FSLAX46Y46*%
G04 Gerber Fmt 4.6, Leading zero omitted, Abs format (unit mm)*
G04 Created by KiCad (PCBNEW (6.0.2)) date 2022-04-08 22:15:33*
%MOMM*%
%LPD*%
G01*
G04 APERTURE LIST*
%ADD10C,0.100000*%
%ADD11C,0.300000*%
%ADD12C,0.150000*%
%ADD13C,0.050000*%
%ADD14C,0.080000*%
%ADD15C,0.120000*%
%ADD16C,0.060000*%
%ADD17C,0.127000*%
%ADD18C,0.200000*%
%ADD19C,0.010000*%
G04 APERTURE END LIST*
D10*
X181610000Y-85090000D02*
X181610000Y-138430000D01*
X92710000Y-138430000D02*
X92710000Y-85090000D01*
X92710000Y-85090000D02*
X181610000Y-85090000D01*
X181610000Y-138430000D02*
X92710000Y-138430000D01*
X171450000Y-106680000D02*
X181610000Y-106680000D01*
X181610000Y-106680000D02*
X181610000Y-116840000D01*
X181610000Y-116840000D02*
X171450000Y-116840000D01*
X171450000Y-116840000D02*
X171450000Y-106680000D01*
D11*
X174006190Y-110664761D02*
X174006190Y-112283809D01*
X174101428Y-112474285D01*
X174196666Y-112569523D01*
X174387142Y-112664761D01*
X174768095Y-112664761D01*
X174958571Y-112569523D01*
X175053809Y-112474285D01*
X175149047Y-112283809D01*
X175149047Y-110664761D01*
X176006190Y-112569523D02*
X176291904Y-112664761D01*
X176768095Y-112664761D01*
X176958571Y-112569523D01*
X177053809Y-112474285D01*
X177149047Y-112283809D01*
X177149047Y-112093333D01*
X177053809Y-111902857D01*
X176958571Y-111807619D01*
X176768095Y-111712380D01*
X176387142Y-111617142D01*
X176196666Y-111521904D01*
X176101428Y-111426666D01*
X176006190Y-111236190D01*
X176006190Y-111045714D01*
X176101428Y-110855238D01*
X176196666Y-110760000D01*
X176387142Y-110664761D01*
X176863333Y-110664761D01*
X177149047Y-110760000D01*
X178672857Y-111617142D02*
X178958571Y-111712380D01*
X179053809Y-111807619D01*
X179149047Y-111998095D01*
X179149047Y-112283809D01*
X179053809Y-112474285D01*
X178958571Y-112569523D01*
X178768095Y-112664761D01*
X178006190Y-112664761D01*
X178006190Y-110664761D01*
X178672857Y-110664761D01*
X178863333Y-110760000D01*
X178958571Y-110855238D01*
X179053809Y-111045714D01*
X179053809Y-111236190D01*
X178958571Y-111426666D01*
X178863333Y-111521904D01*
X178672857Y-111617142D01*
X178006190Y-111617142D01*
D12*
%TO.C,3V3*%
X150552380Y-104233095D02*
X150552380Y-103614047D01*
X150933333Y-103947380D01*
X150933333Y-103804523D01*
X150980952Y-103709285D01*
X151028571Y-103661666D01*
X151123809Y-103614047D01*
X151361904Y-103614047D01*
X151457142Y-103661666D01*
X151504761Y-103709285D01*
X151552380Y-103804523D01*
X151552380Y-104090238D01*
X151504761Y-104185476D01*
X151457142Y-104233095D01*
X150552380Y-103328333D02*
X151552380Y-102995000D01*
X150552380Y-102661666D01*
X150552380Y-102423571D02*
X150552380Y-101804523D01*
X150933333Y-102137857D01*
X150933333Y-101995000D01*
X150980952Y-101899761D01*
X151028571Y-101852142D01*
X151123809Y-101804523D01*
X151361904Y-101804523D01*
X151457142Y-101852142D01*
X151504761Y-101899761D01*
X151552380Y-101995000D01*
X151552380Y-102280714D01*
X151504761Y-102375952D01*
X151457142Y-102423571D01*
%TO.C,C9*%
X157252942Y-74770717D02*
X157300561Y-74818336D01*
X157348180Y-74961193D01*
X157348180Y-75056431D01*
X157300561Y-75199289D01*
X157205323Y-75294527D01*
X157110085Y-75342146D01*
X156919609Y-75389765D01*
X156776752Y-75389765D01*
X156586276Y-75342146D01*
X156491038Y-75294527D01*
X156395800Y-75199289D01*
X156348180Y-75056431D01*
X156348180Y-74961193D01*
X156395800Y-74818336D01*
X156443419Y-74770717D01*
X157348180Y-74294527D02*
X157348180Y-74104051D01*
X157300561Y-74008812D01*
X157252942Y-73961193D01*
X157110085Y-73865955D01*
X156919609Y-73818336D01*
X156538657Y-73818336D01*
X156443419Y-73865955D01*
X156395800Y-73913574D01*
X156348180Y-74008812D01*
X156348180Y-74199289D01*
X156395800Y-74294527D01*
X156443419Y-74342146D01*
X156538657Y-74389765D01*
X156776752Y-74389765D01*
X156871990Y-74342146D01*
X156919609Y-74294527D01*
X156967228Y-74199289D01*
X156967228Y-74008812D01*
X156919609Y-73913574D01*
X156871990Y-73865955D01*
X156776752Y-73818336D01*
D13*
%TO.C,Q4*%
X175232023Y-96925238D02*
X175201547Y-96910000D01*
X175171071Y-96879523D01*
X175125357Y-96833809D01*
X175094880Y-96818571D01*
X175064404Y-96818571D01*
X175079642Y-96894761D02*
X175049166Y-96879523D01*
X175018690Y-96849047D01*
X175003452Y-96788095D01*
X175003452Y-96681428D01*
X175018690Y-96620476D01*
X175049166Y-96590000D01*
X175079642Y-96574761D01*
X175140595Y-96574761D01*
X175171071Y-96590000D01*
X175201547Y-96620476D01*
X175216785Y-96681428D01*
X175216785Y-96788095D01*
X175201547Y-96849047D01*
X175171071Y-96879523D01*
X175140595Y-96894761D01*
X175079642Y-96894761D01*
X175491071Y-96681428D02*
X175491071Y-96894761D01*
X175414880Y-96559523D02*
X175338690Y-96788095D01*
X175536785Y-96788095D01*
D14*
%TO.C,R16*%
X172793790Y-120693928D02*
X172555695Y-120860595D01*
X172793790Y-120979642D02*
X172293790Y-120979642D01*
X172293790Y-120789166D01*
X172317600Y-120741547D01*
X172341409Y-120717738D01*
X172389028Y-120693928D01*
X172460457Y-120693928D01*
X172508076Y-120717738D01*
X172531885Y-120741547D01*
X172555695Y-120789166D01*
X172555695Y-120979642D01*
X172793790Y-120217738D02*
X172793790Y-120503452D01*
X172793790Y-120360595D02*
X172293790Y-120360595D01*
X172365219Y-120408214D01*
X172412838Y-120455833D01*
X172436647Y-120503452D01*
X172293790Y-119789166D02*
X172293790Y-119884404D01*
X172317600Y-119932023D01*
X172341409Y-119955833D01*
X172412838Y-120003452D01*
X172508076Y-120027261D01*
X172698552Y-120027261D01*
X172746171Y-120003452D01*
X172769980Y-119979642D01*
X172793790Y-119932023D01*
X172793790Y-119836785D01*
X172769980Y-119789166D01*
X172746171Y-119765357D01*
X172698552Y-119741547D01*
X172579504Y-119741547D01*
X172531885Y-119765357D01*
X172508076Y-119789166D01*
X172484266Y-119836785D01*
X172484266Y-119932023D01*
X172508076Y-119979642D01*
X172531885Y-120003452D01*
X172579504Y-120027261D01*
D13*
%TO.C,Q1*%
X172375238Y-60330476D02*
X172360000Y-60360952D01*
X172329523Y-60391428D01*
X172283809Y-60437142D01*
X172268571Y-60467619D01*
X172268571Y-60498095D01*
X172344761Y-60482857D02*
X172329523Y-60513333D01*
X172299047Y-60543809D01*
X172238095Y-60559047D01*
X172131428Y-60559047D01*
X172070476Y-60543809D01*
X172040000Y-60513333D01*
X172024761Y-60482857D01*
X172024761Y-60421904D01*
X172040000Y-60391428D01*
X172070476Y-60360952D01*
X172131428Y-60345714D01*
X172238095Y-60345714D01*
X172299047Y-60360952D01*
X172329523Y-60391428D01*
X172344761Y-60421904D01*
X172344761Y-60482857D01*
X172344761Y-60040952D02*
X172344761Y-60223809D01*
X172344761Y-60132380D02*
X172024761Y-60132380D01*
X172070476Y-60162857D01*
X172100952Y-60193333D01*
X172116190Y-60223809D01*
D12*
%TO.C,JP19*%
X169570380Y-127079523D02*
X170284666Y-127079523D01*
X170427523Y-127127142D01*
X170522761Y-127222380D01*
X170570380Y-127365238D01*
X170570380Y-127460476D01*
X170570380Y-126603333D02*
X169570380Y-126603333D01*
X169570380Y-126222380D01*
X169618000Y-126127142D01*
X169665619Y-126079523D01*
X169760857Y-126031904D01*
X169903714Y-126031904D01*
X169998952Y-126079523D01*
X170046571Y-126127142D01*
X170094190Y-126222380D01*
X170094190Y-126603333D01*
X170570380Y-125079523D02*
X170570380Y-125650952D01*
X170570380Y-125365238D02*
X169570380Y-125365238D01*
X169713238Y-125460476D01*
X169808476Y-125555714D01*
X169856095Y-125650952D01*
X170570380Y-124603333D02*
X170570380Y-124412857D01*
X170522761Y-124317619D01*
X170475142Y-124270000D01*
X170332285Y-124174761D01*
X170141809Y-124127142D01*
X169760857Y-124127142D01*
X169665619Y-124174761D01*
X169618000Y-124222380D01*
X169570380Y-124317619D01*
X169570380Y-124508095D01*
X169618000Y-124603333D01*
X169665619Y-124650952D01*
X169760857Y-124698571D01*
X169998952Y-124698571D01*
X170094190Y-124650952D01*
X170141809Y-124603333D01*
X170189428Y-124508095D01*
X170189428Y-124317619D01*
X170141809Y-124222380D01*
X170094190Y-124174761D01*
X169998952Y-124127142D01*
D14*
%TO.C,R1*%
X171226190Y-64270833D02*
X170988095Y-64437500D01*
X171226190Y-64556547D02*
X170726190Y-64556547D01*
X170726190Y-64366071D01*
X170750000Y-64318452D01*
X170773809Y-64294642D01*
X170821428Y-64270833D01*
X170892857Y-64270833D01*
X170940476Y-64294642D01*
X170964285Y-64318452D01*
X170988095Y-64366071D01*
X170988095Y-64556547D01*
X171226190Y-63794642D02*
X171226190Y-64080357D01*
X171226190Y-63937500D02*
X170726190Y-63937500D01*
X170797619Y-63985119D01*
X170845238Y-64032738D01*
X170869047Y-64080357D01*
D12*
%TO.C,JP16*%
X149058380Y-77255523D02*
X149772666Y-77255523D01*
X149915523Y-77303142D01*
X150010761Y-77398380D01*
X150058380Y-77541238D01*
X150058380Y-77636476D01*
X150058380Y-76779333D02*
X149058380Y-76779333D01*
X149058380Y-76398380D01*
X149106000Y-76303142D01*
X149153619Y-76255523D01*
X149248857Y-76207904D01*
X149391714Y-76207904D01*
X149486952Y-76255523D01*
X149534571Y-76303142D01*
X149582190Y-76398380D01*
X149582190Y-76779333D01*
X150058380Y-75255523D02*
X150058380Y-75826952D01*
X150058380Y-75541238D02*
X149058380Y-75541238D01*
X149201238Y-75636476D01*
X149296476Y-75731714D01*
X149344095Y-75826952D01*
X149058380Y-74398380D02*
X149058380Y-74588857D01*
X149106000Y-74684095D01*
X149153619Y-74731714D01*
X149296476Y-74826952D01*
X149486952Y-74874571D01*
X149867904Y-74874571D01*
X149963142Y-74826952D01*
X150010761Y-74779333D01*
X150058380Y-74684095D01*
X150058380Y-74493619D01*
X150010761Y-74398380D01*
X149963142Y-74350761D01*
X149867904Y-74303142D01*
X149629809Y-74303142D01*
X149534571Y-74350761D01*
X149486952Y-74398380D01*
X149439333Y-74493619D01*
X149439333Y-74684095D01*
X149486952Y-74779333D01*
X149534571Y-74826952D01*
X149629809Y-74874571D01*
D15*
%TO.C,J6*%
X191214642Y-113180392D02*
X190734642Y-113180392D01*
X190734642Y-112997535D01*
X190757500Y-112951821D01*
X190780357Y-112928964D01*
X190826071Y-112906107D01*
X190894642Y-112906107D01*
X190940357Y-112928964D01*
X190963214Y-112951821D01*
X190986071Y-112997535D01*
X190986071Y-113180392D01*
X191168928Y-112426107D02*
X191191785Y-112448964D01*
X191214642Y-112517535D01*
X191214642Y-112563250D01*
X191191785Y-112631821D01*
X191146071Y-112677535D01*
X191100357Y-112700392D01*
X191008928Y-112723250D01*
X190940357Y-112723250D01*
X190848928Y-112700392D01*
X190803214Y-112677535D01*
X190757500Y-112631821D01*
X190734642Y-112563250D01*
X190734642Y-112517535D01*
X190757500Y-112448964D01*
X190780357Y-112426107D01*
X190963214Y-112060392D02*
X190986071Y-111991821D01*
X191008928Y-111968964D01*
X191054642Y-111946107D01*
X191123214Y-111946107D01*
X191168928Y-111968964D01*
X191191785Y-111991821D01*
X191214642Y-112037535D01*
X191214642Y-112220392D01*
X190734642Y-112220392D01*
X190734642Y-112060392D01*
X190757500Y-112014678D01*
X190780357Y-111991821D01*
X190826071Y-111968964D01*
X190871785Y-111968964D01*
X190917500Y-111991821D01*
X190940357Y-112014678D01*
X190963214Y-112060392D01*
X190963214Y-112220392D01*
X191031785Y-111740392D02*
X191031785Y-111374678D01*
X190963214Y-111146107D02*
X190963214Y-110986107D01*
X191214642Y-110917535D02*
X191214642Y-111146107D01*
X190734642Y-111146107D01*
X190734642Y-110917535D01*
X191214642Y-110711821D02*
X190734642Y-110711821D01*
X190734642Y-110597535D01*
X190757500Y-110528964D01*
X190803214Y-110483250D01*
X190848928Y-110460392D01*
X190940357Y-110437535D01*
X191008928Y-110437535D01*
X191100357Y-110460392D01*
X191146071Y-110483250D01*
X191191785Y-110528964D01*
X191214642Y-110597535D01*
X191214642Y-110711821D01*
X190757500Y-109980392D02*
X190734642Y-110026107D01*
X190734642Y-110094678D01*
X190757500Y-110163250D01*
X190803214Y-110208964D01*
X190848928Y-110231821D01*
X190940357Y-110254678D01*
X191008928Y-110254678D01*
X191100357Y-110231821D01*
X191146071Y-110208964D01*
X191191785Y-110163250D01*
X191214642Y-110094678D01*
X191214642Y-110048964D01*
X191191785Y-109980392D01*
X191168928Y-109957535D01*
X191008928Y-109957535D01*
X191008928Y-110048964D01*
X190963214Y-109751821D02*
X190963214Y-109591821D01*
X191214642Y-109523250D02*
X191214642Y-109751821D01*
X190734642Y-109751821D01*
X190734642Y-109523250D01*
D14*
%TO.C,R22*%
X146276190Y-71464928D02*
X146038095Y-71631595D01*
X146276190Y-71750642D02*
X145776190Y-71750642D01*
X145776190Y-71560166D01*
X145800000Y-71512547D01*
X145823809Y-71488738D01*
X145871428Y-71464928D01*
X145942857Y-71464928D01*
X145990476Y-71488738D01*
X146014285Y-71512547D01*
X146038095Y-71560166D01*
X146038095Y-71750642D01*
X145823809Y-71274452D02*
X145800000Y-71250642D01*
X145776190Y-71203023D01*
X145776190Y-71083976D01*
X145800000Y-71036357D01*
X145823809Y-71012547D01*
X145871428Y-70988738D01*
X145919047Y-70988738D01*
X145990476Y-71012547D01*
X146276190Y-71298261D01*
X146276190Y-70988738D01*
X145823809Y-70798261D02*
X145800000Y-70774452D01*
X145776190Y-70726833D01*
X145776190Y-70607785D01*
X145800000Y-70560166D01*
X145823809Y-70536357D01*
X145871428Y-70512547D01*
X145919047Y-70512547D01*
X145990476Y-70536357D01*
X146276190Y-70822071D01*
X146276190Y-70512547D01*
%TO.C,C5*%
X156229166Y-98278571D02*
X156205357Y-98302380D01*
X156133928Y-98326190D01*
X156086309Y-98326190D01*
X156014880Y-98302380D01*
X155967261Y-98254761D01*
X155943452Y-98207142D01*
X155919642Y-98111904D01*
X155919642Y-98040476D01*
X155943452Y-97945238D01*
X155967261Y-97897619D01*
X156014880Y-97850000D01*
X156086309Y-97826190D01*
X156133928Y-97826190D01*
X156205357Y-97850000D01*
X156229166Y-97873809D01*
X156681547Y-97826190D02*
X156443452Y-97826190D01*
X156419642Y-98064285D01*
X156443452Y-98040476D01*
X156491071Y-98016666D01*
X156610119Y-98016666D01*
X156657738Y-98040476D01*
X156681547Y-98064285D01*
X156705357Y-98111904D01*
X156705357Y-98230952D01*
X156681547Y-98278571D01*
X156657738Y-98302380D01*
X156610119Y-98326190D01*
X156491071Y-98326190D01*
X156443452Y-98302380D01*
X156419642Y-98278571D01*
%TO.C,C12*%
X100228571Y-113478571D02*
X100204761Y-113502380D01*
X100133333Y-113526190D01*
X100085714Y-113526190D01*
X100014285Y-113502380D01*
X99966666Y-113454761D01*
X99942857Y-113407142D01*
X99919047Y-113311904D01*
X99919047Y-113240476D01*
X99942857Y-113145238D01*
X99966666Y-113097619D01*
X100014285Y-113050000D01*
X100085714Y-113026190D01*
X100133333Y-113026190D01*
X100204761Y-113050000D01*
X100228571Y-113073809D01*
X100704761Y-113526190D02*
X100419047Y-113526190D01*
X100561904Y-113526190D02*
X100561904Y-113026190D01*
X100514285Y-113097619D01*
X100466666Y-113145238D01*
X100419047Y-113169047D01*
X100895238Y-113073809D02*
X100919047Y-113050000D01*
X100966666Y-113026190D01*
X101085714Y-113026190D01*
X101133333Y-113050000D01*
X101157142Y-113073809D01*
X101180952Y-113121428D01*
X101180952Y-113169047D01*
X101157142Y-113240476D01*
X100871428Y-113526190D01*
X101180952Y-113526190D01*
%TO.C,C2*%
X156216666Y-95878571D02*
X156192857Y-95902380D01*
X156121428Y-95926190D01*
X156073809Y-95926190D01*
X156002380Y-95902380D01*
X155954761Y-95854761D01*
X155930952Y-95807142D01*
X155907142Y-95711904D01*
X155907142Y-95640476D01*
X155930952Y-95545238D01*
X155954761Y-95497619D01*
X156002380Y-95450000D01*
X156073809Y-95426190D01*
X156121428Y-95426190D01*
X156192857Y-95450000D01*
X156216666Y-95473809D01*
X156407142Y-95473809D02*
X156430952Y-95450000D01*
X156478571Y-95426190D01*
X156597619Y-95426190D01*
X156645238Y-95450000D01*
X156669047Y-95473809D01*
X156692857Y-95521428D01*
X156692857Y-95569047D01*
X156669047Y-95640476D01*
X156383333Y-95926190D01*
X156692857Y-95926190D01*
%TO.C,R15*%
X135785990Y-77027528D02*
X135547895Y-77194195D01*
X135785990Y-77313242D02*
X135285990Y-77313242D01*
X135285990Y-77122766D01*
X135309800Y-77075147D01*
X135333609Y-77051338D01*
X135381228Y-77027528D01*
X135452657Y-77027528D01*
X135500276Y-77051338D01*
X135524085Y-77075147D01*
X135547895Y-77122766D01*
X135547895Y-77313242D01*
X135785990Y-76551338D02*
X135785990Y-76837052D01*
X135785990Y-76694195D02*
X135285990Y-76694195D01*
X135357419Y-76741814D01*
X135405038Y-76789433D01*
X135428847Y-76837052D01*
X135285990Y-76098957D02*
X135285990Y-76337052D01*
X135524085Y-76360861D01*
X135500276Y-76337052D01*
X135476466Y-76289433D01*
X135476466Y-76170385D01*
X135500276Y-76122766D01*
X135524085Y-76098957D01*
X135571704Y-76075147D01*
X135690752Y-76075147D01*
X135738371Y-76098957D01*
X135762180Y-76122766D01*
X135785990Y-76170385D01*
X135785990Y-76289433D01*
X135762180Y-76337052D01*
X135738371Y-76360861D01*
D12*
%TO.C,D1*%
X178652380Y-74181904D02*
X177652380Y-74181904D01*
X178652380Y-73610476D02*
X178080952Y-74039047D01*
X177652380Y-73610476D02*
X178223809Y-74181904D01*
X181252380Y-66325595D02*
X180252380Y-66325595D01*
X180252380Y-66087500D01*
X180300000Y-65944642D01*
X180395238Y-65849404D01*
X180490476Y-65801785D01*
X180680952Y-65754166D01*
X180823809Y-65754166D01*
X181014285Y-65801785D01*
X181109523Y-65849404D01*
X181204761Y-65944642D01*
X181252380Y-66087500D01*
X181252380Y-66325595D01*
X181252380Y-64801785D02*
X181252380Y-65373214D01*
X181252380Y-65087500D02*
X180252380Y-65087500D01*
X180395238Y-65182738D01*
X180490476Y-65277976D01*
X180538095Y-65373214D01*
%TO.C,JP10*%
X184897780Y-126130123D02*
X185612066Y-126130123D01*
X185754923Y-126177742D01*
X185850161Y-126272980D01*
X185897780Y-126415838D01*
X185897780Y-126511076D01*
X185897780Y-125653933D02*
X184897780Y-125653933D01*
X184897780Y-125272980D01*
X184945400Y-125177742D01*
X184993019Y-125130123D01*
X185088257Y-125082504D01*
X185231114Y-125082504D01*
X185326352Y-125130123D01*
X185373971Y-125177742D01*
X185421590Y-125272980D01*
X185421590Y-125653933D01*
X185897780Y-124130123D02*
X185897780Y-124701552D01*
X185897780Y-124415838D02*
X184897780Y-124415838D01*
X185040638Y-124511076D01*
X185135876Y-124606314D01*
X185183495Y-124701552D01*
X184897780Y-123511076D02*
X184897780Y-123415838D01*
X184945400Y-123320600D01*
X184993019Y-123272980D01*
X185088257Y-123225361D01*
X185278733Y-123177742D01*
X185516828Y-123177742D01*
X185707304Y-123225361D01*
X185802542Y-123272980D01*
X185850161Y-123320600D01*
X185897780Y-123415838D01*
X185897780Y-123511076D01*
X185850161Y-123606314D01*
X185802542Y-123653933D01*
X185707304Y-123701552D01*
X185516828Y-123749171D01*
X185278733Y-123749171D01*
X185088257Y-123701552D01*
X184993019Y-123653933D01*
X184945400Y-123606314D01*
X184897780Y-123511076D01*
D14*
%TO.C,R19*%
X140408790Y-71591928D02*
X140170695Y-71758595D01*
X140408790Y-71877642D02*
X139908790Y-71877642D01*
X139908790Y-71687166D01*
X139932600Y-71639547D01*
X139956409Y-71615738D01*
X140004028Y-71591928D01*
X140075457Y-71591928D01*
X140123076Y-71615738D01*
X140146885Y-71639547D01*
X140170695Y-71687166D01*
X140170695Y-71877642D01*
X140408790Y-71115738D02*
X140408790Y-71401452D01*
X140408790Y-71258595D02*
X139908790Y-71258595D01*
X139980219Y-71306214D01*
X140027838Y-71353833D01*
X140051647Y-71401452D01*
X140408790Y-70877642D02*
X140408790Y-70782404D01*
X140384980Y-70734785D01*
X140361171Y-70710976D01*
X140289742Y-70663357D01*
X140194504Y-70639547D01*
X140004028Y-70639547D01*
X139956409Y-70663357D01*
X139932600Y-70687166D01*
X139908790Y-70734785D01*
X139908790Y-70830023D01*
X139932600Y-70877642D01*
X139956409Y-70901452D01*
X140004028Y-70925261D01*
X140123076Y-70925261D01*
X140170695Y-70901452D01*
X140194504Y-70877642D01*
X140218314Y-70830023D01*
X140218314Y-70734785D01*
X140194504Y-70687166D01*
X140170695Y-70663357D01*
X140123076Y-70639547D01*
D12*
%TO.C,JP24*%
X117054380Y-116879523D02*
X117768666Y-116879523D01*
X117911523Y-116927142D01*
X118006761Y-117022380D01*
X118054380Y-117165238D01*
X118054380Y-117260476D01*
X118054380Y-116403333D02*
X117054380Y-116403333D01*
X117054380Y-116022380D01*
X117102000Y-115927142D01*
X117149619Y-115879523D01*
X117244857Y-115831904D01*
X117387714Y-115831904D01*
X117482952Y-115879523D01*
X117530571Y-115927142D01*
X117578190Y-116022380D01*
X117578190Y-116403333D01*
X117149619Y-115450952D02*
X117102000Y-115403333D01*
X117054380Y-115308095D01*
X117054380Y-115070000D01*
X117102000Y-114974761D01*
X117149619Y-114927142D01*
X117244857Y-114879523D01*
X117340095Y-114879523D01*
X117482952Y-114927142D01*
X118054380Y-115498571D01*
X118054380Y-114879523D01*
X117387714Y-114022380D02*
X118054380Y-114022380D01*
X117006761Y-114260476D02*
X117721047Y-114498571D01*
X117721047Y-113879523D01*
D14*
%TO.C,R2*%
X175279166Y-100126190D02*
X175112500Y-99888095D01*
X174993452Y-100126190D02*
X174993452Y-99626190D01*
X175183928Y-99626190D01*
X175231547Y-99650000D01*
X175255357Y-99673809D01*
X175279166Y-99721428D01*
X175279166Y-99792857D01*
X175255357Y-99840476D01*
X175231547Y-99864285D01*
X175183928Y-99888095D01*
X174993452Y-99888095D01*
X175469642Y-99673809D02*
X175493452Y-99650000D01*
X175541071Y-99626190D01*
X175660119Y-99626190D01*
X175707738Y-99650000D01*
X175731547Y-99673809D01*
X175755357Y-99721428D01*
X175755357Y-99769047D01*
X175731547Y-99840476D01*
X175445833Y-100126190D01*
X175755357Y-100126190D01*
%TO.C,R17*%
X180223671Y-120393590D02*
X180057004Y-120155495D01*
X179937957Y-120393590D02*
X179937957Y-119893590D01*
X180128433Y-119893590D01*
X180176052Y-119917400D01*
X180199861Y-119941209D01*
X180223671Y-119988828D01*
X180223671Y-120060257D01*
X180199861Y-120107876D01*
X180176052Y-120131685D01*
X180128433Y-120155495D01*
X179937957Y-120155495D01*
X180699861Y-120393590D02*
X180414147Y-120393590D01*
X180557004Y-120393590D02*
X180557004Y-119893590D01*
X180509385Y-119965019D01*
X180461766Y-120012638D01*
X180414147Y-120036447D01*
X180866528Y-119893590D02*
X181199861Y-119893590D01*
X180985576Y-120393590D01*
D12*
%TO.C,J2*%
X136826666Y-90892380D02*
X136826666Y-91606666D01*
X136779047Y-91749523D01*
X136683809Y-91844761D01*
X136540952Y-91892380D01*
X136445714Y-91892380D01*
X137255238Y-90987619D02*
X137302857Y-90940000D01*
X137398095Y-90892380D01*
X137636190Y-90892380D01*
X137731428Y-90940000D01*
X137779047Y-90987619D01*
X137826666Y-91082857D01*
X137826666Y-91178095D01*
X137779047Y-91320952D01*
X137207619Y-91892380D01*
X137826666Y-91892380D01*
D14*
%TO.C,R23*%
X100262571Y-109446190D02*
X100095904Y-109208095D01*
X99976857Y-109446190D02*
X99976857Y-108946190D01*
X100167333Y-108946190D01*
X100214952Y-108970000D01*
X100238761Y-108993809D01*
X100262571Y-109041428D01*
X100262571Y-109112857D01*
X100238761Y-109160476D01*
X100214952Y-109184285D01*
X100167333Y-109208095D01*
X99976857Y-109208095D01*
X100453047Y-108993809D02*
X100476857Y-108970000D01*
X100524476Y-108946190D01*
X100643523Y-108946190D01*
X100691142Y-108970000D01*
X100714952Y-108993809D01*
X100738761Y-109041428D01*
X100738761Y-109089047D01*
X100714952Y-109160476D01*
X100429238Y-109446190D01*
X100738761Y-109446190D01*
X100905428Y-108946190D02*
X101214952Y-108946190D01*
X101048285Y-109136666D01*
X101119714Y-109136666D01*
X101167333Y-109160476D01*
X101191142Y-109184285D01*
X101214952Y-109231904D01*
X101214952Y-109350952D01*
X101191142Y-109398571D01*
X101167333Y-109422380D01*
X101119714Y-109446190D01*
X100976857Y-109446190D01*
X100929238Y-109422380D01*
X100905428Y-109398571D01*
%TO.C,R24*%
X100262571Y-105890190D02*
X100095904Y-105652095D01*
X99976857Y-105890190D02*
X99976857Y-105390190D01*
X100167333Y-105390190D01*
X100214952Y-105414000D01*
X100238761Y-105437809D01*
X100262571Y-105485428D01*
X100262571Y-105556857D01*
X100238761Y-105604476D01*
X100214952Y-105628285D01*
X100167333Y-105652095D01*
X99976857Y-105652095D01*
X100453047Y-105437809D02*
X100476857Y-105414000D01*
X100524476Y-105390190D01*
X100643523Y-105390190D01*
X100691142Y-105414000D01*
X100714952Y-105437809D01*
X100738761Y-105485428D01*
X100738761Y-105533047D01*
X100714952Y-105604476D01*
X100429238Y-105890190D01*
X100738761Y-105890190D01*
X101167333Y-105556857D02*
X101167333Y-105890190D01*
X101048285Y-105366380D02*
X100929238Y-105723523D01*
X101238761Y-105723523D01*
D12*
%TO.C,D3*%
X181114880Y-98438095D02*
X180114880Y-98438095D01*
X180114880Y-98200000D01*
X180162500Y-98057142D01*
X180257738Y-97961904D01*
X180352976Y-97914285D01*
X180543452Y-97866666D01*
X180686309Y-97866666D01*
X180876785Y-97914285D01*
X180972023Y-97961904D01*
X181067261Y-98057142D01*
X181114880Y-98200000D01*
X181114880Y-98438095D01*
X180114880Y-97533333D02*
X180114880Y-96914285D01*
X180495833Y-97247619D01*
X180495833Y-97104761D01*
X180543452Y-97009523D01*
X180591071Y-96961904D01*
X180686309Y-96914285D01*
X180924404Y-96914285D01*
X181019642Y-96961904D01*
X181067261Y-97009523D01*
X181114880Y-97104761D01*
X181114880Y-97390476D01*
X181067261Y-97485714D01*
X181019642Y-97533333D01*
D14*
%TO.C,C6*%
X143815571Y-71391333D02*
X143839380Y-71415142D01*
X143863190Y-71486571D01*
X143863190Y-71534190D01*
X143839380Y-71605619D01*
X143791761Y-71653238D01*
X143744142Y-71677047D01*
X143648904Y-71700857D01*
X143577476Y-71700857D01*
X143482238Y-71677047D01*
X143434619Y-71653238D01*
X143387000Y-71605619D01*
X143363190Y-71534190D01*
X143363190Y-71486571D01*
X143387000Y-71415142D01*
X143410809Y-71391333D01*
X143363190Y-70962761D02*
X143363190Y-71058000D01*
X143387000Y-71105619D01*
X143410809Y-71129428D01*
X143482238Y-71177047D01*
X143577476Y-71200857D01*
X143767952Y-71200857D01*
X143815571Y-71177047D01*
X143839380Y-71153238D01*
X143863190Y-71105619D01*
X143863190Y-71010380D01*
X143839380Y-70962761D01*
X143815571Y-70938952D01*
X143767952Y-70915142D01*
X143648904Y-70915142D01*
X143601285Y-70938952D01*
X143577476Y-70962761D01*
X143553666Y-71010380D01*
X143553666Y-71105619D01*
X143577476Y-71153238D01*
X143601285Y-71177047D01*
X143648904Y-71200857D01*
D15*
%TO.C,U4*%
X157961904Y-104609523D02*
X158609523Y-104609523D01*
X158685714Y-104571428D01*
X158723809Y-104533333D01*
X158761904Y-104457142D01*
X158761904Y-104304761D01*
X158723809Y-104228571D01*
X158685714Y-104190476D01*
X158609523Y-104152380D01*
X157961904Y-104152380D01*
X158228571Y-103428571D02*
X158761904Y-103428571D01*
X157923809Y-103619047D02*
X158495238Y-103809523D01*
X158495238Y-103314285D01*
D13*
%TO.C,Q3*%
X186707023Y-72975238D02*
X186676547Y-72960000D01*
X186646071Y-72929523D01*
X186600357Y-72883809D01*
X186569880Y-72868571D01*
X186539404Y-72868571D01*
X186554642Y-72944761D02*
X186524166Y-72929523D01*
X186493690Y-72899047D01*
X186478452Y-72838095D01*
X186478452Y-72731428D01*
X186493690Y-72670476D01*
X186524166Y-72640000D01*
X186554642Y-72624761D01*
X186615595Y-72624761D01*
X186646071Y-72640000D01*
X186676547Y-72670476D01*
X186691785Y-72731428D01*
X186691785Y-72838095D01*
X186676547Y-72899047D01*
X186646071Y-72929523D01*
X186615595Y-72944761D01*
X186554642Y-72944761D01*
X186798452Y-72624761D02*
X186996547Y-72624761D01*
X186889880Y-72746666D01*
X186935595Y-72746666D01*
X186966071Y-72761904D01*
X186981309Y-72777142D01*
X186996547Y-72807619D01*
X186996547Y-72883809D01*
X186981309Y-72914285D01*
X186966071Y-72929523D01*
X186935595Y-72944761D01*
X186844166Y-72944761D01*
X186813690Y-72929523D01*
X186798452Y-72914285D01*
%TO.C,Q7*%
X176552623Y-120545838D02*
X176522147Y-120530600D01*
X176491671Y-120500123D01*
X176445957Y-120454409D01*
X176415480Y-120439171D01*
X176385004Y-120439171D01*
X176400242Y-120515361D02*
X176369766Y-120500123D01*
X176339290Y-120469647D01*
X176324052Y-120408695D01*
X176324052Y-120302028D01*
X176339290Y-120241076D01*
X176369766Y-120210600D01*
X176400242Y-120195361D01*
X176461195Y-120195361D01*
X176491671Y-120210600D01*
X176522147Y-120241076D01*
X176537385Y-120302028D01*
X176537385Y-120408695D01*
X176522147Y-120469647D01*
X176491671Y-120500123D01*
X176461195Y-120515361D01*
X176400242Y-120515361D01*
X176644052Y-120195361D02*
X176857385Y-120195361D01*
X176720242Y-120515361D01*
D12*
%TO.C,JP14*%
X181113180Y-139333123D02*
X181827466Y-139333123D01*
X181970323Y-139380742D01*
X182065561Y-139475980D01*
X182113180Y-139618838D01*
X182113180Y-139714076D01*
X182113180Y-138856933D02*
X181113180Y-138856933D01*
X181113180Y-138475980D01*
X181160800Y-138380742D01*
X181208419Y-138333123D01*
X181303657Y-138285504D01*
X181446514Y-138285504D01*
X181541752Y-138333123D01*
X181589371Y-138380742D01*
X181636990Y-138475980D01*
X181636990Y-138856933D01*
X182113180Y-137333123D02*
X182113180Y-137904552D01*
X182113180Y-137618838D02*
X181113180Y-137618838D01*
X181256038Y-137714076D01*
X181351276Y-137809314D01*
X181398895Y-137904552D01*
X181446514Y-136475980D02*
X182113180Y-136475980D01*
X181065561Y-136714076D02*
X181779847Y-136952171D01*
X181779847Y-136333123D01*
%TO.C,D4*%
X189252380Y-83341904D02*
X188252380Y-83341904D01*
X189252380Y-82770476D02*
X188680952Y-83199047D01*
X188252380Y-82770476D02*
X188823809Y-83341904D01*
X186652380Y-92150595D02*
X185652380Y-92150595D01*
X185652380Y-91912500D01*
X185700000Y-91769642D01*
X185795238Y-91674404D01*
X185890476Y-91626785D01*
X186080952Y-91579166D01*
X186223809Y-91579166D01*
X186414285Y-91626785D01*
X186509523Y-91674404D01*
X186604761Y-91769642D01*
X186652380Y-91912500D01*
X186652380Y-92150595D01*
X185985714Y-90722023D02*
X186652380Y-90722023D01*
X185604761Y-90960119D02*
X186319047Y-91198214D01*
X186319047Y-90579166D01*
%TO.C,JP17*%
X146188180Y-99455123D02*
X146902466Y-99455123D01*
X147045323Y-99502742D01*
X147140561Y-99597980D01*
X147188180Y-99740838D01*
X147188180Y-99836076D01*
X147188180Y-98978933D02*
X146188180Y-98978933D01*
X146188180Y-98597980D01*
X146235800Y-98502742D01*
X146283419Y-98455123D01*
X146378657Y-98407504D01*
X146521514Y-98407504D01*
X146616752Y-98455123D01*
X146664371Y-98502742D01*
X146711990Y-98597980D01*
X146711990Y-98978933D01*
X147188180Y-97455123D02*
X147188180Y-98026552D01*
X147188180Y-97740838D02*
X146188180Y-97740838D01*
X146331038Y-97836076D01*
X146426276Y-97931314D01*
X146473895Y-98026552D01*
X146188180Y-97121790D02*
X146188180Y-96455123D01*
X147188180Y-96883695D01*
%TO.C,UVLO1*%
X173752380Y-76314047D02*
X174561904Y-76314047D01*
X174657142Y-76266428D01*
X174704761Y-76218809D01*
X174752380Y-76123571D01*
X174752380Y-75933095D01*
X174704761Y-75837857D01*
X174657142Y-75790238D01*
X174561904Y-75742619D01*
X173752380Y-75742619D01*
X173752380Y-75409285D02*
X174752380Y-75075952D01*
X173752380Y-74742619D01*
X174752380Y-73933095D02*
X174752380Y-74409285D01*
X173752380Y-74409285D01*
X173752380Y-73409285D02*
X173752380Y-73218809D01*
X173800000Y-73123571D01*
X173895238Y-73028333D01*
X174085714Y-72980714D01*
X174419047Y-72980714D01*
X174609523Y-73028333D01*
X174704761Y-73123571D01*
X174752380Y-73218809D01*
X174752380Y-73409285D01*
X174704761Y-73504523D01*
X174609523Y-73599761D01*
X174419047Y-73647380D01*
X174085714Y-73647380D01*
X173895238Y-73599761D01*
X173800000Y-73504523D01*
X173752380Y-73409285D01*
X174752380Y-72028333D02*
X174752380Y-72599761D01*
X174752380Y-72314047D02*
X173752380Y-72314047D01*
X173895238Y-72409285D01*
X173990476Y-72504523D01*
X174038095Y-72599761D01*
%TO.C,Regulator2*%
X165543095Y-101452380D02*
X165209761Y-100976190D01*
X164971666Y-101452380D02*
X164971666Y-100452380D01*
X165352619Y-100452380D01*
X165447857Y-100500000D01*
X165495476Y-100547619D01*
X165543095Y-100642857D01*
X165543095Y-100785714D01*
X165495476Y-100880952D01*
X165447857Y-100928571D01*
X165352619Y-100976190D01*
X164971666Y-100976190D01*
X166352619Y-101404761D02*
X166257380Y-101452380D01*
X166066904Y-101452380D01*
X165971666Y-101404761D01*
X165924047Y-101309523D01*
X165924047Y-100928571D01*
X165971666Y-100833333D01*
X166066904Y-100785714D01*
X166257380Y-100785714D01*
X166352619Y-100833333D01*
X166400238Y-100928571D01*
X166400238Y-101023809D01*
X165924047Y-101119047D01*
X167257380Y-100785714D02*
X167257380Y-101595238D01*
X167209761Y-101690476D01*
X167162142Y-101738095D01*
X167066904Y-101785714D01*
X166924047Y-101785714D01*
X166828809Y-101738095D01*
X167257380Y-101404761D02*
X167162142Y-101452380D01*
X166971666Y-101452380D01*
X166876428Y-101404761D01*
X166828809Y-101357142D01*
X166781190Y-101261904D01*
X166781190Y-100976190D01*
X166828809Y-100880952D01*
X166876428Y-100833333D01*
X166971666Y-100785714D01*
X167162142Y-100785714D01*
X167257380Y-100833333D01*
X168162142Y-100785714D02*
X168162142Y-101452380D01*
X167733571Y-100785714D02*
X167733571Y-101309523D01*
X167781190Y-101404761D01*
X167876428Y-101452380D01*
X168019285Y-101452380D01*
X168114523Y-101404761D01*
X168162142Y-101357142D01*
X168781190Y-101452380D02*
X168685952Y-101404761D01*
X168638333Y-101309523D01*
X168638333Y-100452380D01*
X169590714Y-101452380D02*
X169590714Y-100928571D01*
X169543095Y-100833333D01*
X169447857Y-100785714D01*
X169257380Y-100785714D01*
X169162142Y-100833333D01*
X169590714Y-101404761D02*
X169495476Y-101452380D01*
X169257380Y-101452380D01*
X169162142Y-101404761D01*
X169114523Y-101309523D01*
X169114523Y-101214285D01*
X169162142Y-101119047D01*
X169257380Y-101071428D01*
X169495476Y-101071428D01*
X169590714Y-101023809D01*
X169924047Y-100785714D02*
X170305000Y-100785714D01*
X170066904Y-100452380D02*
X170066904Y-101309523D01*
X170114523Y-101404761D01*
X170209761Y-101452380D01*
X170305000Y-101452380D01*
X170781190Y-101452380D02*
X170685952Y-101404761D01*
X170638333Y-101357142D01*
X170590714Y-101261904D01*
X170590714Y-100976190D01*
X170638333Y-100880952D01*
X170685952Y-100833333D01*
X170781190Y-100785714D01*
X170924047Y-100785714D01*
X171019285Y-100833333D01*
X171066904Y-100880952D01*
X171114523Y-100976190D01*
X171114523Y-101261904D01*
X171066904Y-101357142D01*
X171019285Y-101404761D01*
X170924047Y-101452380D01*
X170781190Y-101452380D01*
X171543095Y-101452380D02*
X171543095Y-100785714D01*
X171543095Y-100976190D02*
X171590714Y-100880952D01*
X171638333Y-100833333D01*
X171733571Y-100785714D01*
X171828809Y-100785714D01*
X172114523Y-100547619D02*
X172162142Y-100500000D01*
X172257380Y-100452380D01*
X172495476Y-100452380D01*
X172590714Y-100500000D01*
X172638333Y-100547619D01*
X172685952Y-100642857D01*
X172685952Y-100738095D01*
X172638333Y-100880952D01*
X172066904Y-101452380D01*
X172685952Y-101452380D01*
%TO.C,J1*%
X136826666Y-80732380D02*
X136826666Y-81446666D01*
X136779047Y-81589523D01*
X136683809Y-81684761D01*
X136540952Y-81732380D01*
X136445714Y-81732380D01*
X137826666Y-81732380D02*
X137255238Y-81732380D01*
X137540952Y-81732380D02*
X137540952Y-80732380D01*
X137445714Y-80875238D01*
X137350476Y-80970476D01*
X137255238Y-81018095D01*
D14*
%TO.C,R7*%
X186616666Y-58726190D02*
X186450000Y-58488095D01*
X186330952Y-58726190D02*
X186330952Y-58226190D01*
X186521428Y-58226190D01*
X186569047Y-58250000D01*
X186592857Y-58273809D01*
X186616666Y-58321428D01*
X186616666Y-58392857D01*
X186592857Y-58440476D01*
X186569047Y-58464285D01*
X186521428Y-58488095D01*
X186330952Y-58488095D01*
X186783333Y-58226190D02*
X187116666Y-58226190D01*
X186902380Y-58726190D01*
D12*
%TO.C,Regulator1*%
X165608095Y-97352380D02*
X165274761Y-96876190D01*
X165036666Y-97352380D02*
X165036666Y-96352380D01*
X165417619Y-96352380D01*
X165512857Y-96400000D01*
X165560476Y-96447619D01*
X165608095Y-96542857D01*
X165608095Y-96685714D01*
X165560476Y-96780952D01*
X165512857Y-96828571D01*
X165417619Y-96876190D01*
X165036666Y-96876190D01*
X166417619Y-97304761D02*
X166322380Y-97352380D01*
X166131904Y-97352380D01*
X166036666Y-97304761D01*
X165989047Y-97209523D01*
X165989047Y-96828571D01*
X166036666Y-96733333D01*
X166131904Y-96685714D01*
X166322380Y-96685714D01*
X166417619Y-96733333D01*
X166465238Y-96828571D01*
X166465238Y-96923809D01*
X165989047Y-97019047D01*
X167322380Y-96685714D02*
X167322380Y-97495238D01*
X167274761Y-97590476D01*
X167227142Y-97638095D01*
X167131904Y-97685714D01*
X166989047Y-97685714D01*
X166893809Y-97638095D01*
X167322380Y-97304761D02*
X167227142Y-97352380D01*
X167036666Y-97352380D01*
X166941428Y-97304761D01*
X166893809Y-97257142D01*
X166846190Y-97161904D01*
X166846190Y-96876190D01*
X166893809Y-96780952D01*
X166941428Y-96733333D01*
X167036666Y-96685714D01*
X167227142Y-96685714D01*
X167322380Y-96733333D01*
X168227142Y-96685714D02*
X168227142Y-97352380D01*
X167798571Y-96685714D02*
X167798571Y-97209523D01*
X167846190Y-97304761D01*
X167941428Y-97352380D01*
X168084285Y-97352380D01*
X168179523Y-97304761D01*
X168227142Y-97257142D01*
X168846190Y-97352380D02*
X168750952Y-97304761D01*
X168703333Y-97209523D01*
X168703333Y-96352380D01*
X169655714Y-97352380D02*
X169655714Y-96828571D01*
X169608095Y-96733333D01*
X169512857Y-96685714D01*
X169322380Y-96685714D01*
X169227142Y-96733333D01*
X169655714Y-97304761D02*
X169560476Y-97352380D01*
X169322380Y-97352380D01*
X169227142Y-97304761D01*
X169179523Y-97209523D01*
X169179523Y-97114285D01*
X169227142Y-97019047D01*
X169322380Y-96971428D01*
X169560476Y-96971428D01*
X169655714Y-96923809D01*
X169989047Y-96685714D02*
X170370000Y-96685714D01*
X170131904Y-96352380D02*
X170131904Y-97209523D01*
X170179523Y-97304761D01*
X170274761Y-97352380D01*
X170370000Y-97352380D01*
X170846190Y-97352380D02*
X170750952Y-97304761D01*
X170703333Y-97257142D01*
X170655714Y-97161904D01*
X170655714Y-96876190D01*
X170703333Y-96780952D01*
X170750952Y-96733333D01*
X170846190Y-96685714D01*
X170989047Y-96685714D01*
X171084285Y-96733333D01*
X171131904Y-96780952D01*
X171179523Y-96876190D01*
X171179523Y-97161904D01*
X171131904Y-97257142D01*
X171084285Y-97304761D01*
X170989047Y-97352380D01*
X170846190Y-97352380D01*
X171608095Y-97352380D02*
X171608095Y-96685714D01*
X171608095Y-96876190D02*
X171655714Y-96780952D01*
X171703333Y-96733333D01*
X171798571Y-96685714D01*
X171893809Y-96685714D01*
X172750952Y-97352380D02*
X172179523Y-97352380D01*
X172465238Y-97352380D02*
X172465238Y-96352380D01*
X172370000Y-96495238D01*
X172274761Y-96590476D01*
X172179523Y-96638095D01*
D14*
%TO.C,R6*%
X186416666Y-62226190D02*
X186250000Y-61988095D01*
X186130952Y-62226190D02*
X186130952Y-61726190D01*
X186321428Y-61726190D01*
X186369047Y-61750000D01*
X186392857Y-61773809D01*
X186416666Y-61821428D01*
X186416666Y-61892857D01*
X186392857Y-61940476D01*
X186369047Y-61964285D01*
X186321428Y-61988095D01*
X186130952Y-61988095D01*
X186845238Y-61726190D02*
X186750000Y-61726190D01*
X186702380Y-61750000D01*
X186678571Y-61773809D01*
X186630952Y-61845238D01*
X186607142Y-61940476D01*
X186607142Y-62130952D01*
X186630952Y-62178571D01*
X186654761Y-62202380D01*
X186702380Y-62226190D01*
X186797619Y-62226190D01*
X186845238Y-62202380D01*
X186869047Y-62178571D01*
X186892857Y-62130952D01*
X186892857Y-62011904D01*
X186869047Y-61964285D01*
X186845238Y-61940476D01*
X186797619Y-61916666D01*
X186702380Y-61916666D01*
X186654761Y-61940476D01*
X186630952Y-61964285D01*
X186607142Y-62011904D01*
%TO.C,R14*%
X180122071Y-128038990D02*
X179955404Y-127800895D01*
X179836357Y-128038990D02*
X179836357Y-127538990D01*
X180026833Y-127538990D01*
X180074452Y-127562800D01*
X180098261Y-127586609D01*
X180122071Y-127634228D01*
X180122071Y-127705657D01*
X180098261Y-127753276D01*
X180074452Y-127777085D01*
X180026833Y-127800895D01*
X179836357Y-127800895D01*
X180598261Y-128038990D02*
X180312547Y-128038990D01*
X180455404Y-128038990D02*
X180455404Y-127538990D01*
X180407785Y-127610419D01*
X180360166Y-127658038D01*
X180312547Y-127681847D01*
X181026833Y-127705657D02*
X181026833Y-128038990D01*
X180907785Y-127515180D02*
X180788738Y-127872323D01*
X181098261Y-127872323D01*
%TO.C,R20*%
X185544590Y-136264128D02*
X185306495Y-136430795D01*
X185544590Y-136549842D02*
X185044590Y-136549842D01*
X185044590Y-136359366D01*
X185068400Y-136311747D01*
X185092209Y-136287938D01*
X185139828Y-136264128D01*
X185211257Y-136264128D01*
X185258876Y-136287938D01*
X185282685Y-136311747D01*
X185306495Y-136359366D01*
X185306495Y-136549842D01*
X185092209Y-136073652D02*
X185068400Y-136049842D01*
X185044590Y-136002223D01*
X185044590Y-135883176D01*
X185068400Y-135835557D01*
X185092209Y-135811747D01*
X185139828Y-135787938D01*
X185187447Y-135787938D01*
X185258876Y-135811747D01*
X185544590Y-136097461D01*
X185544590Y-135787938D01*
X185044590Y-135478414D02*
X185044590Y-135430795D01*
X185068400Y-135383176D01*
X185092209Y-135359366D01*
X185139828Y-135335557D01*
X185235066Y-135311747D01*
X185354114Y-135311747D01*
X185449352Y-135335557D01*
X185496971Y-135359366D01*
X185520780Y-135383176D01*
X185544590Y-135430795D01*
X185544590Y-135478414D01*
X185520780Y-135526033D01*
X185496971Y-135549842D01*
X185449352Y-135573652D01*
X185354114Y-135597461D01*
X185235066Y-135597461D01*
X185139828Y-135573652D01*
X185092209Y-135549842D01*
X185068400Y-135526033D01*
X185044590Y-135478414D01*
D12*
%TO.C,J4*%
X136826666Y-141692380D02*
X136826666Y-142406666D01*
X136779047Y-142549523D01*
X136683809Y-142644761D01*
X136540952Y-142692380D01*
X136445714Y-142692380D01*
X137731428Y-142025714D02*
X137731428Y-142692380D01*
X137493333Y-141644761D02*
X137255238Y-142359047D01*
X137874285Y-142359047D01*
%TO.C,U3*%
X161114880Y-97361904D02*
X161924404Y-97361904D01*
X162019642Y-97314285D01*
X162067261Y-97266666D01*
X162114880Y-97171428D01*
X162114880Y-96980952D01*
X162067261Y-96885714D01*
X162019642Y-96838095D01*
X161924404Y-96790476D01*
X161114880Y-96790476D01*
X161114880Y-96409523D02*
X161114880Y-95790476D01*
X161495833Y-96123809D01*
X161495833Y-95980952D01*
X161543452Y-95885714D01*
X161591071Y-95838095D01*
X161686309Y-95790476D01*
X161924404Y-95790476D01*
X162019642Y-95838095D01*
X162067261Y-95885714D01*
X162114880Y-95980952D01*
X162114880Y-96266666D01*
X162067261Y-96361904D01*
X162019642Y-96409523D01*
D13*
%TO.C,Q2*%
X176075238Y-60430476D02*
X176060000Y-60460952D01*
X176029523Y-60491428D01*
X175983809Y-60537142D01*
X175968571Y-60567619D01*
X175968571Y-60598095D01*
X176044761Y-60582857D02*
X176029523Y-60613333D01*
X175999047Y-60643809D01*
X175938095Y-60659047D01*
X175831428Y-60659047D01*
X175770476Y-60643809D01*
X175740000Y-60613333D01*
X175724761Y-60582857D01*
X175724761Y-60521904D01*
X175740000Y-60491428D01*
X175770476Y-60460952D01*
X175831428Y-60445714D01*
X175938095Y-60445714D01*
X175999047Y-60460952D01*
X176029523Y-60491428D01*
X176044761Y-60521904D01*
X176044761Y-60582857D01*
X175755238Y-60323809D02*
X175740000Y-60308571D01*
X175724761Y-60278095D01*
X175724761Y-60201904D01*
X175740000Y-60171428D01*
X175755238Y-60156190D01*
X175785714Y-60140952D01*
X175816190Y-60140952D01*
X175861904Y-60156190D01*
X176044761Y-60339047D01*
X176044761Y-60140952D01*
D12*
%TO.C,RBP1*%
X173322380Y-54236666D02*
X172846190Y-54570000D01*
X173322380Y-54808095D02*
X172322380Y-54808095D01*
X172322380Y-54427142D01*
X172370000Y-54331904D01*
X172417619Y-54284285D01*
X172512857Y-54236666D01*
X172655714Y-54236666D01*
X172750952Y-54284285D01*
X172798571Y-54331904D01*
X172846190Y-54427142D01*
X172846190Y-54808095D01*
X172798571Y-53474761D02*
X172846190Y-53331904D01*
X172893809Y-53284285D01*
X172989047Y-53236666D01*
X173131904Y-53236666D01*
X173227142Y-53284285D01*
X173274761Y-53331904D01*
X173322380Y-53427142D01*
X173322380Y-53808095D01*
X172322380Y-53808095D01*
X172322380Y-53474761D01*
X172370000Y-53379523D01*
X172417619Y-53331904D01*
X172512857Y-53284285D01*
X172608095Y-53284285D01*
X172703333Y-53331904D01*
X172750952Y-53379523D01*
X172798571Y-53474761D01*
X172798571Y-53808095D01*
X173322380Y-52808095D02*
X172322380Y-52808095D01*
X172322380Y-52427142D01*
X172370000Y-52331904D01*
X172417619Y-52284285D01*
X172512857Y-52236666D01*
X172655714Y-52236666D01*
X172750952Y-52284285D01*
X172798571Y-52331904D01*
X172846190Y-52427142D01*
X172846190Y-52808095D01*
X173322380Y-51284285D02*
X173322380Y-51855714D01*
X173322380Y-51570000D02*
X172322380Y-51570000D01*
X172465238Y-51665238D01*
X172560476Y-51760476D01*
X172608095Y-51855714D01*
D15*
%TO.C,C1*%
X171285714Y-68558333D02*
X171323809Y-68596428D01*
X171361904Y-68710714D01*
X171361904Y-68786904D01*
X171323809Y-68901190D01*
X171247619Y-68977380D01*
X171171428Y-69015476D01*
X171019047Y-69053571D01*
X170904761Y-69053571D01*
X170752380Y-69015476D01*
X170676190Y-68977380D01*
X170600000Y-68901190D01*
X170561904Y-68786904D01*
X170561904Y-68710714D01*
X170600000Y-68596428D01*
X170638095Y-68558333D01*
X171361904Y-67796428D02*
X171361904Y-68253571D01*
X171361904Y-68025000D02*
X170561904Y-68025000D01*
X170676190Y-68101190D01*
X170752380Y-68177380D01*
X170790476Y-68253571D01*
D12*
%TO.C,JP1*%
X130052380Y-72528333D02*
X130766666Y-72528333D01*
X130909523Y-72575952D01*
X131004761Y-72671190D01*
X131052380Y-72814047D01*
X131052380Y-72909285D01*
X131052380Y-72052142D02*
X130052380Y-72052142D01*
X130052380Y-71671190D01*
X130100000Y-71575952D01*
X130147619Y-71528333D01*
X130242857Y-71480714D01*
X130385714Y-71480714D01*
X130480952Y-71528333D01*
X130528571Y-71575952D01*
X130576190Y-71671190D01*
X130576190Y-72052142D01*
X131052380Y-70528333D02*
X131052380Y-71099761D01*
X131052380Y-70814047D02*
X130052380Y-70814047D01*
X130195238Y-70909285D01*
X130290476Y-71004523D01*
X130338095Y-71099761D01*
D14*
%TO.C,C7*%
X184813466Y-120371371D02*
X184789657Y-120395180D01*
X184718228Y-120418990D01*
X184670609Y-120418990D01*
X184599180Y-120395180D01*
X184551561Y-120347561D01*
X184527752Y-120299942D01*
X184503942Y-120204704D01*
X184503942Y-120133276D01*
X184527752Y-120038038D01*
X184551561Y-119990419D01*
X184599180Y-119942800D01*
X184670609Y-119918990D01*
X184718228Y-119918990D01*
X184789657Y-119942800D01*
X184813466Y-119966609D01*
X184980133Y-119918990D02*
X185313466Y-119918990D01*
X185099180Y-120418990D01*
D12*
%TO.C,JP15*%
X184186676Y-142962380D02*
X184186676Y-143676666D01*
X184139057Y-143819523D01*
X184043819Y-143914761D01*
X183900961Y-143962380D01*
X183805723Y-143962380D01*
X184662866Y-143962380D02*
X184662866Y-142962380D01*
X185043819Y-142962380D01*
X185139057Y-143010000D01*
X185186676Y-143057619D01*
X185234295Y-143152857D01*
X185234295Y-143295714D01*
X185186676Y-143390952D01*
X185139057Y-143438571D01*
X185043819Y-143486190D01*
X184662866Y-143486190D01*
X186186676Y-143962380D02*
X185615247Y-143962380D01*
X185900961Y-143962380D02*
X185900961Y-142962380D01*
X185805723Y-143105238D01*
X185710485Y-143200476D01*
X185615247Y-143248095D01*
X187091438Y-142962380D02*
X186615247Y-142962380D01*
X186567628Y-143438571D01*
X186615247Y-143390952D01*
X186710485Y-143343333D01*
X186948580Y-143343333D01*
X187043819Y-143390952D01*
X187091438Y-143438571D01*
X187139057Y-143533809D01*
X187139057Y-143771904D01*
X187091438Y-143867142D01*
X187043819Y-143914761D01*
X186948580Y-143962380D01*
X186710485Y-143962380D01*
X186615247Y-143914761D01*
X186567628Y-143867142D01*
%TO.C,UVLO2*%
X169852380Y-76314047D02*
X170661904Y-76314047D01*
X170757142Y-76266428D01*
X170804761Y-76218809D01*
X170852380Y-76123571D01*
X170852380Y-75933095D01*
X170804761Y-75837857D01*
X170757142Y-75790238D01*
X170661904Y-75742619D01*
X169852380Y-75742619D01*
X169852380Y-75409285D02*
X170852380Y-75075952D01*
X169852380Y-74742619D01*
X170852380Y-73933095D02*
X170852380Y-74409285D01*
X169852380Y-74409285D01*
X169852380Y-73409285D02*
X169852380Y-73218809D01*
X169900000Y-73123571D01*
X169995238Y-73028333D01*
X170185714Y-72980714D01*
X170519047Y-72980714D01*
X170709523Y-73028333D01*
X170804761Y-73123571D01*
X170852380Y-73218809D01*
X170852380Y-73409285D01*
X170804761Y-73504523D01*
X170709523Y-73599761D01*
X170519047Y-73647380D01*
X170185714Y-73647380D01*
X169995238Y-73599761D01*
X169900000Y-73504523D01*
X169852380Y-73409285D01*
X169947619Y-72599761D02*
X169900000Y-72552142D01*
X169852380Y-72456904D01*
X169852380Y-72218809D01*
X169900000Y-72123571D01*
X169947619Y-72075952D01*
X170042857Y-72028333D01*
X170138095Y-72028333D01*
X170280952Y-72075952D01*
X170852380Y-72647380D01*
X170852380Y-72028333D01*
%TO.C,JP13*%
X144486380Y-77407923D02*
X145200666Y-77407923D01*
X145343523Y-77455542D01*
X145438761Y-77550780D01*
X145486380Y-77693638D01*
X145486380Y-77788876D01*
X145486380Y-76931733D02*
X144486380Y-76931733D01*
X144486380Y-76550780D01*
X144534000Y-76455542D01*
X144581619Y-76407923D01*
X144676857Y-76360304D01*
X144819714Y-76360304D01*
X144914952Y-76407923D01*
X144962571Y-76455542D01*
X145010190Y-76550780D01*
X145010190Y-76931733D01*
X145486380Y-75407923D02*
X145486380Y-75979352D01*
X145486380Y-75693638D02*
X144486380Y-75693638D01*
X144629238Y-75788876D01*
X144724476Y-75884114D01*
X144772095Y-75979352D01*
X144486380Y-75074590D02*
X144486380Y-74455542D01*
X144867333Y-74788876D01*
X144867333Y-74646019D01*
X144914952Y-74550780D01*
X144962571Y-74503161D01*
X145057809Y-74455542D01*
X145295904Y-74455542D01*
X145391142Y-74503161D01*
X145438761Y-74550780D01*
X145486380Y-74646019D01*
X145486380Y-74931733D01*
X145438761Y-75026971D01*
X145391142Y-75074590D01*
%TO.C,JP20*%
X136434580Y-98992923D02*
X137148866Y-98992923D01*
X137291723Y-99040542D01*
X137386961Y-99135780D01*
X137434580Y-99278638D01*
X137434580Y-99373876D01*
X137434580Y-98516733D02*
X136434580Y-98516733D01*
X136434580Y-98135780D01*
X136482200Y-98040542D01*
X136529819Y-97992923D01*
X136625057Y-97945304D01*
X136767914Y-97945304D01*
X136863152Y-97992923D01*
X136910771Y-98040542D01*
X136958390Y-98135780D01*
X136958390Y-98516733D01*
X136529819Y-97564352D02*
X136482200Y-97516733D01*
X136434580Y-97421495D01*
X136434580Y-97183400D01*
X136482200Y-97088161D01*
X136529819Y-97040542D01*
X136625057Y-96992923D01*
X136720295Y-96992923D01*
X136863152Y-97040542D01*
X137434580Y-97611971D01*
X137434580Y-96992923D01*
X136434580Y-96373876D02*
X136434580Y-96278638D01*
X136482200Y-96183400D01*
X136529819Y-96135780D01*
X136625057Y-96088161D01*
X136815533Y-96040542D01*
X137053628Y-96040542D01*
X137244104Y-96088161D01*
X137339342Y-96135780D01*
X137386961Y-96183400D01*
X137434580Y-96278638D01*
X137434580Y-96373876D01*
X137386961Y-96469114D01*
X137339342Y-96516733D01*
X137244104Y-96564352D01*
X137053628Y-96611971D01*
X136815533Y-96611971D01*
X136625057Y-96564352D01*
X136529819Y-96516733D01*
X136482200Y-96469114D01*
X136434580Y-96373876D01*
%TO.C,J3*%
X136826666Y-131532380D02*
X136826666Y-132246666D01*
X136779047Y-132389523D01*
X136683809Y-132484761D01*
X136540952Y-132532380D01*
X136445714Y-132532380D01*
X137207619Y-131532380D02*
X137826666Y-131532380D01*
X137493333Y-131913333D01*
X137636190Y-131913333D01*
X137731428Y-131960952D01*
X137779047Y-132008571D01*
X137826666Y-132103809D01*
X137826666Y-132341904D01*
X137779047Y-132437142D01*
X137731428Y-132484761D01*
X137636190Y-132532380D01*
X137350476Y-132532380D01*
X137255238Y-132484761D01*
X137207619Y-132437142D01*
D16*
%TO.C,U2*%
X186232738Y-66580952D02*
X186232738Y-66904761D01*
X186251785Y-66942857D01*
X186270833Y-66961904D01*
X186308928Y-66980952D01*
X186385119Y-66980952D01*
X186423214Y-66961904D01*
X186442261Y-66942857D01*
X186461309Y-66904761D01*
X186461309Y-66580952D01*
X186632738Y-66619047D02*
X186651785Y-66600000D01*
X186689880Y-66580952D01*
X186785119Y-66580952D01*
X186823214Y-66600000D01*
X186842261Y-66619047D01*
X186861309Y-66657142D01*
X186861309Y-66695238D01*
X186842261Y-66752380D01*
X186613690Y-66980952D01*
X186861309Y-66980952D01*
D14*
%TO.C,R18*%
X138923271Y-75410190D02*
X138756604Y-75172095D01*
X138637557Y-75410190D02*
X138637557Y-74910190D01*
X138828033Y-74910190D01*
X138875652Y-74934000D01*
X138899461Y-74957809D01*
X138923271Y-75005428D01*
X138923271Y-75076857D01*
X138899461Y-75124476D01*
X138875652Y-75148285D01*
X138828033Y-75172095D01*
X138637557Y-75172095D01*
X139399461Y-75410190D02*
X139113747Y-75410190D01*
X139256604Y-75410190D02*
X139256604Y-74910190D01*
X139208985Y-74981619D01*
X139161366Y-75029238D01*
X139113747Y-75053047D01*
X139685176Y-75124476D02*
X139637557Y-75100666D01*
X139613747Y-75076857D01*
X139589938Y-75029238D01*
X139589938Y-75005428D01*
X139613747Y-74957809D01*
X139637557Y-74934000D01*
X139685176Y-74910190D01*
X139780414Y-74910190D01*
X139828033Y-74934000D01*
X139851842Y-74957809D01*
X139875652Y-75005428D01*
X139875652Y-75029238D01*
X139851842Y-75076857D01*
X139828033Y-75100666D01*
X139780414Y-75124476D01*
X139685176Y-75124476D01*
X139637557Y-75148285D01*
X139613747Y-75172095D01*
X139589938Y-75219714D01*
X139589938Y-75314952D01*
X139613747Y-75362571D01*
X139637557Y-75386380D01*
X139685176Y-75410190D01*
X139780414Y-75410190D01*
X139828033Y-75386380D01*
X139851842Y-75362571D01*
X139875652Y-75314952D01*
X139875652Y-75219714D01*
X139851842Y-75172095D01*
X139828033Y-75148285D01*
X139780414Y-75124476D01*
D12*
%TO.C,RBP3*%
X181832380Y-54166666D02*
X181356190Y-54500000D01*
X181832380Y-54738095D02*
X180832380Y-54738095D01*
X180832380Y-54357142D01*
X180880000Y-54261904D01*
X180927619Y-54214285D01*
X181022857Y-54166666D01*
X181165714Y-54166666D01*
X181260952Y-54214285D01*
X181308571Y-54261904D01*
X181356190Y-54357142D01*
X181356190Y-54738095D01*
X181308571Y-53404761D02*
X181356190Y-53261904D01*
X181403809Y-53214285D01*
X181499047Y-53166666D01*
X181641904Y-53166666D01*
X181737142Y-53214285D01*
X181784761Y-53261904D01*
X181832380Y-53357142D01*
X181832380Y-53738095D01*
X180832380Y-53738095D01*
X180832380Y-53404761D01*
X180880000Y-53309523D01*
X180927619Y-53261904D01*
X181022857Y-53214285D01*
X181118095Y-53214285D01*
X181213333Y-53261904D01*
X181260952Y-53309523D01*
X181308571Y-53404761D01*
X181308571Y-53738095D01*
X181832380Y-52738095D02*
X180832380Y-52738095D01*
X180832380Y-52357142D01*
X180880000Y-52261904D01*
X180927619Y-52214285D01*
X181022857Y-52166666D01*
X181165714Y-52166666D01*
X181260952Y-52214285D01*
X181308571Y-52261904D01*
X181356190Y-52357142D01*
X181356190Y-52738095D01*
X180832380Y-51833333D02*
X180832380Y-51214285D01*
X181213333Y-51547619D01*
X181213333Y-51404761D01*
X181260952Y-51309523D01*
X181308571Y-51261904D01*
X181403809Y-51214285D01*
X181641904Y-51214285D01*
X181737142Y-51261904D01*
X181784761Y-51309523D01*
X181832380Y-51404761D01*
X181832380Y-51690476D01*
X181784761Y-51785714D01*
X181737142Y-51833333D01*
%TO.C,BT1*%
X129474285Y-60068571D02*
X129617142Y-60116190D01*
X129664761Y-60163809D01*
X129712380Y-60259047D01*
X129712380Y-60401904D01*
X129664761Y-60497142D01*
X129617142Y-60544761D01*
X129521904Y-60592380D01*
X129140952Y-60592380D01*
X129140952Y-59592380D01*
X129474285Y-59592380D01*
X129569523Y-59640000D01*
X129617142Y-59687619D01*
X129664761Y-59782857D01*
X129664761Y-59878095D01*
X129617142Y-59973333D01*
X129569523Y-60020952D01*
X129474285Y-60068571D01*
X129140952Y-60068571D01*
X129998095Y-59592380D02*
X130569523Y-59592380D01*
X130283809Y-60592380D02*
X130283809Y-59592380D01*
X131426666Y-60592380D02*
X130855238Y-60592380D01*
X131140952Y-60592380D02*
X131140952Y-59592380D01*
X131045714Y-59735238D01*
X130950476Y-59830476D01*
X130855238Y-59878095D01*
%TO.C,JP22*%
X141387580Y-98815123D02*
X142101866Y-98815123D01*
X142244723Y-98862742D01*
X142339961Y-98957980D01*
X142387580Y-99100838D01*
X142387580Y-99196076D01*
X142387580Y-98338933D02*
X141387580Y-98338933D01*
X141387580Y-97957980D01*
X141435200Y-97862742D01*
X141482819Y-97815123D01*
X141578057Y-97767504D01*
X141720914Y-97767504D01*
X141816152Y-97815123D01*
X141863771Y-97862742D01*
X141911390Y-97957980D01*
X141911390Y-98338933D01*
X141482819Y-97386552D02*
X141435200Y-97338933D01*
X141387580Y-97243695D01*
X141387580Y-97005600D01*
X141435200Y-96910361D01*
X141482819Y-96862742D01*
X141578057Y-96815123D01*
X141673295Y-96815123D01*
X141816152Y-96862742D01*
X142387580Y-97434171D01*
X142387580Y-96815123D01*
X141482819Y-96434171D02*
X141435200Y-96386552D01*
X141387580Y-96291314D01*
X141387580Y-96053219D01*
X141435200Y-95957980D01*
X141482819Y-95910361D01*
X141578057Y-95862742D01*
X141673295Y-95862742D01*
X141816152Y-95910361D01*
X142387580Y-96481790D01*
X142387580Y-95862742D01*
D14*
%TO.C,C3*%
X164378571Y-104883333D02*
X164402380Y-104907142D01*
X164426190Y-104978571D01*
X164426190Y-105026190D01*
X164402380Y-105097619D01*
X164354761Y-105145238D01*
X164307142Y-105169047D01*
X164211904Y-105192857D01*
X164140476Y-105192857D01*
X164045238Y-105169047D01*
X163997619Y-105145238D01*
X163950000Y-105097619D01*
X163926190Y-105026190D01*
X163926190Y-104978571D01*
X163950000Y-104907142D01*
X163973809Y-104883333D01*
X163926190Y-104716666D02*
X163926190Y-104407142D01*
X164116666Y-104573809D01*
X164116666Y-104502380D01*
X164140476Y-104454761D01*
X164164285Y-104430952D01*
X164211904Y-104407142D01*
X164330952Y-104407142D01*
X164378571Y-104430952D01*
X164402380Y-104454761D01*
X164426190Y-104502380D01*
X164426190Y-104645238D01*
X164402380Y-104692857D01*
X164378571Y-104716666D01*
D12*
%TO.C,JP11*%
X175296580Y-126963323D02*
X176010866Y-126963323D01*
X176153723Y-127010942D01*
X176248961Y-127106180D01*
X176296580Y-127249038D01*
X176296580Y-127344276D01*
X176296580Y-126487133D02*
X175296580Y-126487133D01*
X175296580Y-126106180D01*
X175344200Y-126010942D01*
X175391819Y-125963323D01*
X175487057Y-125915704D01*
X175629914Y-125915704D01*
X175725152Y-125963323D01*
X175772771Y-126010942D01*
X175820390Y-126106180D01*
X175820390Y-126487133D01*
X176296580Y-124963323D02*
X176296580Y-125534752D01*
X176296580Y-125249038D02*
X175296580Y-125249038D01*
X175439438Y-125344276D01*
X175534676Y-125439514D01*
X175582295Y-125534752D01*
X176296580Y-124010942D02*
X176296580Y-124582371D01*
X176296580Y-124296657D02*
X175296580Y-124296657D01*
X175439438Y-124391895D01*
X175534676Y-124487133D01*
X175582295Y-124582371D01*
%TO.C,D2*%
X176052380Y-68838095D02*
X175052380Y-68838095D01*
X175052380Y-68600000D01*
X175100000Y-68457142D01*
X175195238Y-68361904D01*
X175290476Y-68314285D01*
X175480952Y-68266666D01*
X175623809Y-68266666D01*
X175814285Y-68314285D01*
X175909523Y-68361904D01*
X176004761Y-68457142D01*
X176052380Y-68600000D01*
X176052380Y-68838095D01*
X175147619Y-67885714D02*
X175100000Y-67838095D01*
X175052380Y-67742857D01*
X175052380Y-67504761D01*
X175100000Y-67409523D01*
X175147619Y-67361904D01*
X175242857Y-67314285D01*
X175338095Y-67314285D01*
X175480952Y-67361904D01*
X176052380Y-67933333D01*
X176052380Y-67314285D01*
D14*
%TO.C,U6*%
X184968390Y-139877752D02*
X185373152Y-139877752D01*
X185420771Y-139853942D01*
X185444580Y-139830133D01*
X185468390Y-139782514D01*
X185468390Y-139687276D01*
X185444580Y-139639657D01*
X185420771Y-139615847D01*
X185373152Y-139592038D01*
X184968390Y-139592038D01*
X184968390Y-139139657D02*
X184968390Y-139234895D01*
X184992200Y-139282514D01*
X185016009Y-139306323D01*
X185087438Y-139353942D01*
X185182676Y-139377752D01*
X185373152Y-139377752D01*
X185420771Y-139353942D01*
X185444580Y-139330133D01*
X185468390Y-139282514D01*
X185468390Y-139187276D01*
X185444580Y-139139657D01*
X185420771Y-139115847D01*
X185373152Y-139092038D01*
X185254104Y-139092038D01*
X185206485Y-139115847D01*
X185182676Y-139139657D01*
X185158866Y-139187276D01*
X185158866Y-139282514D01*
X185182676Y-139330133D01*
X185206485Y-139353942D01*
X185254104Y-139377752D01*
%TO.C,C8*%
X188240171Y-135277333D02*
X188263980Y-135301142D01*
X188287790Y-135372571D01*
X188287790Y-135420190D01*
X188263980Y-135491619D01*
X188216361Y-135539238D01*
X188168742Y-135563047D01*
X188073504Y-135586857D01*
X188002076Y-135586857D01*
X187906838Y-135563047D01*
X187859219Y-135539238D01*
X187811600Y-135491619D01*
X187787790Y-135420190D01*
X187787790Y-135372571D01*
X187811600Y-135301142D01*
X187835409Y-135277333D01*
X188002076Y-134991619D02*
X187978266Y-135039238D01*
X187954457Y-135063047D01*
X187906838Y-135086857D01*
X187883028Y-135086857D01*
X187835409Y-135063047D01*
X187811600Y-135039238D01*
X187787790Y-134991619D01*
X187787790Y-134896380D01*
X187811600Y-134848761D01*
X187835409Y-134824952D01*
X187883028Y-134801142D01*
X187906838Y-134801142D01*
X187954457Y-134824952D01*
X187978266Y-134848761D01*
X188002076Y-134896380D01*
X188002076Y-134991619D01*
X188025885Y-135039238D01*
X188049695Y-135063047D01*
X188097314Y-135086857D01*
X188192552Y-135086857D01*
X188240171Y-135063047D01*
X188263980Y-135039238D01*
X188287790Y-134991619D01*
X188287790Y-134896380D01*
X188263980Y-134848761D01*
X188240171Y-134824952D01*
X188192552Y-134801142D01*
X188097314Y-134801142D01*
X188049695Y-134824952D01*
X188025885Y-134848761D01*
X188002076Y-134896380D01*
D12*
%TO.C,J5*%
X110652380Y-113333333D02*
X111366666Y-113333333D01*
X111509523Y-113380952D01*
X111604761Y-113476190D01*
X111652380Y-113619047D01*
X111652380Y-113714285D01*
X110652380Y-112380952D02*
X110652380Y-112857142D01*
X111128571Y-112904761D01*
X111080952Y-112857142D01*
X111033333Y-112761904D01*
X111033333Y-112523809D01*
X111080952Y-112428571D01*
X111128571Y-112380952D01*
X111223809Y-112333333D01*
X111461904Y-112333333D01*
X111557142Y-112380952D01*
X111604761Y-112428571D01*
X111652380Y-112523809D01*
X111652380Y-112761904D01*
X111604761Y-112857142D01*
X111557142Y-112904761D01*
D14*
%TO.C,C10*%
X102421571Y-101651571D02*
X102397761Y-101675380D01*
X102326333Y-101699190D01*
X102278714Y-101699190D01*
X102207285Y-101675380D01*
X102159666Y-101627761D01*
X102135857Y-101580142D01*
X102112047Y-101484904D01*
X102112047Y-101413476D01*
X102135857Y-101318238D01*
X102159666Y-101270619D01*
X102207285Y-101223000D01*
X102278714Y-101199190D01*
X102326333Y-101199190D01*
X102397761Y-101223000D01*
X102421571Y-101246809D01*
X102897761Y-101699190D02*
X102612047Y-101699190D01*
X102754904Y-101699190D02*
X102754904Y-101199190D01*
X102707285Y-101270619D01*
X102659666Y-101318238D01*
X102612047Y-101342047D01*
X103207285Y-101199190D02*
X103254904Y-101199190D01*
X103302523Y-101223000D01*
X103326333Y-101246809D01*
X103350142Y-101294428D01*
X103373952Y-101389666D01*
X103373952Y-101508714D01*
X103350142Y-101603952D01*
X103326333Y-101651571D01*
X103302523Y-101675380D01*
X103254904Y-101699190D01*
X103207285Y-101699190D01*
X103159666Y-101675380D01*
X103135857Y-101651571D01*
X103112047Y-101603952D01*
X103088238Y-101508714D01*
X103088238Y-101389666D01*
X103112047Y-101294428D01*
X103135857Y-101246809D01*
X103159666Y-101223000D01*
X103207285Y-101199190D01*
%TO.C,R21*%
X188643390Y-139769328D02*
X188405295Y-139935995D01*
X188643390Y-140055042D02*
X188143390Y-140055042D01*
X188143390Y-139864566D01*
X188167200Y-139816947D01*
X188191009Y-139793138D01*
X188238628Y-139769328D01*
X188310057Y-139769328D01*
X188357676Y-139793138D01*
X188381485Y-139816947D01*
X188405295Y-139864566D01*
X188405295Y-140055042D01*
X188191009Y-139578852D02*
X188167200Y-139555042D01*
X188143390Y-139507423D01*
X188143390Y-139388376D01*
X188167200Y-139340757D01*
X188191009Y-139316947D01*
X188238628Y-139293138D01*
X188286247Y-139293138D01*
X188357676Y-139316947D01*
X188643390Y-139602661D01*
X188643390Y-139293138D01*
X188643390Y-138816947D02*
X188643390Y-139102661D01*
X188643390Y-138959804D02*
X188143390Y-138959804D01*
X188214819Y-139007423D01*
X188262438Y-139055042D01*
X188286247Y-139102661D01*
D12*
%TO.C,Charger1*%
X185557142Y-55651428D02*
X185604761Y-55699047D01*
X185652380Y-55841904D01*
X185652380Y-55937142D01*
X185604761Y-56080000D01*
X185509523Y-56175238D01*
X185414285Y-56222857D01*
X185223809Y-56270476D01*
X185080952Y-56270476D01*
X184890476Y-56222857D01*
X184795238Y-56175238D01*
X184700000Y-56080000D01*
X184652380Y-55937142D01*
X184652380Y-55841904D01*
X184700000Y-55699047D01*
X184747619Y-55651428D01*
X185652380Y-55222857D02*
X184652380Y-55222857D01*
X185652380Y-54794285D02*
X185128571Y-54794285D01*
X185033333Y-54841904D01*
X184985714Y-54937142D01*
X184985714Y-55080000D01*
X185033333Y-55175238D01*
X185080952Y-55222857D01*
X185652380Y-53889523D02*
X185128571Y-53889523D01*
X185033333Y-53937142D01*
X184985714Y-54032380D01*
X184985714Y-54222857D01*
X185033333Y-54318095D01*
X185604761Y-53889523D02*
X185652380Y-53984761D01*
X185652380Y-54222857D01*
X185604761Y-54318095D01*
X185509523Y-54365714D01*
X185414285Y-54365714D01*
X185319047Y-54318095D01*
X185271428Y-54222857D01*
X185271428Y-53984761D01*
X185223809Y-53889523D01*
X185652380Y-53413333D02*
X184985714Y-53413333D01*
X185176190Y-53413333D02*
X185080952Y-53365714D01*
X185033333Y-53318095D01*
X184985714Y-53222857D01*
X184985714Y-53127619D01*
X184985714Y-52365714D02*
X185795238Y-52365714D01*
X185890476Y-52413333D01*
X185938095Y-52460952D01*
X185985714Y-52556190D01*
X185985714Y-52699047D01*
X185938095Y-52794285D01*
X185604761Y-52365714D02*
X185652380Y-52460952D01*
X185652380Y-52651428D01*
X185604761Y-52746666D01*
X185557142Y-52794285D01*
X185461904Y-52841904D01*
X185176190Y-52841904D01*
X185080952Y-52794285D01*
X185033333Y-52746666D01*
X184985714Y-52651428D01*
X184985714Y-52460952D01*
X185033333Y-52365714D01*
X185604761Y-51508571D02*
X185652380Y-51603809D01*
X185652380Y-51794285D01*
X185604761Y-51889523D01*
X185509523Y-51937142D01*
X185128571Y-51937142D01*
X185033333Y-51889523D01*
X184985714Y-51794285D01*
X184985714Y-51603809D01*
X185033333Y-51508571D01*
X185128571Y-51460952D01*
X185223809Y-51460952D01*
X185319047Y-51937142D01*
X185652380Y-51032380D02*
X184985714Y-51032380D01*
X185176190Y-51032380D02*
X185080952Y-50984761D01*
X185033333Y-50937142D01*
X184985714Y-50841904D01*
X184985714Y-50746666D01*
X185652380Y-49889523D02*
X185652380Y-50460952D01*
X185652380Y-50175238D02*
X184652380Y-50175238D01*
X184795238Y-50270476D01*
X184890476Y-50365714D01*
X184938095Y-50460952D01*
D14*
%TO.C,C11*%
X100262571Y-117272571D02*
X100238761Y-117296380D01*
X100167333Y-117320190D01*
X100119714Y-117320190D01*
X100048285Y-117296380D01*
X100000666Y-117248761D01*
X99976857Y-117201142D01*
X99953047Y-117105904D01*
X99953047Y-117034476D01*
X99976857Y-116939238D01*
X100000666Y-116891619D01*
X100048285Y-116844000D01*
X100119714Y-116820190D01*
X100167333Y-116820190D01*
X100238761Y-116844000D01*
X100262571Y-116867809D01*
X100738761Y-117320190D02*
X100453047Y-117320190D01*
X100595904Y-117320190D02*
X100595904Y-116820190D01*
X100548285Y-116891619D01*
X100500666Y-116939238D01*
X100453047Y-116963047D01*
X101214952Y-117320190D02*
X100929238Y-117320190D01*
X101072095Y-117320190D02*
X101072095Y-116820190D01*
X101024476Y-116891619D01*
X100976857Y-116939238D01*
X100929238Y-116963047D01*
D12*
%TO.C,JP18*%
X165252380Y-127279523D02*
X165966666Y-127279523D01*
X166109523Y-127327142D01*
X166204761Y-127422380D01*
X166252380Y-127565238D01*
X166252380Y-127660476D01*
X166252380Y-126803333D02*
X165252380Y-126803333D01*
X165252380Y-126422380D01*
X165300000Y-126327142D01*
X165347619Y-126279523D01*
X165442857Y-126231904D01*
X165585714Y-126231904D01*
X165680952Y-126279523D01*
X165728571Y-126327142D01*
X165776190Y-126422380D01*
X165776190Y-126803333D01*
X166252380Y-125279523D02*
X166252380Y-125850952D01*
X166252380Y-125565238D02*
X165252380Y-125565238D01*
X165395238Y-125660476D01*
X165490476Y-125755714D01*
X165538095Y-125850952D01*
X165680952Y-124708095D02*
X165633333Y-124803333D01*
X165585714Y-124850952D01*
X165490476Y-124898571D01*
X165442857Y-124898571D01*
X165347619Y-124850952D01*
X165300000Y-124803333D01*
X165252380Y-124708095D01*
X165252380Y-124517619D01*
X165300000Y-124422380D01*
X165347619Y-124374761D01*
X165442857Y-124327142D01*
X165490476Y-124327142D01*
X165585714Y-124374761D01*
X165633333Y-124422380D01*
X165680952Y-124517619D01*
X165680952Y-124708095D01*
X165728571Y-124803333D01*
X165776190Y-124850952D01*
X165871428Y-124898571D01*
X166061904Y-124898571D01*
X166157142Y-124850952D01*
X166204761Y-124803333D01*
X166252380Y-124708095D01*
X166252380Y-124517619D01*
X166204761Y-124422380D01*
X166157142Y-124374761D01*
X166061904Y-124327142D01*
X165871428Y-124327142D01*
X165776190Y-124374761D01*
X165728571Y-124422380D01*
X165680952Y-124517619D01*
%TO.C,RBP2*%
X177152380Y-54236666D02*
X176676190Y-54570000D01*
X177152380Y-54808095D02*
X176152380Y-54808095D01*
X176152380Y-54427142D01*
X176200000Y-54331904D01*
X176247619Y-54284285D01*
X176342857Y-54236666D01*
X176485714Y-54236666D01*
X176580952Y-54284285D01*
X176628571Y-54331904D01*
X176676190Y-54427142D01*
X176676190Y-54808095D01*
X176628571Y-53474761D02*
X176676190Y-53331904D01*
X176723809Y-53284285D01*
X176819047Y-53236666D01*
X176961904Y-53236666D01*
X177057142Y-53284285D01*
X177104761Y-53331904D01*
X177152380Y-53427142D01*
X177152380Y-53808095D01*
X176152380Y-53808095D01*
X176152380Y-53474761D01*
X176200000Y-53379523D01*
X176247619Y-53331904D01*
X176342857Y-53284285D01*
X176438095Y-53284285D01*
X176533333Y-53331904D01*
X176580952Y-53379523D01*
X176628571Y-53474761D01*
X176628571Y-53808095D01*
X177152380Y-52808095D02*
X176152380Y-52808095D01*
X176152380Y-52427142D01*
X176200000Y-52331904D01*
X176247619Y-52284285D01*
X176342857Y-52236666D01*
X176485714Y-52236666D01*
X176580952Y-52284285D01*
X176628571Y-52331904D01*
X176676190Y-52427142D01*
X176676190Y-52808095D01*
X176247619Y-51855714D02*
X176200000Y-51808095D01*
X176152380Y-51712857D01*
X176152380Y-51474761D01*
X176200000Y-51379523D01*
X176247619Y-51331904D01*
X176342857Y-51284285D01*
X176438095Y-51284285D01*
X176580952Y-51331904D01*
X177152380Y-51903333D01*
X177152380Y-51284285D01*
D13*
%TO.C,Q6*%
X136690038Y-71305176D02*
X136674800Y-71335652D01*
X136644323Y-71366128D01*
X136598609Y-71411842D01*
X136583371Y-71442319D01*
X136583371Y-71472795D01*
X136659561Y-71457557D02*
X136644323Y-71488033D01*
X136613847Y-71518509D01*
X136552895Y-71533747D01*
X136446228Y-71533747D01*
X136385276Y-71518509D01*
X136354800Y-71488033D01*
X136339561Y-71457557D01*
X136339561Y-71396604D01*
X136354800Y-71366128D01*
X136385276Y-71335652D01*
X136446228Y-71320414D01*
X136552895Y-71320414D01*
X136613847Y-71335652D01*
X136644323Y-71366128D01*
X136659561Y-71396604D01*
X136659561Y-71457557D01*
X136339561Y-71046128D02*
X136339561Y-71107080D01*
X136354800Y-71137557D01*
X136370038Y-71152795D01*
X136415752Y-71183271D01*
X136476704Y-71198509D01*
X136598609Y-71198509D01*
X136629085Y-71183271D01*
X136644323Y-71168033D01*
X136659561Y-71137557D01*
X136659561Y-71076604D01*
X136644323Y-71046128D01*
X136629085Y-71030890D01*
X136598609Y-71015652D01*
X136522419Y-71015652D01*
X136491942Y-71030890D01*
X136476704Y-71046128D01*
X136461466Y-71076604D01*
X136461466Y-71137557D01*
X136476704Y-71168033D01*
X136491942Y-71183271D01*
X136522419Y-71198509D01*
D12*
%TO.C,JP23*%
X129622476Y-126833380D02*
X129622476Y-127547666D01*
X129574857Y-127690523D01*
X129479619Y-127785761D01*
X129336761Y-127833380D01*
X129241523Y-127833380D01*
X130098666Y-127833380D02*
X130098666Y-126833380D01*
X130479619Y-126833380D01*
X130574857Y-126881000D01*
X130622476Y-126928619D01*
X130670095Y-127023857D01*
X130670095Y-127166714D01*
X130622476Y-127261952D01*
X130574857Y-127309571D01*
X130479619Y-127357190D01*
X130098666Y-127357190D01*
X131051047Y-126928619D02*
X131098666Y-126881000D01*
X131193904Y-126833380D01*
X131432000Y-126833380D01*
X131527238Y-126881000D01*
X131574857Y-126928619D01*
X131622476Y-127023857D01*
X131622476Y-127119095D01*
X131574857Y-127261952D01*
X131003428Y-127833380D01*
X131622476Y-127833380D01*
X131955809Y-126833380D02*
X132574857Y-126833380D01*
X132241523Y-127214333D01*
X132384380Y-127214333D01*
X132479619Y-127261952D01*
X132527238Y-127309571D01*
X132574857Y-127404809D01*
X132574857Y-127642904D01*
X132527238Y-127738142D01*
X132479619Y-127785761D01*
X132384380Y-127833380D01*
X132098666Y-127833380D01*
X132003428Y-127785761D01*
X131955809Y-127738142D01*
D14*
%TO.C,C4*%
X187004166Y-76578571D02*
X186980357Y-76602380D01*
X186908928Y-76626190D01*
X186861309Y-76626190D01*
X186789880Y-76602380D01*
X186742261Y-76554761D01*
X186718452Y-76507142D01*
X186694642Y-76411904D01*
X186694642Y-76340476D01*
X186718452Y-76245238D01*
X186742261Y-76197619D01*
X186789880Y-76150000D01*
X186861309Y-76126190D01*
X186908928Y-76126190D01*
X186980357Y-76150000D01*
X187004166Y-76173809D01*
X187432738Y-76292857D02*
X187432738Y-76626190D01*
X187313690Y-76102380D02*
X187194642Y-76459523D01*
X187504166Y-76459523D01*
D12*
%TO.C,JP21*%
X130744980Y-98896323D02*
X131459266Y-98896323D01*
X131602123Y-98943942D01*
X131697361Y-99039180D01*
X131744980Y-99182038D01*
X131744980Y-99277276D01*
X131744980Y-98420133D02*
X130744980Y-98420133D01*
X130744980Y-98039180D01*
X130792600Y-97943942D01*
X130840219Y-97896323D01*
X130935457Y-97848704D01*
X131078314Y-97848704D01*
X131173552Y-97896323D01*
X131221171Y-97943942D01*
X131268790Y-98039180D01*
X131268790Y-98420133D01*
X130840219Y-97467752D02*
X130792600Y-97420133D01*
X130744980Y-97324895D01*
X130744980Y-97086800D01*
X130792600Y-96991561D01*
X130840219Y-96943942D01*
X130935457Y-96896323D01*
X131030695Y-96896323D01*
X131173552Y-96943942D01*
X131744980Y-97515371D01*
X131744980Y-96896323D01*
X131744980Y-95943942D02*
X131744980Y-96515371D01*
X131744980Y-96229657D02*
X130744980Y-96229657D01*
X130887838Y-96324895D01*
X130983076Y-96420133D01*
X131030695Y-96515371D01*
D10*
%TO.C,3V3*%
X149830000Y-101090000D02*
X150465000Y-100455000D01*
X152370000Y-105535000D02*
X149830000Y-105535000D01*
X149830000Y-105535000D02*
X149830000Y-101090000D01*
X152370000Y-100455000D02*
X152370000Y-105535000D01*
X150465000Y-100455000D02*
X152370000Y-100455000D01*
%TO.C,C9*%
X154748300Y-77630810D02*
X155548300Y-77630810D01*
X155148300Y-78030810D02*
X155148300Y-77230810D01*
X160895800Y-74604051D02*
G75*
G03*
X160895800Y-74604051I-4000000J0D01*
G01*
%TO.C,Q4*%
X174612500Y-95300000D02*
X175912500Y-95300000D01*
X175912500Y-97875000D02*
X175587500Y-98200000D01*
X175912500Y-95300000D02*
X175912500Y-97875000D01*
X174612500Y-98200000D02*
X174612500Y-95300000D01*
X175587500Y-98200000D02*
X174612500Y-98200000D01*
%TO.C,R16*%
X173192600Y-119372500D02*
X173192600Y-121372500D01*
X171942600Y-119372500D02*
X173192600Y-119372500D01*
X171942600Y-121372500D02*
X171942600Y-119372500D01*
X173192600Y-121372500D02*
X171942600Y-121372500D01*
%TO.C,Q1*%
X173650000Y-59650000D02*
X173650000Y-60950000D01*
X170750000Y-59650000D02*
X173650000Y-59650000D01*
X173650000Y-60950000D02*
X171075000Y-60950000D01*
X171075000Y-60950000D02*
X170750000Y-60625000D01*
X170750000Y-60625000D02*
X170750000Y-59650000D01*
%TO.C,JP19*%
X168848000Y-128310000D02*
X168848000Y-123230000D01*
X168848000Y-123230000D02*
X171388000Y-123230000D01*
X170753000Y-128310000D02*
X168848000Y-128310000D01*
X171388000Y-127675000D02*
X170753000Y-128310000D01*
X171388000Y-123230000D02*
X171388000Y-127675000D01*
%TO.C,R1*%
X171625000Y-65187500D02*
X170375000Y-65187500D01*
X171625000Y-63187500D02*
X171625000Y-65187500D01*
X170375000Y-65187500D02*
X170375000Y-63187500D01*
X170375000Y-63187500D02*
X171625000Y-63187500D01*
%TO.C,JP16*%
X148336000Y-74041000D02*
X148971000Y-73406000D01*
X148971000Y-73406000D02*
X150876000Y-73406000D01*
X150876000Y-73406000D02*
X150876000Y-78486000D01*
X148336000Y-78486000D02*
X148336000Y-74041000D01*
X150876000Y-78486000D02*
X148336000Y-78486000D01*
D17*
%TO.C,J6*%
X189687500Y-107483250D02*
X189687500Y-117683250D01*
X185027500Y-115283250D02*
X185027500Y-108083250D01*
X185027500Y-108083250D02*
X190087500Y-108083250D01*
X190087500Y-108083250D02*
X190087500Y-115283250D01*
X190087500Y-115283250D02*
X185027500Y-115283250D01*
D18*
X184037500Y-113033250D02*
G75*
G03*
X184037500Y-113033250I-100000J0D01*
G01*
D10*
%TO.C,R22*%
X146675000Y-70143500D02*
X146675000Y-72143500D01*
X145425000Y-70143500D02*
X146675000Y-70143500D01*
X146675000Y-72143500D02*
X145425000Y-72143500D01*
X145425000Y-72143500D02*
X145425000Y-70143500D01*
%TO.C,C5*%
X155312500Y-97475000D02*
X157312500Y-97475000D01*
X155312500Y-98725000D02*
X155312500Y-97475000D01*
X157312500Y-97475000D02*
X157312500Y-98725000D01*
X157312500Y-98725000D02*
X155312500Y-98725000D01*
%TO.C,C12*%
X99550000Y-112675000D02*
X101550000Y-112675000D01*
X101550000Y-113925000D02*
X99550000Y-113925000D01*
X101550000Y-112675000D02*
X101550000Y-113925000D01*
X99550000Y-113925000D02*
X99550000Y-112675000D01*
%TO.C,C2*%
X157300000Y-95075000D02*
X157300000Y-96325000D01*
X155300000Y-96325000D02*
X155300000Y-95075000D01*
X155300000Y-95075000D02*
X157300000Y-95075000D01*
X157300000Y-96325000D02*
X155300000Y-96325000D01*
%TO.C,R15*%
X134934800Y-77706100D02*
X134934800Y-75706100D01*
X136184800Y-77706100D02*
X134934800Y-77706100D01*
X136184800Y-75706100D02*
X136184800Y-77706100D01*
X134934800Y-75706100D02*
X136184800Y-75706100D01*
D17*
%TO.C,U9*%
X119044000Y-122772000D02*
X119044000Y-127672000D01*
X115144000Y-127672000D02*
X115144000Y-122772000D01*
X115694000Y-127672000D02*
X115694000Y-122772000D01*
D19*
X119402580Y-124036950D02*
X119889150Y-124036950D01*
X119889150Y-124036950D02*
X119889150Y-125136916D01*
X119889150Y-125136916D02*
X119402580Y-125136916D01*
X119402580Y-125136916D02*
X119402580Y-124036950D01*
G36*
X119889150Y-125136916D02*
G01*
X119402580Y-125136916D01*
X119402580Y-124036950D01*
X119889150Y-124036950D01*
X119889150Y-125136916D01*
G37*
X119889150Y-125136916D02*
X119402580Y-125136916D01*
X119402580Y-124036950D01*
X119889150Y-124036950D01*
X119889150Y-125136916D01*
X119402350Y-125306950D02*
X119889150Y-125306950D01*
X119889150Y-125306950D02*
X119889150Y-126408800D01*
X119889150Y-126408800D02*
X119402350Y-126408800D01*
X119402350Y-126408800D02*
X119402350Y-125306950D01*
G36*
X119889150Y-126408800D02*
G01*
X119402350Y-126408800D01*
X119402350Y-125306950D01*
X119889150Y-125306950D01*
X119889150Y-126408800D01*
G37*
X119889150Y-126408800D02*
X119402350Y-126408800D01*
X119402350Y-125306950D01*
X119889150Y-125306950D01*
X119889150Y-126408800D01*
X114295010Y-122766950D02*
X114789050Y-122766950D01*
X114789050Y-122766950D02*
X114789050Y-123865190D01*
X114789050Y-123865190D02*
X114295010Y-123865190D01*
X114295010Y-123865190D02*
X114295010Y-122766950D01*
G36*
X114789050Y-123865190D02*
G01*
X114295010Y-123865190D01*
X114295010Y-122766950D01*
X114789050Y-122766950D01*
X114789050Y-123865190D01*
G37*
X114789050Y-123865190D02*
X114295010Y-123865190D01*
X114295010Y-122766950D01*
X114789050Y-122766950D01*
X114789050Y-123865190D01*
X119406080Y-126576950D02*
X119889150Y-126576950D01*
X119889150Y-126576950D02*
X119889150Y-127684650D01*
X119889150Y-127684650D02*
X119406080Y-127684650D01*
X119406080Y-127684650D02*
X119406080Y-126576950D01*
G36*
X119889150Y-127684650D02*
G01*
X119406080Y-127684650D01*
X119406080Y-126576950D01*
X119889150Y-126576950D01*
X119889150Y-127684650D01*
G37*
X119889150Y-127684650D02*
X119406080Y-127684650D01*
X119406080Y-126576950D01*
X119889150Y-126576950D01*
X119889150Y-127684650D01*
X119400240Y-122766950D02*
X119889150Y-122766950D01*
X119889150Y-122766950D02*
X119889150Y-123866290D01*
X119889150Y-123866290D02*
X119400240Y-123866290D01*
X119400240Y-123866290D02*
X119400240Y-122766950D01*
G36*
X119889150Y-123866290D02*
G01*
X119400240Y-123866290D01*
X119400240Y-122766950D01*
X119889150Y-122766950D01*
X119889150Y-123866290D01*
G37*
X119889150Y-123866290D02*
X119400240Y-123866290D01*
X119400240Y-122766950D01*
X119889150Y-122766950D01*
X119889150Y-123866290D01*
X114293630Y-126576950D02*
X114789050Y-126576950D01*
X114789050Y-126576950D02*
X114789050Y-127681640D01*
X114789050Y-127681640D02*
X114293630Y-127681640D01*
X114293630Y-127681640D02*
X114293630Y-126576950D01*
G36*
X114789050Y-127681640D02*
G01*
X114293630Y-127681640D01*
X114293630Y-126576950D01*
X114789050Y-126576950D01*
X114789050Y-127681640D01*
G37*
X114789050Y-127681640D02*
X114293630Y-127681640D01*
X114293630Y-126576950D01*
X114789050Y-126576950D01*
X114789050Y-127681640D01*
X114293530Y-124036950D02*
X114789050Y-124036950D01*
X114789050Y-124036950D02*
X114789050Y-125136888D01*
X114789050Y-125136888D02*
X114293530Y-125136888D01*
X114293530Y-125136888D02*
X114293530Y-124036950D01*
G36*
X114789050Y-125136888D02*
G01*
X114293530Y-125136888D01*
X114293530Y-124036950D01*
X114789050Y-124036950D01*
X114789050Y-125136888D01*
G37*
X114789050Y-125136888D02*
X114293530Y-125136888D01*
X114293530Y-124036950D01*
X114789050Y-124036950D01*
X114789050Y-125136888D01*
X114295760Y-125306950D02*
X114789050Y-125306950D01*
X114789050Y-125306950D02*
X114789050Y-126408360D01*
X114789050Y-126408360D02*
X114295760Y-126408360D01*
X114295760Y-126408360D02*
X114295760Y-125306950D01*
G36*
X114789050Y-126408360D02*
G01*
X114295760Y-126408360D01*
X114295760Y-125306950D01*
X114789050Y-125306950D01*
X114789050Y-126408360D01*
G37*
X114789050Y-126408360D02*
X114295760Y-126408360D01*
X114295760Y-125306950D01*
X114789050Y-125306950D01*
X114789050Y-126408360D01*
D10*
%TO.C,D1*%
X178200000Y-69725000D02*
X183400000Y-69725000D01*
X180800000Y-58680000D02*
X180800000Y-61550000D01*
X183400000Y-61550000D02*
X178200000Y-61550000D01*
X178200000Y-61550000D02*
X178200000Y-71050000D01*
X183400000Y-71050000D02*
X183400000Y-61550000D01*
X178200000Y-69525000D02*
X183400000Y-69525000D01*
X178200000Y-71050000D02*
X183400000Y-71050000D01*
X178200000Y-69625000D02*
X183400000Y-69625000D01*
X180800000Y-73920000D02*
X180800000Y-71050000D01*
%TO.C,JP10*%
X186080400Y-127360600D02*
X184175400Y-127360600D01*
X184175400Y-127360600D02*
X184175400Y-122280600D01*
X184175400Y-122280600D02*
X186715400Y-122280600D01*
X186715400Y-122280600D02*
X186715400Y-126725600D01*
X186715400Y-126725600D02*
X186080400Y-127360600D01*
%TO.C,R19*%
X139557600Y-72270500D02*
X139557600Y-70270500D01*
X140807600Y-70270500D02*
X140807600Y-72270500D01*
X140807600Y-72270500D02*
X139557600Y-72270500D01*
X139557600Y-70270500D02*
X140807600Y-70270500D01*
%TO.C,JP24*%
X116332000Y-118110000D02*
X116332000Y-113665000D01*
X116967000Y-113030000D02*
X118872000Y-113030000D01*
X116332000Y-113665000D02*
X116967000Y-113030000D01*
X118872000Y-118110000D02*
X116332000Y-118110000D01*
X118872000Y-113030000D02*
X118872000Y-118110000D01*
%TO.C,R2*%
X174362500Y-99275000D02*
X176362500Y-99275000D01*
X176362500Y-100525000D02*
X174362500Y-100525000D01*
X174362500Y-100525000D02*
X174362500Y-99275000D01*
X176362500Y-99275000D02*
X176362500Y-100525000D01*
D18*
%TO.C,U8*%
X119470000Y-103714000D02*
X124370000Y-103714000D01*
X119470000Y-104264000D02*
X124370000Y-104264000D01*
X124370000Y-107614000D02*
X119470000Y-107614000D01*
D19*
X121835050Y-107972900D02*
X121835050Y-108459150D01*
X121835050Y-108459150D02*
X120732910Y-108459150D01*
X120732910Y-108459150D02*
X120732910Y-107972900D01*
X120732910Y-107972900D02*
X121835050Y-107972900D01*
G36*
X121835050Y-108459150D02*
G01*
X120732910Y-108459150D01*
X120732910Y-107972900D01*
X121835050Y-107972900D01*
X121835050Y-108459150D01*
G37*
X121835050Y-108459150D02*
X120732910Y-108459150D01*
X120732910Y-107972900D01*
X121835050Y-107972900D01*
X121835050Y-108459150D01*
X123105050Y-107976190D02*
X123105050Y-108459150D01*
X123105050Y-108459150D02*
X122005217Y-108459150D01*
X122005217Y-108459150D02*
X122005217Y-107976190D01*
X122005217Y-107976190D02*
X123105050Y-107976190D01*
G36*
X123105050Y-108459150D02*
G01*
X122005217Y-108459150D01*
X122005217Y-107976190D01*
X123105050Y-107976190D01*
X123105050Y-108459150D01*
G37*
X123105050Y-108459150D02*
X122005217Y-108459150D01*
X122005217Y-107976190D01*
X123105050Y-107976190D01*
X123105050Y-108459150D01*
X120565050Y-107973870D02*
X120565050Y-108459150D01*
X120565050Y-108459150D02*
X119459700Y-108459150D01*
X119459700Y-108459150D02*
X119459700Y-107973870D01*
X119459700Y-107973870D02*
X120565050Y-107973870D01*
G36*
X120565050Y-108459150D02*
G01*
X119459700Y-108459150D01*
X119459700Y-107973870D01*
X120565050Y-107973870D01*
X120565050Y-108459150D01*
G37*
X120565050Y-108459150D02*
X119459700Y-108459150D01*
X119459700Y-107973870D01*
X120565050Y-107973870D01*
X120565050Y-108459150D01*
X124375050Y-107974570D02*
X124375050Y-108459150D01*
X124375050Y-108459150D02*
X123278250Y-108459150D01*
X123278250Y-108459150D02*
X123278250Y-107974570D01*
X123278250Y-107974570D02*
X124375050Y-107974570D01*
G36*
X124375050Y-108459150D02*
G01*
X123278250Y-108459150D01*
X123278250Y-107974570D01*
X124375050Y-107974570D01*
X124375050Y-108459150D01*
G37*
X124375050Y-108459150D02*
X123278250Y-108459150D01*
X123278250Y-107974570D01*
X124375050Y-107974570D01*
X124375050Y-108459150D01*
X123105050Y-102865700D02*
X123105050Y-103359050D01*
X123105050Y-103359050D02*
X122005046Y-103359050D01*
X122005046Y-103359050D02*
X122005046Y-102865700D01*
X122005046Y-102865700D02*
X123105050Y-102865700D01*
G36*
X123105050Y-103359050D02*
G01*
X122005046Y-103359050D01*
X122005046Y-102865700D01*
X123105050Y-102865700D01*
X123105050Y-103359050D01*
G37*
X123105050Y-103359050D02*
X122005046Y-103359050D01*
X122005046Y-102865700D01*
X123105050Y-102865700D01*
X123105050Y-103359050D01*
X120565050Y-102864170D02*
X120565050Y-103359050D01*
X120565050Y-103359050D02*
X119460830Y-103359050D01*
X119460830Y-103359050D02*
X119460830Y-102864170D01*
X119460830Y-102864170D02*
X120565050Y-102864170D01*
G36*
X120565050Y-103359050D02*
G01*
X119460830Y-103359050D01*
X119460830Y-102864170D01*
X120565050Y-102864170D01*
X120565050Y-103359050D01*
G37*
X120565050Y-103359050D02*
X119460830Y-103359050D01*
X119460830Y-102864170D01*
X120565050Y-102864170D01*
X120565050Y-103359050D01*
X124375050Y-102865640D02*
X124375050Y-103359050D01*
X124375050Y-103359050D02*
X123276500Y-103359050D01*
X123276500Y-103359050D02*
X123276500Y-102865640D01*
X123276500Y-102865640D02*
X124375050Y-102865640D01*
G36*
X124375050Y-103359050D02*
G01*
X123276500Y-103359050D01*
X123276500Y-102865640D01*
X124375050Y-102865640D01*
X124375050Y-103359050D01*
G37*
X124375050Y-103359050D02*
X123276500Y-103359050D01*
X123276500Y-102865640D01*
X124375050Y-102865640D01*
X124375050Y-103359050D01*
X121835050Y-102864730D02*
X121835050Y-103359050D01*
X121835050Y-103359050D02*
X120733200Y-103359050D01*
X120733200Y-103359050D02*
X120733200Y-102864730D01*
X120733200Y-102864730D02*
X121835050Y-102864730D01*
G36*
X121835050Y-103359050D02*
G01*
X120733200Y-103359050D01*
X120733200Y-102864730D01*
X121835050Y-102864730D01*
X121835050Y-103359050D01*
G37*
X121835050Y-103359050D02*
X120733200Y-103359050D01*
X120733200Y-102864730D01*
X121835050Y-102864730D01*
X121835050Y-103359050D01*
D10*
%TO.C,R17*%
X179545100Y-120792400D02*
X179545100Y-119542400D01*
X181545100Y-120792400D02*
X179545100Y-120792400D01*
X179545100Y-119542400D02*
X181545100Y-119542400D01*
X181545100Y-119542400D02*
X181545100Y-120792400D01*
%TO.C,J2*%
X95250000Y-92710000D02*
X95250000Y-90170000D01*
X95250000Y-90170000D02*
X179070000Y-90170000D01*
X178435000Y-92710000D02*
X95250000Y-92710000D01*
X179070000Y-92075000D02*
X178435000Y-92710000D01*
X179070000Y-90170000D02*
X179070000Y-92075000D01*
%TO.C,R23*%
X101584000Y-108595000D02*
X101584000Y-109845000D01*
X99584000Y-109845000D02*
X99584000Y-108595000D01*
X101584000Y-109845000D02*
X99584000Y-109845000D01*
X99584000Y-108595000D02*
X101584000Y-108595000D01*
%TO.C,R24*%
X101584000Y-106289000D02*
X99584000Y-106289000D01*
X99584000Y-106289000D02*
X99584000Y-105039000D01*
X101584000Y-105039000D02*
X101584000Y-106289000D01*
X99584000Y-105039000D02*
X101584000Y-105039000D01*
%TO.C,D3*%
X178662500Y-96950000D02*
X178662500Y-97350000D01*
X177862500Y-99350000D02*
X177862500Y-96050000D01*
X178262500Y-97950000D02*
X178662500Y-97350000D01*
X178662500Y-97350000D02*
X178112500Y-97350000D01*
X178662500Y-97350000D02*
X179212500Y-97350000D01*
X178662500Y-97350000D02*
X179062500Y-97950000D01*
X179062500Y-97950000D02*
X178262500Y-97950000D01*
X177862500Y-96050000D02*
X179462500Y-96050000D01*
X178662500Y-97950000D02*
X178662500Y-98450000D01*
X179462500Y-99350000D02*
X177862500Y-99350000D01*
X179462500Y-96050000D02*
X179462500Y-99350000D01*
%TO.C,C6*%
X144262000Y-70308000D02*
X144262000Y-72308000D01*
X143012000Y-70308000D02*
X144262000Y-70308000D01*
X144262000Y-72308000D02*
X143012000Y-72308000D01*
X143012000Y-72308000D02*
X143012000Y-70308000D01*
%TO.C,U4*%
X160250000Y-106350000D02*
X159250000Y-107350000D01*
X159250000Y-107350000D02*
X156550000Y-107350000D01*
X160250000Y-100650000D02*
X156550000Y-100650000D01*
X160250000Y-106350000D02*
X160250000Y-100650000D01*
X156550000Y-107350000D02*
X156550000Y-100650000D01*
%TO.C,Q3*%
X187387500Y-73925000D02*
X187062500Y-74250000D01*
X186087500Y-74250000D02*
X186087500Y-71350000D01*
X186087500Y-71350000D02*
X187387500Y-71350000D01*
X187062500Y-74250000D02*
X186087500Y-74250000D01*
X187387500Y-71350000D02*
X187387500Y-73925000D01*
%TO.C,Q7*%
X175933100Y-121820600D02*
X175933100Y-119245600D01*
X177233100Y-121820600D02*
X175933100Y-121820600D01*
X177233100Y-118920600D02*
X177233100Y-121820600D01*
X176258100Y-118920600D02*
X177233100Y-118920600D01*
X175933100Y-119245600D02*
X176258100Y-118920600D01*
%TO.C,JP14*%
X182930800Y-139928600D02*
X182295800Y-140563600D01*
X180390800Y-140563600D02*
X180390800Y-135483600D01*
X182295800Y-140563600D02*
X180390800Y-140563600D01*
X180390800Y-135483600D02*
X182930800Y-135483600D01*
X182930800Y-135483600D02*
X182930800Y-139928600D01*
%TO.C,D4*%
X188800000Y-85950000D02*
X183600000Y-85950000D01*
X188800000Y-87275000D02*
X183600000Y-87275000D01*
X186200000Y-83080000D02*
X186200000Y-85950000D01*
X183600000Y-95450000D02*
X188800000Y-95450000D01*
X188800000Y-87375000D02*
X183600000Y-87375000D01*
X188800000Y-87475000D02*
X183600000Y-87475000D01*
X188800000Y-95450000D02*
X188800000Y-85950000D01*
X186200000Y-98320000D02*
X186200000Y-95450000D01*
X183600000Y-85950000D02*
X183600000Y-95450000D01*
%TO.C,JP17*%
X145465800Y-96240600D02*
X146100800Y-95605600D01*
X148005800Y-100685600D02*
X145465800Y-100685600D01*
X148005800Y-95605600D02*
X148005800Y-100685600D01*
X145465800Y-100685600D02*
X145465800Y-96240600D01*
X146100800Y-95605600D02*
X148005800Y-95605600D01*
%TO.C,UVLO1*%
X175570000Y-71655000D02*
X175570000Y-76735000D01*
X173030000Y-72290000D02*
X173665000Y-71655000D01*
X173030000Y-76735000D02*
X173030000Y-72290000D01*
X175570000Y-76735000D02*
X173030000Y-76735000D01*
X173665000Y-71655000D02*
X175570000Y-71655000D01*
%TO.C,Regulator2*%
X170710000Y-99730000D02*
X171345000Y-100365000D01*
X171345000Y-102270000D02*
X166265000Y-102270000D01*
X166265000Y-102270000D02*
X166265000Y-99730000D01*
X166265000Y-99730000D02*
X170710000Y-99730000D01*
X171345000Y-100365000D02*
X171345000Y-102270000D01*
%TO.C,J1*%
X179070000Y-80645000D02*
X179070000Y-82550000D01*
X179070000Y-82550000D02*
X95250000Y-82550000D01*
X95250000Y-82550000D02*
X95250000Y-80010000D01*
X178435000Y-80010000D02*
X179070000Y-80645000D01*
X95250000Y-80010000D02*
X178435000Y-80010000D01*
%TO.C,R7*%
X187700000Y-59125000D02*
X185700000Y-59125000D01*
X187700000Y-57875000D02*
X187700000Y-59125000D01*
X185700000Y-57875000D02*
X187700000Y-57875000D01*
X185700000Y-59125000D02*
X185700000Y-57875000D01*
%TO.C,Regulator1*%
X170775000Y-95630000D02*
X171410000Y-96265000D01*
X171410000Y-98170000D02*
X166330000Y-98170000D01*
X171410000Y-96265000D02*
X171410000Y-98170000D01*
X166330000Y-95630000D02*
X170775000Y-95630000D01*
X166330000Y-98170000D02*
X166330000Y-95630000D01*
%TO.C,R6*%
X185500000Y-61375000D02*
X187500000Y-61375000D01*
X187500000Y-62625000D02*
X185500000Y-62625000D01*
X187500000Y-61375000D02*
X187500000Y-62625000D01*
X185500000Y-62625000D02*
X185500000Y-61375000D01*
%TO.C,R14*%
X179443500Y-128437800D02*
X179443500Y-127187800D01*
X179443500Y-127187800D02*
X181443500Y-127187800D01*
X181443500Y-127187800D02*
X181443500Y-128437800D01*
X181443500Y-128437800D02*
X179443500Y-128437800D01*
%TO.C,R20*%
X185943400Y-134942700D02*
X185943400Y-136942700D01*
X185943400Y-136942700D02*
X184693400Y-136942700D01*
X184693400Y-134942700D02*
X185943400Y-134942700D01*
X184693400Y-136942700D02*
X184693400Y-134942700D01*
%TO.C,J4*%
X179070000Y-143510000D02*
X95250000Y-143510000D01*
X178435000Y-140970000D02*
X179070000Y-141605000D01*
X179070000Y-141605000D02*
X179070000Y-143510000D01*
X95250000Y-143510000D02*
X95250000Y-140970000D01*
X95250000Y-140970000D02*
X178435000Y-140970000D01*
%TO.C,U3*%
X161212500Y-94350000D02*
X162712500Y-94350000D01*
X160212500Y-98850000D02*
X160212500Y-95350000D01*
X162712500Y-98850000D02*
X160212500Y-98850000D01*
X162712500Y-94350000D02*
X162712500Y-98850000D01*
X160212500Y-95350000D02*
X161212500Y-94350000D01*
%TO.C,Q2*%
X174450000Y-60725000D02*
X174450000Y-59750000D01*
X177350000Y-61050000D02*
X174775000Y-61050000D01*
X174775000Y-61050000D02*
X174450000Y-60725000D01*
X174450000Y-59750000D02*
X177350000Y-59750000D01*
X177350000Y-59750000D02*
X177350000Y-61050000D01*
%TO.C,RBP1*%
X171600000Y-55610000D02*
X171600000Y-51165000D01*
X174140000Y-50530000D02*
X174140000Y-55610000D01*
X172235000Y-50530000D02*
X174140000Y-50530000D01*
X174140000Y-55610000D02*
X171600000Y-55610000D01*
X171600000Y-51165000D02*
X172235000Y-50530000D01*
%TO.C,C1*%
X171800000Y-66825000D02*
X171800000Y-70025000D01*
X170200000Y-70025000D02*
X170200000Y-66825000D01*
X170200000Y-66825000D02*
X171800000Y-66825000D01*
X171800000Y-70025000D02*
X170200000Y-70025000D01*
%TO.C,JP1*%
X131870000Y-74235000D02*
X129330000Y-74235000D01*
X131870000Y-69155000D02*
X131870000Y-74235000D01*
X129965000Y-69155000D02*
X131870000Y-69155000D01*
X129330000Y-69790000D02*
X129965000Y-69155000D01*
X129330000Y-74235000D02*
X129330000Y-69790000D01*
%TO.C,C7*%
X185896800Y-120817800D02*
X183896800Y-120817800D01*
X183896800Y-119567800D02*
X185896800Y-119567800D01*
X183896800Y-120817800D02*
X183896800Y-119567800D01*
X185896800Y-119567800D02*
X185896800Y-120817800D01*
%TO.C,JP15*%
X182956200Y-144780000D02*
X182956200Y-142240000D01*
X188036200Y-144780000D02*
X182956200Y-144780000D01*
X182956200Y-142240000D02*
X187401200Y-142240000D01*
X187401200Y-142240000D02*
X188036200Y-142875000D01*
X188036200Y-142875000D02*
X188036200Y-144780000D01*
%TO.C,UVLO2*%
X171670000Y-71655000D02*
X171670000Y-76735000D01*
X169130000Y-72290000D02*
X169765000Y-71655000D01*
X171670000Y-76735000D02*
X169130000Y-76735000D01*
X169130000Y-76735000D02*
X169130000Y-72290000D01*
X169765000Y-71655000D02*
X171670000Y-71655000D01*
%TO.C,JP13*%
X144399000Y-73558400D02*
X146304000Y-73558400D01*
X143764000Y-74193400D02*
X144399000Y-73558400D01*
X143764000Y-78638400D02*
X143764000Y-74193400D01*
X146304000Y-73558400D02*
X146304000Y-78638400D01*
X146304000Y-78638400D02*
X143764000Y-78638400D01*
%TO.C,JP20*%
X135712200Y-95778400D02*
X136347200Y-95143400D01*
X136347200Y-95143400D02*
X138252200Y-95143400D01*
X138252200Y-95143400D02*
X138252200Y-100223400D01*
X138252200Y-100223400D02*
X135712200Y-100223400D01*
X135712200Y-100223400D02*
X135712200Y-95778400D01*
%TO.C,J3*%
X179070000Y-130810000D02*
X179070000Y-132715000D01*
X179070000Y-132715000D02*
X178435000Y-133350000D01*
X178435000Y-133350000D02*
X95250000Y-133350000D01*
X95250000Y-133350000D02*
X95250000Y-130810000D01*
X95250000Y-130810000D02*
X179070000Y-130810000D01*
%TO.C,U2*%
X187337500Y-68250000D02*
X185737500Y-68250000D01*
X187337500Y-65350000D02*
X187337500Y-68250000D01*
X186137500Y-65350000D02*
X187337500Y-65350000D01*
X185737500Y-65750000D02*
X186137500Y-65350000D01*
X185737500Y-68250000D02*
X185737500Y-65750000D01*
%TO.C,R18*%
X138244700Y-74559000D02*
X140244700Y-74559000D01*
X140244700Y-75809000D02*
X138244700Y-75809000D01*
X138244700Y-75809000D02*
X138244700Y-74559000D01*
X140244700Y-74559000D02*
X140244700Y-75809000D01*
D17*
%TO.C,A1*%
X163398400Y-76612800D02*
X163398400Y-77412800D01*
X165098400Y-76612800D02*
X163398400Y-76612800D01*
X163398400Y-77412800D02*
X165098400Y-77412800D01*
X165098400Y-77412800D02*
X165098400Y-76612800D01*
D18*
X166098400Y-77012800D02*
G75*
G03*
X166098400Y-77012800I-100000J0D01*
G01*
D10*
%TO.C,RBP3*%
X181720000Y-50490000D02*
X181720000Y-55570000D01*
X179180000Y-55570000D02*
X179180000Y-51125000D01*
X179815000Y-50490000D02*
X181720000Y-50490000D01*
X179180000Y-51125000D02*
X179815000Y-50490000D01*
X181720000Y-55570000D02*
X179180000Y-55570000D01*
%TO.C,BT1*%
X91460000Y-67590000D02*
X91460000Y-47890000D01*
X91460000Y-47890000D02*
X169060000Y-47890000D01*
X169060000Y-67590000D02*
X91460000Y-67590000D01*
X169060000Y-47890000D02*
X169060000Y-67590000D01*
%TO.C,U5*%
X181967000Y-122680600D02*
X178967000Y-122680600D01*
X178967000Y-122680600D02*
X178967000Y-125680600D01*
X178967000Y-125680600D02*
X181967000Y-125680600D01*
X181967000Y-125680600D02*
X181967000Y-122680600D01*
D18*
X179317000Y-126480600D02*
G75*
G03*
X179317000Y-126480600I-100000J0D01*
G01*
D10*
%TO.C,JP22*%
X143205200Y-94965600D02*
X143205200Y-100045600D01*
X141300200Y-94965600D02*
X143205200Y-94965600D01*
X140665200Y-95600600D02*
X141300200Y-94965600D01*
X140665200Y-100045600D02*
X140665200Y-95600600D01*
X143205200Y-100045600D02*
X140665200Y-100045600D01*
D17*
%TO.C,U7*%
X104616000Y-94266000D02*
X104616000Y-98266000D01*
X100616000Y-94266000D02*
X104616000Y-94266000D01*
X100616000Y-98266000D02*
X100616000Y-94266000D01*
X104616000Y-98266000D02*
X100616000Y-98266000D01*
D11*
X99716000Y-94866000D02*
G75*
G03*
X99716000Y-94866000I-100000J0D01*
G01*
D10*
%TO.C,C3*%
X163575000Y-103800000D02*
X164825000Y-103800000D01*
X163575000Y-105800000D02*
X163575000Y-103800000D01*
X164825000Y-103800000D02*
X164825000Y-105800000D01*
X164825000Y-105800000D02*
X163575000Y-105800000D01*
%TO.C,JP11*%
X177114200Y-123113800D02*
X177114200Y-127558800D01*
X174574200Y-123113800D02*
X177114200Y-123113800D01*
X176479200Y-128193800D02*
X174574200Y-128193800D01*
X177114200Y-127558800D02*
X176479200Y-128193800D01*
X174574200Y-128193800D02*
X174574200Y-123113800D01*
%TO.C,D2*%
X173600000Y-67350000D02*
X173600000Y-67750000D01*
X174000000Y-68350000D02*
X173200000Y-68350000D01*
X173600000Y-67750000D02*
X173050000Y-67750000D01*
X174400000Y-69750000D02*
X172800000Y-69750000D01*
X174400000Y-66450000D02*
X174400000Y-69750000D01*
X172800000Y-66450000D02*
X174400000Y-66450000D01*
X172800000Y-69750000D02*
X172800000Y-66450000D01*
X173600000Y-67750000D02*
X174000000Y-68350000D01*
X173200000Y-68350000D02*
X173600000Y-67750000D01*
X173600000Y-67750000D02*
X174150000Y-67750000D01*
X173600000Y-68350000D02*
X173600000Y-68850000D01*
%TO.C,U6*%
X184242200Y-138496800D02*
X186242200Y-138496800D01*
X186242200Y-138496800D02*
X186242200Y-140496800D01*
X186242200Y-140496800D02*
X184742200Y-140496800D01*
X184242200Y-139996800D02*
X184242200Y-138496800D01*
X184742200Y-140496800D02*
X184242200Y-139996800D01*
%TO.C,C8*%
X187436600Y-134194000D02*
X188686600Y-134194000D01*
X188686600Y-134194000D02*
X188686600Y-136194000D01*
X187436600Y-136194000D02*
X187436600Y-134194000D01*
X188686600Y-136194000D02*
X187436600Y-136194000D01*
%TO.C,J5*%
X112200000Y-103000000D02*
X112200000Y-123000000D01*
X110200000Y-123000000D02*
X110200000Y-103500000D01*
X112200000Y-123000000D02*
X110200000Y-123000000D01*
X110200000Y-103500000D02*
X110700000Y-103000000D01*
X110700000Y-103000000D02*
X112200000Y-103000000D01*
%TO.C,C10*%
X101743000Y-100848000D02*
X103743000Y-100848000D01*
X103743000Y-100848000D02*
X103743000Y-102098000D01*
X101743000Y-102098000D02*
X101743000Y-100848000D01*
X103743000Y-102098000D02*
X101743000Y-102098000D01*
%TO.C,R21*%
X187792200Y-138447900D02*
X189042200Y-138447900D01*
X187792200Y-140447900D02*
X187792200Y-138447900D01*
X189042200Y-140447900D02*
X187792200Y-140447900D01*
X189042200Y-138447900D02*
X189042200Y-140447900D01*
%TO.C,Charger1*%
X185835000Y-55620000D02*
X183930000Y-55620000D01*
X186470000Y-54985000D02*
X185835000Y-55620000D01*
X186470000Y-50540000D02*
X186470000Y-54985000D01*
X183930000Y-50540000D02*
X186470000Y-50540000D01*
X183930000Y-55620000D02*
X183930000Y-50540000D01*
%TO.C,C11*%
X99584000Y-117719000D02*
X99584000Y-116469000D01*
X101584000Y-116469000D02*
X101584000Y-117719000D01*
X101584000Y-117719000D02*
X99584000Y-117719000D01*
X99584000Y-116469000D02*
X101584000Y-116469000D01*
%TO.C,JP18*%
X167070000Y-123430000D02*
X167070000Y-128510000D01*
X167070000Y-128510000D02*
X164530000Y-128510000D01*
X164530000Y-128510000D02*
X164530000Y-124065000D01*
X164530000Y-124065000D02*
X165165000Y-123430000D01*
X165165000Y-123430000D02*
X167070000Y-123430000D01*
%TO.C,RBP2*%
X177970000Y-50530000D02*
X177970000Y-55610000D01*
X175430000Y-55610000D02*
X175430000Y-51165000D01*
X176065000Y-50530000D02*
X177970000Y-50530000D01*
X177970000Y-55610000D02*
X175430000Y-55610000D01*
X175430000Y-51165000D02*
X176065000Y-50530000D01*
%TO.C,Q6*%
X135064800Y-70624700D02*
X137964800Y-70624700D01*
X137964800Y-70624700D02*
X137964800Y-71924700D01*
X135389800Y-71924700D02*
X135064800Y-71599700D01*
X135064800Y-71599700D02*
X135064800Y-70624700D01*
X137964800Y-71924700D02*
X135389800Y-71924700D01*
%TO.C,JP23*%
X128392000Y-126111000D02*
X133472000Y-126111000D01*
X128392000Y-128016000D02*
X128392000Y-126111000D01*
X133472000Y-126111000D02*
X133472000Y-128651000D01*
X129027000Y-128651000D02*
X128392000Y-128016000D01*
X133472000Y-128651000D02*
X129027000Y-128651000D01*
%TO.C,C4*%
X188087500Y-75775000D02*
X188087500Y-77025000D01*
X188087500Y-77025000D02*
X186087500Y-77025000D01*
X186087500Y-77025000D02*
X186087500Y-75775000D01*
X186087500Y-75775000D02*
X188087500Y-75775000D01*
%TO.C,JP21*%
X132562600Y-100126800D02*
X130022600Y-100126800D01*
X130657600Y-95046800D02*
X132562600Y-95046800D01*
X130022600Y-95681800D02*
X130657600Y-95046800D01*
X132562600Y-95046800D02*
X132562600Y-100126800D01*
X130022600Y-100126800D02*
X130022600Y-95681800D01*
%TD*%
M02*
