Designator;Val;Package;Mid X;Mid Y;Rotation;Layer
3V3;Jumper_2_Bridged;PinHeader_1x02_P2.54mm_Vertical;151.100000;-101.725000;0.000000;top
A1;ALS-PT19-315C/L177/TR8;XDCR_ALS-PT19-315C_L177_TR8;164.248400;-77.012800;180.000000;top
BT1;Li-ion Battery (18650);BatteryHolder_MPD_BH-18650-PC2;166.260000;-57.740000;180.000000;top
C1;10n;C_1206_3216Metric;171.000000;-68.425000;90.000000;top
C2;10u;C_0805_2012Metric;156.300000;-95.700000;180.000000;top
C3;100n;C_0805_2012Metric;164.200000;-104.800000;-90.000000;top
C4;1 uF;C_0805_2012Metric;187.087500;-76.400000;0.000000;top
C5;10u;C_0805_2012Metric;156.312500;-98.100000;180.000000;top
C6;100nF;C_0805_2012Metric;143.637000;-71.308000;90.000000;top
C7;100nF;C_0805_2012Metric;184.896800;-120.192800;0.000000;top
C8;100nF;C_0805_2012Metric;188.061600;-135.194000;90.000000;top
C9;680uF C_Polarized;CP_Radial_D8.0mm_P3.50mm;156.895800;-76.354051;90.000000;top
C10;1 uF;C_0805_2012Metric;102.743000;-101.473000;180.000000;top
C11;4.7 uF;C_0805_2012Metric;100.584000;-117.094000;180.000000;top
C12;100nF;C_0805_2012Metric;100.550000;-113.300000;180.000000;top
Charger1;Jumper_2_Bridged;PinHeader_1x02_P2.54mm_Vertical;185.200000;-54.350000;180.000000;top
D1;1N5822;D_DO-201AD_P15.24mm_Horizontal;180.800000;-73.920000;90.000000;top
D2;3V3;D_MiniMELF;173.600000;-68.100000;-90.000000;top
D3;3V3;D_MiniMELF;178.662500;-97.700000;-90.000000;top
D4;1N5822;D_DO-201AD_P15.24mm_Horizontal;186.200000;-83.080000;-90.000000;top
J1;Conn_01x33_Female;PinHeader_1x33_P2.54mm_Vertical;177.800000;-81.280000;-90.000000;top
J2;Conn_01x33_Female;PinSocket_1x33_P2.54mm_Vertical;177.800000;-91.440000;-90.000000;top
J3;Conn_01x33_Female;PinSocket_1x33_P2.54mm_Vertical;177.800000;-132.080000;-90.000000;top
J4;Conn_01x33_Female;PinHeader_1x33_P2.54mm_Vertical;177.800000;-142.240000;-90.000000;top
J5;Debug_connector_1;Debugger_Molex_CLIK-Mate_502382-1070_1x10-1MP_P1.25mm_Vertical;110.789000;-111.161200;-90.000000;top
J6;C404969(USB_B_Micro);SHOUHAN_MICROXNJ;189.687500;-111.683250;-90.000000;top
JP1;Jumper_2_Bridged;PinHeader_1x02_P2.54mm_Vertical;130.600000;-70.425000;0.000000;top
JP10;Jumper_2_Open;PinHeader_1x02_P2.54mm_Vertical;185.445400;-126.090600;180.000000;top
JP11;Jumper_2_Open;PinHeader_1x02_P2.54mm_Vertical;175.844200;-126.923800;180.000000;top
JP13;Jumper_2_Bridged;PinHeader_1x02_P2.54mm_Vertical;145.034000;-74.828400;0.000000;top
JP14;Jumper_2_Open;PinHeader_1x02_P2.54mm_Vertical;181.660800;-139.293600;180.000000;top
JP15;Jumper_2_Open;PinHeader_1x02_P2.54mm_Vertical;186.766200;-143.510000;-90.000000;top
JP16;Jumper_2_Bridged;PinHeader_1x02_P2.54mm_Vertical;149.606000;-74.676000;0.000000;top
JP17;Jumper;PinHeader_1x02_P2.54mm_Vertical;146.735800;-96.875600;0.000000;top
JP18;Jumper;PinHeader_1x02_P2.54mm_Vertical;165.800000;-124.700000;0.000000;top
JP19;Jumper;PinHeader_1x02_P2.54mm_Vertical;170.118000;-127.040000;180.000000;top
JP20;Jumper;PinHeader_1x02_P2.54mm_Vertical;136.982200;-96.413400;0.000000;top
JP21;Jumper;PinHeader_1x02_P2.54mm_Vertical;131.292600;-96.316800;0.000000;top
JP22;Jumper;PinHeader_1x02_P2.54mm_Vertical;141.935200;-96.235600;0.000000;top
JP23;Jumper;PinHeader_1x02_P2.54mm_Vertical;129.662000;-127.381000;90.000000;top
JP24;Jumper;PinHeader_1x02_P2.54mm_Vertical;117.602000;-114.300000;0.000000;top
Q1;AO3401A;SOT-23;172.200000;-60.300000;90.000000;top
Q2;AO3401A;SOT-23;175.900000;-60.400000;90.000000;top
Q3;AO3401A;SOT-23;186.737500;-72.800000;180.000000;top
Q4;AO3400A;SOT-23;175.262500;-96.750000;180.000000;top
Q6;AO3401A;SOT-23;136.514800;-71.274700;90.000000;top
Q7;AO3401A;SOT-23;176.583100;-120.370600;0.000000;top
R1;10k;R_0805_2012Metric;171.000000;-64.187500;-90.000000;top
R2;1.5k;R_0805_2012Metric;175.362500;-99.900000;180.000000;top
R6;1.5k;R_0805_2012Metric;186.500000;-62.000000;180.000000;top
R7;150;R_0805_2012Metric;186.700000;-58.500000;0.000000;top
R14;10k;R_0805_2012Metric;180.443500;-127.812800;180.000000;top
R15;330;R_0805_2012Metric;135.559800;-76.706100;90.000000;top
R16;330;R_0805_2012Metric;172.567600;-120.372500;90.000000;top
R17;10k;R_0805_2012Metric;180.545100;-120.167400;0.000000;top
R18;10k;R_0805_2012Metric;139.244700;-75.184000;180.000000;top
R19;10k;R_0805_2012Metric;140.182600;-71.270500;-90.000000;top
R20;10k;R_0805_2012Metric;185.318400;-135.942700;90.000000;top
R21;10k;R_0805_2012Metric;188.417200;-139.447900;90.000000;top
R22;2.2k;R_0805_2012Metric;146.050000;-71.143500;-90.000000;top
R23;2.2k;R_0805_2012Metric;100.584000;-109.220000;180.000000;top
R24;2.2k;R_0805_2012Metric;100.584000;-105.664000;180.000000;top
RBP1;Jumper_2_Bridged;PinHeader_1x02_P2.54mm_Vertical;172.870000;-51.800000;0.000000;top
RBP2;Jumper_2_Open;PinHeader_1x02_P2.54mm_Vertical;176.700000;-51.800000;0.000000;top
RBP3;Jumper_2_Open;PinHeader_1x02_P2.54mm_Vertical;180.450000;-51.760000;0.000000;top
Regulator1;Jumper_2_Bridged;PinHeader_1x02_P2.54mm_Vertical;170.140000;-96.900000;-90.000000;top
Regulator2;Jumper_2_Open;PinHeader_1x02_P2.54mm_Vertical;170.075000;-101.000000;-90.000000;top
U2;TP4054;SOT-23-5;186.537500;-66.800000;0.000000;top
U3;HT7533-1-SOT89;SOT-89-3;161.162500;-96.600000;0.000000;top
U4;LD1117S33TR_SOT223;SOT-223-3_TabPin2;158.400000;-104.000000;180.000000;top
U5;SHT20;XDCR_SHT20;180.467000;-124.180600;90.000000;top
U6;SHTC3;Sensirion_DFN-4-1EP_2x2mm_P1mm_EP0.7x1.6mm;185.242200;-139.496800;90.000000;top
U7;CY7C65210_(I2C-FTDI);QFN50P400X400X60-25N;102.616000;-96.266000;0.000000;top
U8;M24C64-RMN6TP(Secondary EEPROM);SOIC127P600X175-8N;121.920000;-105.664000;-90.000000;top
U9;AT24C256C(EEPROM);SOIC127P600X175-8N;117.094000;-125.222000;0.000000;top
UVLO1;Jumper_2_Bridged;PinHeader_1x02_P2.54mm_Vertical;174.300000;-72.925000;0.000000;top
UVLO2;Jumper_2_Open;PinHeader_1x02_P2.54mm_Vertical;170.400000;-72.925000;0.000000;top
