(footprint "QFN50P400X400X60-25N" (version 20211014) (generator pcbnew)
  (layer "F.Cu")
  (tedit 6237807C)
  (attr through_hole)
  (fp_text reference "REF**" (at 0.635 -3.937) (layer "F.SilkS")
    (effects (font (size 1.4 1.4) (thickness 0.15)))
    (tstamp 9bb20359-0f8b-45bc-9d38-6626ed3a939d)
  )
  (fp_text value "QFN50P400X400X60-25N" (at 13.97 4.191) (layer "F.Fab")
    (effects (font (size 1.4 1.4) (thickness 0.15)))
    (tstamp 2d210a96-f81f-42a9-8bf4-1b43c11086f3)
  )
  (fp_poly (pts
      (xy 0.135 0.135)
      (xy 1.105 0.135)
      (xy 1.105 1.105)
      (xy 0.135 1.105)
    ) (layer "F.Paste") (width 0.01) (fill solid) (tstamp 08a7c925-7fae-4530-b0c9-120e185cb318))
  (fp_poly (pts
      (xy 0.135 -1.105)
      (xy 1.105 -1.105)
      (xy 1.105 -0.135)
      (xy 0.135 -0.135)
    ) (layer "F.Paste") (width 0.01) (fill solid) (tstamp 4a4ec8d9-3d72-4952-83d4-808f65849a2b))
  (fp_poly (pts
      (xy -1.105 -1.105)
      (xy -0.135 -1.105)
      (xy -0.135 -0.135)
      (xy -1.105 -0.135)
    ) (layer "F.Paste") (width 0.01) (fill solid) (tstamp 5528bcad-2950-4673-90eb-c37e6952c475))
  (fp_poly (pts
      (xy -1.105 0.135)
      (xy -0.135 0.135)
      (xy -0.135 1.105)
      (xy -1.105 1.105)
    ) (layer "F.Paste") (width 0.01) (fill solid) (tstamp 7edc9030-db7b-43ac-a1b3-b87eeacb4c2d))
  (fp_line (start 2 2) (end 2 1.7) (layer "F.SilkS") (width 0.127) (tstamp 2f215f15-3d52-4c91-93e6-3ea03a95622f))
  (fp_line (start 2 2) (end 1.7 2) (layer "F.SilkS") (width 0.127) (tstamp 61fe293f-6808-4b7f-9340-9aaac7054a97))
  (fp_line (start -2 2) (end -1.7 2) (layer "F.SilkS") (width 0.127) (tstamp 63ff1c93-3f96-4c33-b498-5dd8c33bccc0))
  (fp_line (start -2 -2) (end -2 -1.7) (layer "F.SilkS") (width 0.127) (tstamp 9b0a1687-7e1b-4a04-a30b-c27a072a2949))
  (fp_line (start 2 -2) (end 2 -1.7) (layer "F.SilkS") (width 0.127) (tstamp 9e1b837f-0d34-4a18-9644-9ee68f141f46))
  (fp_line (start -2 2) (end -2 1.7) (layer "F.SilkS") (width 0.127) (tstamp b88717bd-086f-46cd-9d3f-0396009d0996))
  (fp_line (start 2 -2) (end 1.7 -2) (layer "F.SilkS") (width 0.127) (tstamp c01d25cd-f4bb-4ef3-b5ea-533a2a4ddb2b))
  (fp_line (start -1.7 -2) (end -2 -2) (layer "F.SilkS") (width 0.127) (tstamp ee27d19c-8dca-4ac8-a760-6dfd54d28071))
  (fp_circle (center -3 -1.4) (end -2.9 -1.4) (layer "F.SilkS") (width 0.3) (fill none) (tstamp 4780a290-d25c-4459-9579-eba3f7678762))
  (fp_line (start 1.63 -2.25) (end 2.25 -2.25) (layer "F.CrtYd") (width 0.05) (tstamp 0217dfc4-fc13-4699-99ad-d9948522648e))
  (fp_line (start -2.61 -1.63) (end -2.25 -1.63) (layer "F.CrtYd") (width 0.05) (tstamp 12422a89-3d0c-485c-9386-f77121fd68fd))
  (fp_line (start -2.25 1.63) (end -2.61 1.63) (layer "F.CrtYd") (width 0.05) (tstamp 1a6d2848-e78e-49fe-8978-e1890f07836f))
  (fp_line (start 2.61 -1.63) (end 2.61 1.63) (layer "F.CrtYd") (width 0.05) (tstamp 1d9cdadc-9036-4a95-b6db-fa7b3b74c869))
  (fp_line (start 2.25 1.63) (end 2.25 2.25) (layer "F.CrtYd") (width 0.05) (tstamp 24f7628d-681d-4f0e-8409-40a129e929d9))
  (fp_line (start 2.61 1.63) (end 2.25 1.63) (layer "F.CrtYd") (width 0.05) (tstamp 3a7648d8-121a-4921-9b92-9b35b76ce39b))
  (fp_line (start 2.25 2.25) (end 1.63 2.25) (layer "F.CrtYd") (width 0.05) (tstamp 3e903008-0276-4a73-8edb-5d9dfde6297c))
  (fp_line (start -2.25 -2.25) (end -1.63 -2.25) (layer "F.CrtYd") (width 0.05) (tstamp 40165eda-4ba6-4565-9bb4-b9df6dbb08da))
  (fp_line (start -1.63 2.25) (end -2.25 2.25) (layer "F.CrtYd") (width 0.05) (tstamp 45008225-f50f-4d6b-b508-6730a9408caf))
  (fp_line (start 1.63 2.61) (end -1.63 2.61) (layer "F.CrtYd") (width 0.05) (tstamp 6475547d-3216-45a4-a15c-48314f1dd0f9))
  (fp_line (start 2.25 -1.63) (end 2.61 -1.63) (layer "F.CrtYd") (width 0.05) (tstamp 6bfe5804-2ef9-4c65-b2a7-f01e4014370a))
  (fp_line (start 1.63 2.25) (end 1.63 2.61) (layer "F.CrtYd") (width 0.05) (tstamp 75ffc65c-7132-4411-9f2a-ae0c73d79338))
  (fp_line (start -2.61 1.63) (end -2.61 -1.63) (layer "F.CrtYd") (width 0.05) (tstamp 7d34f6b1-ab31-49be-b011-c67fe67a8a56))
  (fp_line (start -1.63 -2.25) (end -1.63 -2.61) (layer "F.CrtYd") (width 0.05) (tstamp 7e023245-2c2b-4e2b-bfb9-5d35176e88f2))
  (fp_line (start -1.63 2.61) (end -1.63 2.25) (layer "F.CrtYd") (width 0.05) (tstamp 8c6a821f-8e19-48f3-8f44-9b340f7689bc))
  (fp_line (start -1.63 -2.61) (end 1.63 -2.61) (layer "F.CrtYd") (width 0.05) (tstamp 8da933a9-35f8-42e6-8504-d1bab7264306))
  (fp_line (start -2.25 -1.63) (end -2.25 -2.25) (layer "F.CrtYd") (width 0.05) (tstamp 8e06ba1f-e3ba-4eb9-a10e-887dffd566d6))
  (fp_line (start -2.25 2.25) (end -2.25 1.63) (layer "F.CrtYd") (width 0.05) (tstamp a544eb0a-75db-4baf-bf54-9ca21744343b))
  (fp_line (start 1.63 -2.61) (end 1.63 -2.25) (layer "F.CrtYd") (width 0.05) (tstamp bd5408e4-362d-4e43-9d39-78fb99eb52c8))
  (fp_line (start 2.25 -2.25) (end 2.25 -1.63) (layer "F.CrtYd") (width 0.05) (tstamp c0eca5ed-bc5e-4618-9bcd-80945bea41ed))
  (fp_line (start -2 2) (end -2 -2) (layer "F.Fab") (width 0.127) (tstamp 003c2200-0632-4808-a662-8ddd5d30c768))
  (fp_line (start 2 2) (end -2 2) (layer "F.Fab") (width 0.127) (tstamp 240e07e1-770b-4b27-894f-29fd601c924d))
  (fp_line (start -2 -2) (end 2 -2) (layer "F.Fab") (width 0.127) (tstamp cbd8faed-e1f8-4406-87c8-58b2c504a5d4))
  (fp_line (start 2 -2) (end 2 2) (layer "F.Fab") (width 0.127) (tstamp f2c93195-af12-4d3e-acdf-bdd0ff675c24))
  (fp_circle (center -3 -1.4) (end -2.9 -1.4) (layer "F.Fab") (width 0.3) (fill none) (tstamp df68c26a-03b5-4466-aecf-ba34b7dce6b7))
  (pad "1" smd rect (at -1.94 -1.25) (size 0.83 0.26) (layers "F.Cu" "F.Paste" "F.Mask") (tstamp e857610b-4434-4144-b04e-43c1ebdc5ceb))
  (pad "2" smd rect (at -1.94 -0.75) (size 0.83 0.26) (layers "F.Cu" "F.Paste" "F.Mask") (tstamp 6c2e273e-743c-4f1e-a647-4171f8122550))
  (pad "3" smd rect (at -1.94 -0.25) (size 0.83 0.26) (layers "F.Cu" "F.Paste" "F.Mask") (tstamp 666713b0-70f4-42df-8761-f65bc212d03b))
  (pad "4" smd rect (at -1.94 0.25) (size 0.83 0.26) (layers "F.Cu" "F.Paste" "F.Mask") (tstamp 7dc880bc-e7eb-4cce-8d8c-0b65a9dd788e))
  (pad "5" smd rect (at -1.94 0.75) (size 0.83 0.26) (layers "F.Cu" "F.Paste" "F.Mask") (tstamp 9157f4ae-0244-4ff1-9f73-3cb4cbb5f280))
  (pad "6" smd rect (at -1.94 1.25) (size 0.83 0.26) (layers "F.Cu" "F.Paste" "F.Mask") (tstamp 7aed3a71-054b-4aaa-9c0a-030523c32827))
  (pad "7" smd rect (at -1.25 1.94 90) (size 0.83 0.26) (layers "F.Cu" "F.Paste" "F.Mask") (tstamp 1a1ab354-5f85-45f9-938c-9f6c4c8c3ea2))
  (pad "8" smd rect (at -0.75 1.94 90) (size 0.83 0.26) (layers "F.Cu" "F.Paste" "F.Mask") (tstamp 42713045-fffd-4b2d-ae1e-7232d705fb12))
  (pad "9" smd rect (at -0.25 1.94 90) (size 0.83 0.26) (layers "F.Cu" "F.Paste" "F.Mask") (tstamp c0515cd2-cdaa-467e-8354-0f6eadfa35c9))
  (pad "10" smd rect (at 0.25 1.94 90) (size 0.83 0.26) (layers "F.Cu" "F.Paste" "F.Mask") (tstamp 1bf544e3-5940-4576-9291-2464e95c0ee2))
  (pad "11" smd rect (at 0.75 1.94 90) (size 0.83 0.26) (layers "F.Cu" "F.Paste" "F.Mask") (tstamp 3aaee4c4-dbf7-49a5-a620-9465d8cc3ae7))
  (pad "12" smd rect (at 1.25 1.94 90) (size 0.83 0.26) (layers "F.Cu" "F.Paste" "F.Mask") (tstamp bdc7face-9f7c-4701-80bb-4cc144448db1))
  (pad "13" smd rect (at 1.94 1.25 180) (size 0.83 0.26) (layers "F.Cu" "F.Paste" "F.Mask") (tstamp 97fe9c60-586f-4895-8504-4d3729f5f81a))
  (pad "14" smd rect (at 1.94 0.75 180) (size 0.83 0.26) (layers "F.Cu" "F.Paste" "F.Mask") (tstamp 922058ca-d09a-45fd-8394-05f3e2c1e03a))
  (pad "15" smd rect (at 1.94 0.25 180) (size 0.83 0.26) (layers "F.Cu" "F.Paste" "F.Mask") (tstamp 0f54db53-a272-4955-88fb-d7ab00657bb0))
  (pad "16" smd rect (at 1.94 -0.25 180) (size 0.83 0.26) (layers "F.Cu" "F.Paste" "F.Mask") (tstamp 80094b70-85ab-4ff6-934b-60d5ee65023a))
  (pad "17" smd rect (at 1.94 -0.75 180) (size 0.83 0.26) (layers "F.Cu" "F.Paste" "F.Mask") (tstamp d4a1d3c4-b315-4bec-9220-d12a9eab51e0))
  (pad "18" smd rect (at 1.94 -1.25 180) (size 0.83 0.26) (layers "F.Cu" "F.Paste" "F.Mask") (tstamp bfc0aadc-38cf-466e-a642-68fdc3138c78))
  (pad "19" smd rect (at 1.25 -1.94 270) (size 0.83 0.26) (layers "F.Cu" "F.Paste" "F.Mask") (tstamp 6441b183-b8f2-458f-a23d-60e2b1f66dd6))
  (pad "20" smd rect (at 0.75 -1.94 270) (size 0.83 0.26) (layers "F.Cu" "F.Paste" "F.Mask") (tstamp 31e08896-1992-4725-96d9-9d2728bca7a3))
  (pad "21" smd rect (at 0.25 -1.94 270) (size 0.83 0.26) (layers "F.Cu" "F.Paste" "F.Mask") (tstamp b5352a33-563a-4ffe-a231-2e68fb54afa3))
  (pad "22" smd rect (at -0.25 -1.94 270) (size 0.83 0.26) (layers "F.Cu" "F.Paste" "F.Mask") (tstamp 852dabbf-de45-4470-8176-59d37a754407))
  (pad "23" smd rect (at -0.75 -1.94 270) (size 0.83 0.26) (layers "F.Cu" "F.Paste" "F.Mask") (tstamp 66043bca-a260-4915-9fce-8a51d324c687))
  (pad "24" smd rect (at -1.25 -1.94 270) (size 0.83 0.26) (layers "F.Cu" "F.Paste" "F.Mask") (tstamp 2d6db888-4e40-41c8-b701-07170fc894bc))
  (pad "25" smd rect (at 0 0) (size 2.75 2.75) (layers "F.Cu" "F.Mask") (tstamp 7bbf981c-a063-4e30-8911-e4228e1c0743))
)
