%!PS-Adobe-3.0
%%Creator: PCBNEW
%%CreationDate: Fri Apr  8 23:10:55 2022
%%Title: ()
%%Pages: 1
%%PageOrder: Ascend
%%BoundingBox: 0 0 596 842
%%DocumentMedia: A4 595 842 0 () ()
%%Orientation: Landscape
%%EndComments
%%BeginProlog
/line { newpath moveto lineto stroke } bind def
/cir0 { newpath 0 360 arc stroke } bind def
/cir1 { newpath 0 360 arc gsave fill grestore stroke } bind def
/cir2 { newpath 0 360 arc gsave fill grestore stroke } bind def
/arc0 { newpath arc stroke } bind def
/arc1 { newpath 4 index 4 index moveto arc closepath gsave fill
    grestore stroke } bind def
/arc2 { newpath 4 index 4 index moveto arc closepath gsave fill
    grestore stroke } bind def
/poly0 { stroke } bind def
/poly1 { closepath gsave fill grestore stroke } bind def
/poly2 { closepath gsave fill grestore stroke } bind def
/rect0 { rectstroke } bind def
/rect1 { rectfill } bind def
/rect2 { rectfill } bind def
/linemode0 { 0 setlinecap 0 setlinejoin 0 setlinewidth } bind def
/linemode1 { 1 setlinecap 1 setlinejoin } bind def
/dashedline { [200] 100 setdash } bind def
/solidline { [] 0 setdash } bind def
/phantomshow { moveto
    /KicadFont findfont 0.000001 scalefont setfont
    show } bind def
/textshow { gsave
    findfont exch scalefont setfont concat 1 scale 0 0 moveto show
    } bind def
/reencodefont {
  findfont dup length dict begin
  { 1 index /FID ne
    { def }
    { pop pop } ifelse
  } forall
  /Encoding ISOLatin1Encoding def
  currentdict
  end } bind def
/KicadFont /Helvetica reencodefont definefont pop
/KicadFont-Bold /Helvetica-Bold reencodefont definefont pop
/KicadFont-Oblique /Helvetica-Oblique reencodefont definefont pop
/KicadFont-BoldOblique /Helvetica-BoldOblique reencodefont definefont pop
%%EndProlog
%%Page: 1 1
%%BeginPageSetup
gsave
0.0072 0.0072 scale
linemode1
82680 0 translate 90 rotate
8.34646 setlinewidth
%%EndPageSetup
0 0 0 setrgbcolor
0 0 0 setrgbcolor
0.000393701 setlinewidth
newpath
59133.9 42965.4 moveto
59135.4 42973 lineto
59139.6 42979.4 lineto
59146 42983.6 lineto
59153.5 42985.1 lineto
59822.8 42985.1 lineto
59830.4 42983.6 lineto
59836.8 42979.4 lineto
59841 42973 lineto
59842.5 42965.4 lineto
59842.5 42296.1 lineto
59841 42288.6 lineto
59836.8 42282.2 lineto
59830.4 42278 lineto
59822.8 42276.5 lineto
59153.5 42276.5 lineto
59146 42278 lineto
59139.6 42282.2 lineto
59135.4 42288.6 lineto
59133.9 42296.1 lineto
59133.9 42965.4 lineto
poly1
0 0 0 setrgbcolor
59488.2 41630.8 354.331 cir1
0 0 0 setrgbcolor
newpath
61455 52284.7 moveto
61447.5 52286.2 lineto
61441.1 52290.5 lineto
61436.9 52296.9 lineto
61435.4 52304.4 lineto
61435.4 52934.3 lineto
61436.9 52941.8 lineto
61441.1 52948.2 lineto
61447.5 52952.5 lineto
61455 52954 lineto
62085 52954 lineto
62092.5 52952.5 lineto
62098.9 52948.2 lineto
62103.1 52941.8 lineto
62104.6 52934.3 lineto
62104.6 52304.4 lineto
62103.1 52296.9 lineto
62098.9 52290.5 lineto
62092.5 52286.2 lineto
62085 52284.7 lineto
61455 52284.7 lineto
poly1
0 0 0 setrgbcolor
61770 53997.3 334.646 cir1
8.34646 setlinewidth
0 0 0 setrgbcolor
0.000393701 setlinewidth
newpath
67329.9 32329.6 moveto
67328.4 32322.1 lineto
67324.2 32315.7 lineto
67317.8 32311.4 lineto
67310.2 32309.9 lineto
66640.9 32309.9 lineto
66633.4 32311.4 lineto
66627 32315.7 lineto
66622.8 32322.1 lineto
66621.3 32329.6 lineto
66621.3 32998.9 lineto
66622.8 33006.4 lineto
66627 33012.8 lineto
66633.4 33017.1 lineto
66640.9 33018.6 lineto
67310.2 33018.6 lineto
67317.8 33017.1 lineto
67324.2 33012.8 lineto
67328.4 33006.4 lineto
67329.9 32998.9 lineto
67329.9 32329.6 lineto
poly1
0 0 0 setrgbcolor
66975.6 33664.3 354.331 cir1
0 0 0 setrgbcolor
newpath
58545.7 53614.6 moveto
58547.2 53622.2 lineto
58551.4 53628.6 lineto
58557.8 53632.8 lineto
58565.4 53634.3 lineto
59234.6 53634.3 lineto
59242.2 53632.8 lineto
59248.6 53628.6 lineto
59252.8 53622.2 lineto
59254.3 53614.6 lineto
59254.3 52945.4 lineto
59252.8 52937.8 lineto
59248.6 52931.4 lineto
59242.2 52927.2 lineto
59234.6 52925.7 lineto
58565.4 52925.7 lineto
58557.8 52927.2 lineto
58551.4 52931.4 lineto
58547.2 52937.8 lineto
58545.7 52945.4 lineto
58545.7 53614.6 lineto
poly1
0 0 0 setrgbcolor
58900 52280 354.331 cir1
0 0 0 setrgbcolor
460.63 setlinewidth
newpath
74201.8 37292.9 moveto
73780.5 37292.9 lineto
stroke
0 0 0 setrgbcolor
0.000393701 setlinewidth
72947.8 37755.5 275.591 cir1
8.34646 setlinewidth
0 0 0 setrgbcolor
0.000393701 setlinewidth
72947.8 39664.9 275.591 cir1
8.34646 setlinewidth
0 0 0 setrgbcolor
460.63 setlinewidth
newpath
74201.8 40127.5 moveto
73780.5 40127.5 lineto
stroke
0 0 0 setrgbcolor
0.000393701 setlinewidth
newpath
70551.2 52928 moveto
70543.6 52929.5 lineto
70537.3 52933.8 lineto
70533 52940.2 lineto
70531.5 52947.7 lineto
70531.5 54207.6 lineto
70533 54215.1 lineto
70537.3 54221.5 lineto
70543.6 54225.7 lineto
70551.2 54227.2 lineto
71811 54227.2 lineto
71818.6 54225.7 lineto
71824.9 54221.5 lineto
71829.2 54215.1 lineto
71830.7 54207.6 lineto
71830.7 52947.7 lineto
71829.2 52940.2 lineto
71824.9 52933.8 lineto
71818.6 52929.5 lineto
71811 52928 lineto
70551.2 52928 lineto
poly1
0 0 0 setrgbcolor
71181.1 59577.6 649.606 cir1
0 0 0 setrgbcolor
newpath
73364.3 32703.4 moveto
73362.8 32695.9 lineto
73358.6 32689.5 lineto
73352.2 32685.2 lineto
73344.6 32683.7 lineto
72675.4 32683.7 lineto
72667.8 32685.2 lineto
72661.4 32689.5 lineto
72657.2 32695.9 lineto
72655.7 32703.4 lineto
72655.7 33372.7 lineto
72657.2 33380.2 lineto
72661.4 33386.6 lineto
72667.8 33390.9 lineto
72675.4 33392.4 lineto
73344.6 33392.4 lineto
73352.2 33390.9 lineto
73358.6 33386.6 lineto
73362.8 33380.2 lineto
73364.3 33372.7 lineto
73364.3 32703.4 lineto
poly1
0 0 0 setrgbcolor
73010 34038 354.331 cir1
0 0 0 setrgbcolor
newpath
45945.7 38014.6 moveto
45947.2 38022.2 lineto
45951.4 38028.6 lineto
45957.8 38032.8 lineto
45965.4 38034.3 lineto
46634.6 38034.3 lineto
46642.2 38032.8 lineto
46648.6 38028.6 lineto
46652.8 38022.2 lineto
46654.3 38014.6 lineto
46654.3 37345.4 lineto
46652.8 37337.8 lineto
46648.6 37331.4 lineto
46642.2 37327.2 lineto
46634.6 37325.7 lineto
45965.4 37325.7 lineto
45957.8 37327.2 lineto
45951.4 37331.4 lineto
45947.2 37337.8 lineto
45945.7 37345.4 lineto
45945.7 38014.6 lineto
poly1
0 0 0 setrgbcolor
46300 36680 354.331 cir1
0 0 0 setrgbcolor
newpath
70334.6 47034.3 moveto
70342.2 47032.8 lineto
70348.6 47028.6 lineto
70352.8 47022.2 lineto
70354.3 47014.6 lineto
70354.3 46345.4 lineto
70352.8 46337.8 lineto
70348.6 46331.4 lineto
70342.2 46327.2 lineto
70334.6 46325.7 lineto
69665.4 46325.7 lineto
69657.8 46327.2 lineto
69651.4 46331.4 lineto
69647.2 46337.8 lineto
69645.7 46345.4 lineto
69645.7 47014.6 lineto
69647.2 47022.2 lineto
69651.4 47028.6 lineto
69657.8 47032.8 lineto
69665.4 47034.3 lineto
70334.6 47034.3 lineto
poly1
0 0 0 setrgbcolor
69000 46680 354.331 cir1
0 0 0 setrgbcolor
68000 46680 354.331 cir1
0 0 0 setrgbcolor
67000 46680 354.331 cir1
0 0 0 setrgbcolor
66000 46680 354.331 cir1
0 0 0 setrgbcolor
65000 46680 354.331 cir1
0 0 0 setrgbcolor
64000 46680 354.331 cir1
0 0 0 setrgbcolor
63000 46680 354.331 cir1
0 0 0 setrgbcolor
62000 46680 354.331 cir1
0 0 0 setrgbcolor
61000 46680 354.331 cir1
0 0 0 setrgbcolor
60000 46680 354.331 cir1
0 0 0 setrgbcolor
59000 46680 354.331 cir1
0 0 0 setrgbcolor
58000 46680 354.331 cir1
0 0 0 setrgbcolor
57000 46680 354.331 cir1
0 0 0 setrgbcolor
56000 46680 354.331 cir1
0 0 0 setrgbcolor
55000 46680 354.331 cir1
0 0 0 setrgbcolor
54000 46680 354.331 cir1
0 0 0 setrgbcolor
53000 46680 354.331 cir1
0 0 0 setrgbcolor
52000 46680 354.331 cir1
0 0 0 setrgbcolor
51000 46680 354.331 cir1
0 0 0 setrgbcolor
50000 46680 354.331 cir1
0 0 0 setrgbcolor
49000 46680 354.331 cir1
0 0 0 setrgbcolor
48000 46680 354.331 cir1
0 0 0 setrgbcolor
47000 46680 354.331 cir1
0 0 0 setrgbcolor
46000 46680 354.331 cir1
0 0 0 setrgbcolor
45000 46680 354.331 cir1
0 0 0 setrgbcolor
44000 46680 354.331 cir1
0 0 0 setrgbcolor
43000 46680 354.331 cir1
0 0 0 setrgbcolor
42000 46680 354.331 cir1
0 0 0 setrgbcolor
41000 46680 354.331 cir1
0 0 0 setrgbcolor
40000 46680 354.331 cir1
0 0 0 setrgbcolor
39000 46680 354.331 cir1
0 0 0 setrgbcolor
38000 46680 354.331 cir1
0 0 0 setrgbcolor
newpath
71874.3 27505.4 moveto
71872.8 27497.8 lineto
71868.6 27491.4 lineto
71862.2 27487.2 lineto
71854.6 27485.7 lineto
71185.4 27485.7 lineto
71177.8 27487.2 lineto
71171.4 27491.4 lineto
71167.2 27497.8 lineto
71165.7 27505.4 lineto
71165.7 28174.6 lineto
71167.2 28182.2 lineto
71171.4 28188.6 lineto
71177.8 28192.8 lineto
71185.4 28194.3 lineto
71854.6 28194.3 lineto
71862.2 28192.8 lineto
71868.6 28188.6 lineto
71872.8 28182.2 lineto
71874.3 28174.6 lineto
71874.3 27505.4 lineto
poly1
0 0 0 setrgbcolor
71520 28840 354.331 cir1
0 0 0 setrgbcolor
newpath
73937 50620.9 moveto
73944.5 50619.4 lineto
73950.9 50615.2 lineto
73955.2 50608.8 lineto
73956.7 50601.3 lineto
73956.7 49341.4 lineto
73955.2 49333.9 lineto
73950.9 49327.5 lineto
73944.5 49323.2 lineto
73937 49321.7 lineto
72677.2 49321.7 lineto
72669.6 49323.2 lineto
72663.2 49327.5 lineto
72659 49333.9 lineto
72657.5 49341.4 lineto
72657.5 50601.3 lineto
72659 50608.8 lineto
72663.2 50615.2 lineto
72669.6 50619.4 lineto
72677.2 50620.9 lineto
73937 50620.9 lineto
poly1
0 0 0 setrgbcolor
73307.1 43971.3 649.606 cir1
0 0 0 setrgbcolor
newpath
57415.7 44874.6 moveto
57417.2 44882.2 lineto
57421.4 44888.6 lineto
57427.8 44892.8 lineto
57435.4 44894.3 lineto
58104.6 44894.3 lineto
58112.2 44892.8 lineto
58118.6 44888.6 lineto
58122.8 44882.2 lineto
58124.3 44874.6 lineto
58124.3 44205.4 lineto
58122.8 44197.8 lineto
58118.6 44191.4 lineto
58112.2 44187.2 lineto
58104.6 44185.7 lineto
57435.4 44185.7 lineto
57427.8 44187.2 lineto
57421.4 44191.4 lineto
57417.2 44197.8 lineto
57415.7 44205.4 lineto
57415.7 44874.6 lineto
poly1
0 0 0 setrgbcolor
57770 43540 354.331 cir1
0 0 0 setrgbcolor
newpath
68267.7 54304 moveto
68269.2 54311.5 lineto
68273.5 54317.9 lineto
68279.9 54322.2 lineto
68287.4 54323.7 lineto
68956.7 54323.7 lineto
68964.2 54322.2 lineto
68970.6 54317.9 lineto
68974.9 54311.5 lineto
68976.4 54304 lineto
68976.4 53634.7 lineto
68974.9 53627.2 lineto
68970.6 53620.8 lineto
68964.2 53616.5 lineto
68956.7 53615 lineto
68287.4 53615 lineto
68279.9 53616.5 lineto
68273.5 53620.8 lineto
68269.2 53627.2 lineto
68267.7 53634.7 lineto
68267.7 54304 lineto
poly1
0 0 0 setrgbcolor
68622 52969.4 354.331 cir1
0 0 0 setrgbcolor
newpath
67293.3 43270.6 moveto
67300.8 43269.1 lineto
67307.2 43264.8 lineto
67311.5 43258.4 lineto
67313 43250.9 lineto
67313 42581.6 lineto
67311.5 42574 lineto
67307.2 42567.7 lineto
67300.8 42563.4 lineto
67293.3 42561.9 lineto
66624 42561.9 lineto
66616.5 42563.4 lineto
66610.1 42567.7 lineto
66605.8 42574 lineto
66604.3 42581.6 lineto
66604.3 43250.9 lineto
66605.8 43258.4 lineto
66610.1 43264.8 lineto
66616.5 43269.1 lineto
66624 43270.6 lineto
67293.3 43270.6 lineto
poly1
0 0 0 setrgbcolor
65958.7 42916.2 354.331 cir1
0 0 0 setrgbcolor
newpath
70334.6 51034.3 moveto
70342.2 51032.8 lineto
70348.6 51028.6 lineto
70352.8 51022.2 lineto
70354.3 51014.6 lineto
70354.3 50345.4 lineto
70352.8 50337.8 lineto
70348.6 50331.4 lineto
70342.2 50327.2 lineto
70334.6 50325.7 lineto
69665.4 50325.7 lineto
69657.8 50327.2 lineto
69651.4 50331.4 lineto
69647.2 50337.8 lineto
69645.7 50345.4 lineto
69645.7 51014.6 lineto
69647.2 51022.2 lineto
69651.4 51028.6 lineto
69657.8 51032.8 lineto
69665.4 51034.3 lineto
70334.6 51034.3 lineto
poly1
0 0 0 setrgbcolor
69000 50680 354.331 cir1
0 0 0 setrgbcolor
68000 50680 354.331 cir1
0 0 0 setrgbcolor
67000 50680 354.331 cir1
0 0 0 setrgbcolor
66000 50680 354.331 cir1
0 0 0 setrgbcolor
65000 50680 354.331 cir1
0 0 0 setrgbcolor
64000 50680 354.331 cir1
0 0 0 setrgbcolor
63000 50680 354.331 cir1
0 0 0 setrgbcolor
62000 50680 354.331 cir1
0 0 0 setrgbcolor
61000 50680 354.331 cir1
0 0 0 setrgbcolor
60000 50680 354.331 cir1
0 0 0 setrgbcolor
59000 50680 354.331 cir1
0 0 0 setrgbcolor
58000 50680 354.331 cir1
0 0 0 setrgbcolor
57000 50680 354.331 cir1
0 0 0 setrgbcolor
56000 50680 354.331 cir1
0 0 0 setrgbcolor
55000 50680 354.331 cir1
0 0 0 setrgbcolor
54000 50680 354.331 cir1
0 0 0 setrgbcolor
53000 50680 354.331 cir1
0 0 0 setrgbcolor
52000 50680 354.331 cir1
0 0 0 setrgbcolor
51000 50680 354.331 cir1
0 0 0 setrgbcolor
50000 50680 354.331 cir1
0 0 0 setrgbcolor
49000 50680 354.331 cir1
0 0 0 setrgbcolor
48000 50680 354.331 cir1
0 0 0 setrgbcolor
47000 50680 354.331 cir1
0 0 0 setrgbcolor
46000 50680 354.331 cir1
0 0 0 setrgbcolor
45000 50680 354.331 cir1
0 0 0 setrgbcolor
44000 50680 354.331 cir1
0 0 0 setrgbcolor
43000 50680 354.331 cir1
0 0 0 setrgbcolor
42000 50680 354.331 cir1
0 0 0 setrgbcolor
41000 50680 354.331 cir1
0 0 0 setrgbcolor
40000 50680 354.331 cir1
0 0 0 setrgbcolor
39000 50680 354.331 cir1
0 0 0 setrgbcolor
38000 50680 354.331 cir1
0 0 0 setrgbcolor
newpath
67318.9 44884.7 moveto
67326.4 44883.2 lineto
67332.8 44879 lineto
67337.1 44872.6 lineto
67338.6 44865 lineto
67338.6 44195.7 lineto
67337.1 44188.2 lineto
67332.8 44181.8 lineto
67326.4 44177.6 lineto
67318.9 44176.1 lineto
66649.6 44176.1 lineto
66642.1 44177.6 lineto
66635.7 44181.8 lineto
66631.4 44188.2 lineto
66629.9 44195.7 lineto
66629.9 44865 lineto
66631.4 44872.6 lineto
66635.7 44879 lineto
66642.1 44883.2 lineto
66649.6 44884.7 lineto
67318.9 44884.7 lineto
poly1
0 0 0 setrgbcolor
65984.3 44530.4 354.331 cir1
0 0 0 setrgbcolor
newpath
70334.6 27034.3 moveto
70342.2 27032.8 lineto
70348.6 27028.6 lineto
70352.8 27022.2 lineto
70354.3 27014.6 lineto
70354.3 26345.4 lineto
70352.8 26337.8 lineto
70348.6 26331.4 lineto
70342.2 26327.2 lineto
70334.6 26325.7 lineto
69665.4 26325.7 lineto
69657.8 26327.2 lineto
69651.4 26331.4 lineto
69647.2 26337.8 lineto
69645.7 26345.4 lineto
69645.7 27014.6 lineto
69647.2 27022.2 lineto
69651.4 27028.6 lineto
69657.8 27032.8 lineto
69665.4 27034.3 lineto
70334.6 27034.3 lineto
poly1
0 0 0 setrgbcolor
69000 26680 354.331 cir1
0 0 0 setrgbcolor
68000 26680 354.331 cir1
0 0 0 setrgbcolor
67000 26680 354.331 cir1
0 0 0 setrgbcolor
66000 26680 354.331 cir1
0 0 0 setrgbcolor
65000 26680 354.331 cir1
0 0 0 setrgbcolor
64000 26680 354.331 cir1
0 0 0 setrgbcolor
63000 26680 354.331 cir1
0 0 0 setrgbcolor
62000 26680 354.331 cir1
0 0 0 setrgbcolor
61000 26680 354.331 cir1
0 0 0 setrgbcolor
60000 26680 354.331 cir1
0 0 0 setrgbcolor
59000 26680 354.331 cir1
0 0 0 setrgbcolor
58000 26680 354.331 cir1
0 0 0 setrgbcolor
57000 26680 354.331 cir1
0 0 0 setrgbcolor
56000 26680 354.331 cir1
0 0 0 setrgbcolor
55000 26680 354.331 cir1
0 0 0 setrgbcolor
54000 26680 354.331 cir1
0 0 0 setrgbcolor
53000 26680 354.331 cir1
0 0 0 setrgbcolor
52000 26680 354.331 cir1
0 0 0 setrgbcolor
51000 26680 354.331 cir1
0 0 0 setrgbcolor
50000 26680 354.331 cir1
0 0 0 setrgbcolor
49000 26680 354.331 cir1
0 0 0 setrgbcolor
48000 26680 354.331 cir1
0 0 0 setrgbcolor
47000 26680 354.331 cir1
0 0 0 setrgbcolor
46000 26680 354.331 cir1
0 0 0 setrgbcolor
45000 26680 354.331 cir1
0 0 0 setrgbcolor
44000 26680 354.331 cir1
0 0 0 setrgbcolor
43000 26680 354.331 cir1
0 0 0 setrgbcolor
42000 26680 354.331 cir1
0 0 0 setrgbcolor
41000 26680 354.331 cir1
0 0 0 setrgbcolor
40000 26680 354.331 cir1
0 0 0 setrgbcolor
39000 26680 354.331 cir1
0 0 0 setrgbcolor
38000 26680 354.331 cir1
0 0 0 setrgbcolor
newpath
67704.7 62620.9 moveto
67706.2 62628.5 lineto
67710.5 62634.9 lineto
67716.9 62639.1 lineto
67724.4 62640.6 lineto
68393.7 62640.6 lineto
68401.2 62639.1 lineto
68407.6 62634.9 lineto
68411.9 62628.5 lineto
68413.4 62620.9 lineto
68413.4 61951.7 lineto
68411.9 61944.1 lineto
68407.6 61937.7 lineto
68401.2 61933.5 lineto
68393.7 61932 lineto
67724.4 61932 lineto
67716.9 61933.5 lineto
67710.5 61937.7 lineto
67706.2 61944.1 lineto
67704.7 61951.7 lineto
67704.7 62620.9 lineto
poly1
0 0 0 setrgbcolor
68059.1 61286.3 354.331 cir1
0 0 0 setrgbcolor
newpath
51063 55288.3 moveto
51064.5 55295.8 lineto
51068.8 55302.2 lineto
51075.1 55306.5 lineto
51082.7 55308 lineto
51752 55308 lineto
51759.5 55306.5 lineto
51765.9 55302.2 lineto
51770.2 55295.8 lineto
51771.7 55288.3 lineto
51771.7 54619 lineto
51770.2 54611.4 lineto
51765.9 54605.1 lineto
51759.5 54600.8 lineto
51752 54599.3 lineto
51082.7 54599.3 lineto
51075.1 54600.8 lineto
51068.8 54605.1 lineto
51064.5 54611.4 lineto
51063 54619 lineto
51063 55288.3 lineto
poly1
0 0 0 setrgbcolor
51417.3 53953.6 354.331 cir1
0 0 0 setrgbcolor
newpath
73864.6 26534.3 moveto
73872.2 26532.8 lineto
73878.6 26528.6 lineto
73882.8 26522.2 lineto
73884.3 26514.6 lineto
73884.3 25845.4 lineto
73882.8 25837.8 lineto
73878.6 25831.4 lineto
73872.2 25827.2 lineto
73864.6 25825.7 lineto
73195.4 25825.7 lineto
73187.8 25827.2 lineto
73181.4 25831.4 lineto
73177.2 25837.8 lineto
73175.7 25845.4 lineto
73175.7 26514.6 lineto
73177.2 26522.2 lineto
73181.4 26528.6 lineto
73187.8 26532.8 lineto
73195.4 26534.3 lineto
73864.6 26534.3 lineto
poly1
0 0 0 setrgbcolor
72530 26180 354.331 cir1
0 0 0 setrgbcolor
newpath
66732.3 54304 moveto
66733.8 54311.5 lineto
66738 54317.9 lineto
66744.4 54322.2 lineto
66752 54323.7 lineto
67421.3 54323.7 lineto
67428.8 54322.2 lineto
67435.2 54317.9 lineto
67439.4 54311.5 lineto
67440.9 54304 lineto
67440.9 53634.7 lineto
67439.4 53627.2 lineto
67435.2 53620.8 lineto
67428.8 53616.5 lineto
67421.3 53615 lineto
66752 53615 lineto
66744.4 53616.5 lineto
66738 53620.8 lineto
66733.8 53627.2 lineto
66732.3 53634.7 lineto
66732.3 54304 lineto
poly1
0 0 0 setrgbcolor
67086.6 52969.4 354.331 cir1
0 0 0 setrgbcolor
newpath
56745.7 53554.6 moveto
56747.2 53562.2 lineto
56751.4 53568.6 lineto
56757.8 53572.8 lineto
56765.4 53574.3 lineto
57434.6 53574.3 lineto
57442.2 53572.8 lineto
57448.6 53568.6 lineto
57452.8 53562.2 lineto
57454.3 53554.6 lineto
57454.3 52885.4 lineto
57452.8 52877.8 lineto
57448.6 52871.4 lineto
57442.2 52867.2 lineto
57434.6 52865.7 lineto
56765.4 52865.7 lineto
56757.8 52867.2 lineto
56751.4 52871.4 lineto
56747.2 52877.8 lineto
56745.7 52885.4 lineto
56745.7 53554.6 lineto
poly1
0 0 0 setrgbcolor
57100 52220 354.331 cir1
0 0 0 setrgbcolor
newpath
53575.7 45056.6 moveto
53577.2 45064.1 lineto
53581.4 45070.5 lineto
53587.8 45074.8 lineto
53595.4 45076.3 lineto
54264.6 45076.3 lineto
54272.2 45074.8 lineto
54278.6 45070.5 lineto
54282.8 45064.1 lineto
54284.3 45056.6 lineto
54284.3 44387.3 lineto
54282.8 44379.8 lineto
54278.6 44373.4 lineto
54272.2 44369.1 lineto
54264.6 44367.6 lineto
53595.4 44367.6 lineto
53587.8 44369.1 lineto
53581.4 44373.4 lineto
53577.2 44379.8 lineto
53575.7 44387.3 lineto
53575.7 45056.6 lineto
poly1
0 0 0 setrgbcolor
53930 43722 354.331 cir1
0 0 0 setrgbcolor
newpath
70334.6 31034.3 moveto
70342.2 31032.8 lineto
70348.6 31028.6 lineto
70352.8 31022.2 lineto
70354.3 31014.6 lineto
70354.3 30345.4 lineto
70352.8 30337.8 lineto
70348.6 30331.4 lineto
70342.2 30327.2 lineto
70334.6 30325.7 lineto
69665.4 30325.7 lineto
69657.8 30327.2 lineto
69651.4 30331.4 lineto
69647.2 30337.8 lineto
69645.7 30345.4 lineto
69645.7 31014.6 lineto
69647.2 31022.2 lineto
69651.4 31028.6 lineto
69657.8 31032.8 lineto
69665.4 31034.3 lineto
70334.6 31034.3 lineto
poly1
0 0 0 setrgbcolor
69000 30680 354.331 cir1
0 0 0 setrgbcolor
68000 30680 354.331 cir1
0 0 0 setrgbcolor
67000 30680 354.331 cir1
0 0 0 setrgbcolor
66000 30680 354.331 cir1
0 0 0 setrgbcolor
65000 30680 354.331 cir1
0 0 0 setrgbcolor
64000 30680 354.331 cir1
0 0 0 setrgbcolor
63000 30680 354.331 cir1
0 0 0 setrgbcolor
62000 30680 354.331 cir1
0 0 0 setrgbcolor
61000 30680 354.331 cir1
0 0 0 setrgbcolor
60000 30680 354.331 cir1
0 0 0 setrgbcolor
59000 30680 354.331 cir1
0 0 0 setrgbcolor
58000 30680 354.331 cir1
0 0 0 setrgbcolor
57000 30680 354.331 cir1
0 0 0 setrgbcolor
56000 30680 354.331 cir1
0 0 0 setrgbcolor
55000 30680 354.331 cir1
0 0 0 setrgbcolor
54000 30680 354.331 cir1
0 0 0 setrgbcolor
53000 30680 354.331 cir1
0 0 0 setrgbcolor
52000 30680 354.331 cir1
0 0 0 setrgbcolor
51000 30680 354.331 cir1
0 0 0 setrgbcolor
50000 30680 354.331 cir1
0 0 0 setrgbcolor
49000 30680 354.331 cir1
0 0 0 setrgbcolor
48000 30680 354.331 cir1
0 0 0 setrgbcolor
47000 30680 354.331 cir1
0 0 0 setrgbcolor
46000 30680 354.331 cir1
0 0 0 setrgbcolor
45000 30680 354.331 cir1
0 0 0 setrgbcolor
44000 30680 354.331 cir1
0 0 0 setrgbcolor
43000 30680 354.331 cir1
0 0 0 setrgbcolor
42000 30680 354.331 cir1
0 0 0 setrgbcolor
41000 30680 354.331 cir1
0 0 0 setrgbcolor
40000 30680 354.331 cir1
0 0 0 setrgbcolor
39000 30680 354.331 cir1
0 0 0 setrgbcolor
38000 30680 354.331 cir1
0 0 0 setrgbcolor
newpath
70689 62636.7 moveto
70690.5 62644.2 lineto
70694.7 62650.6 lineto
70701.1 62654.9 lineto
70708.7 62656.4 lineto
71378 62656.4 lineto
71385.5 62654.9 lineto
71391.9 62650.6 lineto
71396.1 62644.2 lineto
71397.6 62636.7 lineto
71397.6 61967.4 lineto
71396.1 61959.9 lineto
71391.9 61953.5 lineto
71385.5 61949.2 lineto
71378 61947.7 lineto
70708.7 61947.7 lineto
70701.1 61949.2 lineto
70694.7 61953.5 lineto
70690.5 61959.9 lineto
70689 61967.4 lineto
70689 62636.7 lineto
poly1
0 0 0 setrgbcolor
71043.3 61302 354.331 cir1
0 0 0 setrgbcolor
37110.2 59947.7 708.661 cir1
8.34646 setlinewidth
0 0 0 setrgbcolor
0.000393701 setlinewidth
newpath
66165.4 59258.7 moveto
66163.9 59251.2 lineto
66159.6 59244.8 lineto
66153.2 59240.6 lineto
66145.7 59239.1 lineto
64767.7 59239.1 lineto
64760.2 59240.6 lineto
64753.8 59244.8 lineto
64749.5 59251.2 lineto
64748 59258.7 lineto
64748 60636.7 lineto
64749.5 60644.2 lineto
64753.8 60650.6 lineto
64760.2 60654.9 lineto
64767.7 60656.4 lineto
66145.7 60656.4 lineto
66153.2 60654.9 lineto
66159.6 60650.6 lineto
66163.9 60644.2 lineto
66165.4 60636.7 lineto
66165.4 59258.7 lineto
poly1
0 0 0 setrgbcolor
62053.1 59947.7 649.606 cir1
8.34646 setlinewidth
0 0 0 setrgbcolor
0.000393701 setlinewidth
40159.4 59947.7 649.606 cir1
8.34646 setlinewidth
0 0 0 setrgbcolor
0.000393701 setlinewidth
newpath
55525.7 45126.6 moveto
55527.2 45134.1 lineto
55531.4 45140.5 lineto
55537.8 45144.8 lineto
55545.4 45146.3 lineto
56214.6 45146.3 lineto
56222.2 45144.8 lineto
56228.6 45140.5 lineto
56232.8 45134.1 lineto
56234.3 45126.6 lineto
56234.3 44457.3 lineto
56232.8 44449.8 lineto
56228.6 44443.4 lineto
56222.2 44439.1 lineto
56214.6 44437.6 lineto
55545.4 44437.6 lineto
55537.8 44439.1 lineto
55531.4 44443.4 lineto
55527.2 44449.8 lineto
55525.7 44457.3 lineto
55525.7 45126.6 lineto
poly1
0 0 0 setrgbcolor
55880 43792 354.331 cir1
0 0 0 setrgbcolor
newpath
69584.3 32375.4 moveto
69582.8 32367.8 lineto
69578.6 32361.4 lineto
69572.2 32357.2 lineto
69564.6 32355.7 lineto
68895.4 32355.7 lineto
68887.8 32357.2 lineto
68881.4 32361.4 lineto
68877.2 32367.8 lineto
68875.7 32375.4 lineto
68875.7 33044.6 lineto
68877.2 33052.2 lineto
68881.4 33058.6 lineto
68887.8 33062.8 lineto
68895.4 33064.3 lineto
69564.6 33064.3 lineto
69572.2 33062.8 lineto
69578.6 33058.6 lineto
69582.8 33052.2 lineto
69584.3 33044.6 lineto
69584.3 32375.4 lineto
poly1
0 0 0 setrgbcolor
69230 33710 354.331 cir1
0 0 0 setrgbcolor
newpath
73267.7 60947.7 moveto
73266.2 60940.2 lineto
73262 60933.8 lineto
73255.6 60929.5 lineto
73248 60928 lineto
72578.7 60928 lineto
72571.2 60929.5 lineto
72564.8 60933.8 lineto
72560.6 60940.2 lineto
72559.1 60947.7 lineto
72559.1 61617 lineto
72560.6 61624.5 lineto
72564.8 61630.9 lineto
72571.2 61635.2 lineto
72578.7 61636.7 lineto
73248 61636.7 lineto
73255.6 61635.2 lineto
73262 61630.9 lineto
73266.2 61624.5 lineto
73267.7 61617 lineto
73267.7 60947.7 lineto
poly1
0 0 0 setrgbcolor
72913.4 62282.4 354.331 cir1
0 0 0 setrgbcolor
newpath
64921.3 33920.2 moveto
64922.8 33927.7 lineto
64927 33934.1 lineto
64933.4 33938.3 lineto
64940.9 33939.8 lineto
65610.2 33939.8 lineto
65617.8 33938.3 lineto
65624.2 33934.1 lineto
65628.4 33927.7 lineto
65629.9 33920.2 lineto
65629.9 33250.9 lineto
65628.4 33243.3 lineto
65624.2 33236.9 lineto
65617.8 33232.7 lineto
65610.2 33231.2 lineto
64940.9 33231.2 lineto
64933.4 33232.7 lineto
64927 33236.9 lineto
64922.8 33243.3 lineto
64921.3 33250.9 lineto
64921.3 33920.2 lineto
poly1
0 0 0 setrgbcolor
65275.6 32585.5 354.331 cir1
0 0 0 setrgbcolor
newpath
69212.6 62620.9 moveto
69214.1 62628.5 lineto
69218.4 62634.9 lineto
69224.8 62639.1 lineto
69232.3 62640.6 lineto
69901.6 62640.6 lineto
69909.1 62639.1 lineto
69915.5 62634.9 lineto
69919.8 62628.5 lineto
69921.3 62620.9 lineto
69921.3 61951.7 lineto
69919.8 61944.1 lineto
69915.5 61937.7 lineto
69909.1 61933.5 lineto
69901.6 61932 lineto
69232.3 61932 lineto
69224.8 61933.5 lineto
69218.4 61937.7 lineto
69214.1 61944.1 lineto
69212.6 61951.7 lineto
69212.6 62620.9 lineto
poly1
0 0 0 setrgbcolor
69566.9 61286.3 354.331 cir1
0 0 0 setrgbcolor
newpath
50713.4 32175.7 moveto
50705.9 32177.2 lineto
50699.5 32181.4 lineto
50695.2 32187.8 lineto
50693.7 32195.4 lineto
50693.7 32864.6 lineto
50695.2 32872.2 lineto
50699.5 32878.6 lineto
50705.9 32882.8 lineto
50713.4 32884.3 lineto
51382.7 32884.3 lineto
51390.2 32882.8 lineto
51396.6 32878.6 lineto
51400.9 32872.2 lineto
51402.4 32864.6 lineto
51402.4 32195.4 lineto
51400.9 32187.8 lineto
51396.6 32181.4 lineto
51390.2 32177.2 lineto
51382.7 32175.7 lineto
50713.4 32175.7 lineto
poly1
0 0 0 setrgbcolor
52048 32530 354.331 cir1
0 0 0 setrgbcolor
newpath
51335.7 45094.6 moveto
51337.2 45102.2 lineto
51341.4 45108.6 lineto
51347.8 45112.8 lineto
51355.4 45114.3 lineto
52024.6 45114.3 lineto
52032.2 45112.8 lineto
52038.6 45108.6 lineto
52042.8 45102.2 lineto
52044.3 45094.6 lineto
52044.3 44425.4 lineto
52042.8 44417.8 lineto
52038.6 44411.4 lineto
52032.2 44407.2 lineto
52024.6 44405.7 lineto
51355.4 44405.7 lineto
51347.8 44407.2 lineto
51341.4 44411.4 lineto
51337.2 44417.8 lineto
51335.7 44425.4 lineto
51335.7 45094.6 lineto
poly1
0 0 0 setrgbcolor
51690 43760 354.331 cir1
showpage
grestore
%%EOF
