%!PS-Adobe-3.0
%%Creator: PCBNEW
%%CreationDate: Fri Apr  8 23:10:55 2022
%%Title: ()
%%Pages: 1
%%PageOrder: Ascend
%%BoundingBox: 0 0 596 842
%%DocumentMedia: A4 595 842 0 () ()
%%Orientation: Landscape
%%EndComments
%%BeginProlog
/line { newpath moveto lineto stroke } bind def
/cir0 { newpath 0 360 arc stroke } bind def
/cir1 { newpath 0 360 arc gsave fill grestore stroke } bind def
/cir2 { newpath 0 360 arc gsave fill grestore stroke } bind def
/arc0 { newpath arc stroke } bind def
/arc1 { newpath 4 index 4 index moveto arc closepath gsave fill
    grestore stroke } bind def
/arc2 { newpath 4 index 4 index moveto arc closepath gsave fill
    grestore stroke } bind def
/poly0 { stroke } bind def
/poly1 { closepath gsave fill grestore stroke } bind def
/poly2 { closepath gsave fill grestore stroke } bind def
/rect0 { rectstroke } bind def
/rect1 { rectfill } bind def
/rect2 { rectfill } bind def
/linemode0 { 0 setlinecap 0 setlinejoin 0 setlinewidth } bind def
/linemode1 { 1 setlinecap 1 setlinejoin } bind def
/dashedline { [200] 100 setdash } bind def
/solidline { [] 0 setdash } bind def
/phantomshow { moveto
    /KicadFont findfont 0.000001 scalefont setfont
    show } bind def
/textshow { gsave
    findfont exch scalefont setfont concat 1 scale 0 0 moveto show
    } bind def
/reencodefont {
  findfont dup length dict begin
  { 1 index /FID ne
    { def }
    { pop pop } ifelse
  } forall
  /Encoding ISOLatin1Encoding def
  currentdict
  end } bind def
/KicadFont /Helvetica reencodefont definefont pop
/KicadFont-Bold /Helvetica-Bold reencodefont definefont pop
/KicadFont-Oblique /Helvetica-Oblique reencodefont definefont pop
/KicadFont-BoldOblique /Helvetica-BoldOblique reencodefont definefont pop
%%EndProlog
%%Page: 1 1
%%BeginPageSetup
gsave
0.0072 0.0072 scale
linemode1
82680 0 translate 90 rotate
8.34646 setlinewidth
%%EndPageSetup
0 0 0 setrgbcolor
0 0 0 setrgbcolor
3.93701 setlinewidth
newpath
70577.6 34262.4 moveto
70577.6 34459.3 lineto
stroke
newpath
70577.6 34459.3 moveto
70735 34459.3 lineto
stroke
newpath
70735 34459.3 moveto
70735 34262.4 lineto
stroke
newpath
70735 34262.4 moveto
70577.6 34262.4 lineto
stroke
newpath
70735 34262.4 moveto
70577.6 34262.4 lineto
70577.6 34459.3 lineto
70735 34459.3 lineto
70735 34262.4 lineto
poly1
0 0 0 setrgbcolor
newpath
70971.3 34262.4 moveto
70971.3 34459.3 lineto
stroke
newpath
70971.3 34459.3 moveto
71128.7 34459.3 lineto
stroke
newpath
71128.7 34459.3 moveto
71128.7 34262.4 lineto
stroke
newpath
71128.7 34262.4 moveto
70971.3 34262.4 lineto
stroke
newpath
71128.7 34262.4 moveto
70971.3 34262.4 lineto
70971.3 34459.3 lineto
71128.7 34459.3 lineto
71128.7 34262.4 lineto
poly1
0 0 0 setrgbcolor
newpath
71365 33120.7 moveto
71365 33317.6 lineto
stroke
newpath
71365 33317.6 moveto
71522.4 33317.6 lineto
stroke
newpath
71522.4 33317.6 moveto
71522.4 33120.7 lineto
stroke
newpath
71522.4 33120.7 moveto
71365 33120.7 lineto
stroke
newpath
71522.4 33120.7 moveto
71365 33120.7 lineto
71365 33317.6 lineto
71522.4 33317.6 lineto
71522.4 33120.7 lineto
poly1
0 0 0 setrgbcolor
newpath
70971.3 33120.7 moveto
70971.3 33317.6 lineto
stroke
newpath
70971.3 33317.6 moveto
71128.7 33317.6 lineto
stroke
newpath
71128.7 33317.6 moveto
71128.7 33120.7 lineto
stroke
newpath
71128.7 33120.7 moveto
70971.3 33120.7 lineto
stroke
newpath
71128.7 33120.7 moveto
70971.3 33120.7 lineto
70971.3 33317.6 lineto
71128.7 33317.6 lineto
71128.7 33120.7 lineto
poly1
0 0 0 setrgbcolor
newpath
71365 34262.4 moveto
71365 34459.3 lineto
stroke
newpath
71365 34459.3 moveto
71522.4 34459.3 lineto
stroke
newpath
71522.4 34459.3 moveto
71522.4 34262.4 lineto
stroke
newpath
71522.4 34262.4 moveto
71365 34262.4 lineto
stroke
newpath
71522.4 34262.4 moveto
71365 34262.4 lineto
71365 34459.3 lineto
71522.4 34459.3 lineto
71522.4 34262.4 lineto
poly1
0 0 0 setrgbcolor
newpath
70577.6 33120.7 moveto
70577.6 33317.6 lineto
stroke
newpath
70577.6 33317.6 moveto
70735 33317.6 lineto
stroke
newpath
70735 33317.6 moveto
70735 33120.7 lineto
stroke
newpath
70735 33120.7 moveto
70577.6 33120.7 lineto
stroke
newpath
70735 33120.7 moveto
70577.6 33120.7 lineto
70577.6 33317.6 lineto
70735 33317.6 lineto
70735 33120.7 lineto
poly1
0 0 0 setrgbcolor
newpath
70705.5 33514.4 moveto
71502.8 33514.4 lineto
stroke
newpath
71502.8 33514.4 moveto
71502.8 34065.6 lineto
stroke
newpath
71502.8 34065.6 moveto
70597.2 34065.6 lineto
stroke
newpath
70597.2 34065.6 moveto
70597.2 33622.7 lineto
stroke
newpath
70597.2 33622.7 moveto
70705.5 33514.4 lineto
stroke
newpath
71502.8 33514.4 moveto
70705.5 33514.4 lineto
70597.2 33622.7 lineto
70597.2 34065.6 lineto
71502.8 34065.6 lineto
71502.8 33514.4 lineto
poly1
0 0 0 setrgbcolor
newpath
40453.1 44726.9 moveto
40835 44726.9 lineto
stroke
newpath
40835 44726.9 moveto
40835 44345 lineto
stroke
newpath
40835 44345 moveto
40453.1 44345 lineto
stroke
newpath
40453.1 44345 moveto
40453.1 44726.9 lineto
stroke
newpath
40835 44345 moveto
40453.1 44345 lineto
40453.1 44726.9 lineto
40835 44726.9 lineto
40835 44345 lineto
poly1
0 0 0 setrgbcolor
newpath
39965 44726.9 moveto
40346.9 44726.9 lineto
stroke
newpath
40346.9 44726.9 moveto
40346.9 44345 lineto
stroke
newpath
40346.9 44345 moveto
39965 44345 lineto
stroke
newpath
39965 44345 moveto
39965 44726.9 lineto
stroke
newpath
40346.9 44345 moveto
39965 44345 lineto
39965 44726.9 lineto
40346.9 44726.9 lineto
40346.9 44345 lineto
poly1
0 0 0 setrgbcolor
newpath
39965 45215 moveto
40346.9 45215 lineto
stroke
newpath
40346.9 45215 moveto
40346.9 44833.1 lineto
stroke
newpath
40346.9 44833.1 moveto
39965 44833.1 lineto
stroke
newpath
39965 44833.1 moveto
39965 45215 lineto
stroke
newpath
40346.9 44833.1 moveto
39965 44833.1 lineto
39965 45215 lineto
40346.9 45215 lineto
40346.9 44833.1 lineto
poly1
0 0 0 setrgbcolor
newpath
40453.1 45215 moveto
40835 45215 lineto
stroke
newpath
40835 45215 moveto
40835 44833.1 lineto
stroke
newpath
40835 44833.1 moveto
40453.1 44833.1 lineto
stroke
newpath
40453.1 44833.1 moveto
40453.1 45215 lineto
stroke
newpath
40835 44833.1 moveto
40453.1 44833.1 lineto
40453.1 45215 lineto
40835 45215 lineto
40835 44833.1 lineto
poly1
0 0 0 setrgbcolor
0.000393701 setlinewidth
newpath
44310.6 41317.3 moveto
44348.3 41309.8 lineto
44380.2 41288.5 lineto
44401.6 41256.6 lineto
44409.1 41218.9 lineto
44409.1 41022 lineto
44401.6 40984.4 lineto
44380.2 40952.4 lineto
44348.3 40931.1 lineto
44310.6 40923.6 lineto
43405.1 40923.6 lineto
43367.5 40931.1 lineto
43335.5 40952.4 lineto
43314.2 40984.4 lineto
43306.7 41022 lineto
43306.7 41218.9 lineto
43314.2 41256.6 lineto
43335.5 41288.5 lineto
43367.5 41309.8 lineto
43405.1 41317.3 lineto
44310.6 41317.3 lineto
poly1
0 0 0 setrgbcolor
newpath
44310.6 36907.9 moveto
44348.3 36900.4 lineto
44380.2 36879 lineto
44401.6 36847.1 lineto
44409.1 36809.4 lineto
44409.1 36612.6 lineto
44401.6 36574.9 lineto
44380.2 36543 lineto
44348.3 36521.7 lineto
44310.6 36514.2 lineto
43405.1 36514.2 lineto
43367.5 36521.7 lineto
43335.5 36543 lineto
43314.2 36574.9 lineto
43306.7 36612.6 lineto
43306.7 36809.4 lineto
43314.2 36847.1 lineto
43335.5 36879 lineto
43367.5 36900.4 lineto
43405.1 36907.9 lineto
44310.6 36907.9 lineto
poly1
0 0 0 setrgbcolor
newpath
43125.6 37262.2 moveto
43148.2 37257.7 lineto
43167.3 37244.9 lineto
43180.2 37225.7 lineto
43184.6 37203.1 lineto
43184.6 37085 lineto
43180.2 37062.4 lineto
43167.3 37043.3 lineto
43148.2 37030.5 lineto
43125.6 37026 lineto
42574.4 37026 lineto
42551.8 37030.5 lineto
42532.7 37043.3 lineto
42519.8 37062.4 lineto
42515.4 37085 lineto
42515.4 37203.1 lineto
42519.8 37225.7 lineto
42532.7 37244.9 lineto
42551.8 37257.7 lineto
42574.4 37262.2 lineto
43125.6 37262.2 lineto
poly1
0 0 0 setrgbcolor
newpath
43125.6 37655.9 moveto
43148.2 37651.4 lineto
43167.3 37638.6 lineto
43180.2 37619.4 lineto
43184.6 37596.9 lineto
43184.6 37478.7 lineto
43180.2 37456.1 lineto
43167.3 37437 lineto
43148.2 37424.2 lineto
43125.6 37419.7 lineto
42574.4 37419.7 lineto
42551.8 37424.2 lineto
42532.7 37437 lineto
42519.8 37456.1 lineto
42515.4 37478.7 lineto
42515.4 37596.9 lineto
42519.8 37619.4 lineto
42532.7 37638.6 lineto
42551.8 37651.4 lineto
42574.4 37655.9 lineto
43125.6 37655.9 lineto
poly1
0 0 0 setrgbcolor
newpath
43125.6 38049.6 moveto
43148.2 38045.1 lineto
43167.3 38032.3 lineto
43180.2 38013.2 lineto
43184.6 37990.6 lineto
43184.6 37872.4 lineto
43180.2 37849.8 lineto
43167.3 37830.7 lineto
43148.2 37817.9 lineto
43125.6 37813.4 lineto
42574.4 37813.4 lineto
42551.8 37817.9 lineto
42532.7 37830.7 lineto
42519.8 37849.8 lineto
42515.4 37872.4 lineto
42515.4 37990.6 lineto
42519.8 38013.2 lineto
42532.7 38032.3 lineto
42551.8 38045.1 lineto
42574.4 38049.6 lineto
43125.6 38049.6 lineto
poly1
0 0 0 setrgbcolor
newpath
43125.6 38443.3 moveto
43148.2 38438.8 lineto
43167.3 38426 lineto
43180.2 38406.9 lineto
43184.6 38384.3 lineto
43184.6 38266.1 lineto
43180.2 38243.5 lineto
43167.3 38224.4 lineto
43148.2 38211.6 lineto
43125.6 38207.1 lineto
42574.4 38207.1 lineto
42551.8 38211.6 lineto
42532.7 38224.4 lineto
42519.8 38243.5 lineto
42515.4 38266.1 lineto
42515.4 38384.3 lineto
42519.8 38406.9 lineto
42532.7 38426 lineto
42551.8 38438.8 lineto
42574.4 38443.3 lineto
43125.6 38443.3 lineto
poly1
0 0 0 setrgbcolor
newpath
43125.6 38837 moveto
43148.2 38832.5 lineto
43167.3 38819.7 lineto
43180.2 38800.6 lineto
43184.6 38778 lineto
43184.6 38659.8 lineto
43180.2 38637.2 lineto
43167.3 38618.1 lineto
43148.2 38605.3 lineto
43125.6 38600.8 lineto
42574.4 38600.8 lineto
42551.8 38605.3 lineto
42532.7 38618.1 lineto
42519.8 38637.2 lineto
42515.4 38659.8 lineto
42515.4 38778 lineto
42519.8 38800.6 lineto
42532.7 38819.7 lineto
42551.8 38832.5 lineto
42574.4 38837 lineto
43125.6 38837 lineto
poly1
0 0 0 setrgbcolor
newpath
43125.6 39230.7 moveto
43148.2 39226.2 lineto
43167.3 39213.4 lineto
43180.2 39194.3 lineto
43184.6 39171.7 lineto
43184.6 39053.5 lineto
43180.2 39030.9 lineto
43167.3 39011.8 lineto
43148.2 38999 lineto
43125.6 38994.5 lineto
42574.4 38994.5 lineto
42551.8 38999 lineto
42532.7 39011.8 lineto
42519.8 39030.9 lineto
42515.4 39053.5 lineto
42515.4 39171.7 lineto
42519.8 39194.3 lineto
42532.7 39213.4 lineto
42551.8 39226.2 lineto
42574.4 39230.7 lineto
43125.6 39230.7 lineto
poly1
0 0 0 setrgbcolor
newpath
43125.6 39624.4 moveto
43148.2 39619.9 lineto
43167.3 39607.1 lineto
43180.2 39588 lineto
43184.6 39565.4 lineto
43184.6 39447.2 lineto
43180.2 39424.6 lineto
43167.3 39405.5 lineto
43148.2 39392.7 lineto
43125.6 39388.2 lineto
42574.4 39388.2 lineto
42551.8 39392.7 lineto
42532.7 39405.5 lineto
42519.8 39424.6 lineto
42515.4 39447.2 lineto
42515.4 39565.4 lineto
42519.8 39588 lineto
42532.7 39607.1 lineto
42551.8 39619.9 lineto
42574.4 39624.4 lineto
43125.6 39624.4 lineto
poly1
0 0 0 setrgbcolor
newpath
43125.6 40018.1 moveto
43148.2 40013.6 lineto
43167.3 40000.8 lineto
43180.2 39981.7 lineto
43184.6 39959.1 lineto
43184.6 39840.9 lineto
43180.2 39818.3 lineto
43167.3 39799.2 lineto
43148.2 39786.4 lineto
43125.6 39781.9 lineto
42574.4 39781.9 lineto
42551.8 39786.4 lineto
42532.7 39799.2 lineto
42519.8 39818.3 lineto
42515.4 39840.9 lineto
42515.4 39959.1 lineto
42519.8 39981.7 lineto
42532.7 40000.8 lineto
42551.8 40013.6 lineto
42574.4 40018.1 lineto
43125.6 40018.1 lineto
poly1
0 0 0 setrgbcolor
newpath
43125.6 40411.8 moveto
43148.2 40407.3 lineto
43167.3 40394.5 lineto
43180.2 40375.4 lineto
43184.6 40352.8 lineto
43184.6 40234.6 lineto
43180.2 40212 lineto
43167.3 40192.9 lineto
43148.2 40180.1 lineto
43125.6 40175.6 lineto
42574.4 40175.6 lineto
42551.8 40180.1 lineto
42532.7 40192.9 lineto
42519.8 40212 lineto
42515.4 40234.6 lineto
42515.4 40352.8 lineto
42519.8 40375.4 lineto
42532.7 40394.5 lineto
42551.8 40407.3 lineto
42574.4 40411.8 lineto
43125.6 40411.8 lineto
poly1
0 0 0 setrgbcolor
newpath
43125.6 40805.5 moveto
43148.2 40801 lineto
43167.3 40788.2 lineto
43180.2 40769.1 lineto
43184.6 40746.5 lineto
43184.6 40628.3 lineto
43180.2 40605.7 lineto
43167.3 40586.6 lineto
43148.2 40573.8 lineto
43125.6 40569.3 lineto
42574.4 40569.3 lineto
42551.8 40573.8 lineto
42532.7 40586.6 lineto
42519.8 40605.7 lineto
42515.4 40628.3 lineto
42515.4 40746.5 lineto
42519.8 40769.1 lineto
42532.7 40788.2 lineto
42551.8 40801 lineto
42574.4 40805.5 lineto
43125.6 40805.5 lineto
poly1
0 0 0 setrgbcolor
newpath
69660.4 44156.4 moveto
69655.9 44133.8 lineto
69643.1 44114.6 lineto
69624 44101.8 lineto
69601.4 44097.3 lineto
69138.8 44097.3 lineto
69116.2 44101.8 lineto
69097 44114.6 lineto
69084.2 44133.8 lineto
69079.7 44156.4 lineto
69079.7 44274.5 lineto
69084.2 44297.1 lineto
69097 44316.2 lineto
69116.2 44329 lineto
69138.8 44333.5 lineto
69601.4 44333.5 lineto
69624 44329 lineto
69643.1 44316.2 lineto
69655.9 44297.1 lineto
69660.4 44274.5 lineto
69660.4 44156.4 lineto
poly1
0 0 0 setrgbcolor
newpath
69660.4 44904.4 moveto
69655.9 44881.8 lineto
69643.1 44862.7 lineto
69624 44849.8 lineto
69601.4 44845.4 lineto
69138.8 44845.4 lineto
69116.2 44849.8 lineto
69097 44862.7 lineto
69084.2 44881.8 lineto
69079.7 44904.4 lineto
69079.7 45022.5 lineto
69084.2 45045.1 lineto
69097 45064.3 lineto
69116.2 45077.1 lineto
69138.8 45081.6 lineto
69601.4 45081.6 lineto
69624 45077.1 lineto
69643.1 45064.3 lineto
69655.9 45045.1 lineto
69660.4 45022.5 lineto
69660.4 44904.4 lineto
poly1
0 0 0 setrgbcolor
newpath
68922.2 44530.4 moveto
68917.7 44507.8 lineto
68904.9 44488.6 lineto
68885.8 44475.8 lineto
68863.2 44471.3 lineto
68400.6 44471.3 lineto
68378 44475.8 lineto
68358.8 44488.6 lineto
68346 44507.8 lineto
68341.5 44530.4 lineto
68341.5 44648.5 lineto
68346 44671.1 lineto
68358.8 44690.3 lineto
68378 44703.1 lineto
68400.6 44707.6 lineto
68863.2 44707.6 lineto
68885.8 44703.1 lineto
68904.9 44690.3 lineto
68917.7 44671.1 lineto
68922.2 44648.5 lineto
68922.2 44530.4 lineto
poly1
0 0 0 setrgbcolor
newpath
67762.8 34728.2 moveto
67725.2 34735.7 lineto
67693.2 34757.1 lineto
67671.9 34789 lineto
67664.4 34826.7 lineto
67664.4 35033.3 lineto
67671.9 35071 lineto
67693.2 35102.9 lineto
67725.2 35124.3 lineto
67762.8 35131.8 lineto
68117.2 35131.8 lineto
68154.8 35124.3 lineto
68186.8 35102.9 lineto
68208.1 35071 lineto
68215.6 35033.3 lineto
68215.6 34826.7 lineto
68208.1 34789 lineto
68186.8 34757.1 lineto
68154.8 34735.7 lineto
68117.2 34728.2 lineto
67762.8 34728.2 lineto
poly1
0 0 0 setrgbcolor
newpath
67762.8 35446.7 moveto
67725.2 35454.2 lineto
67693.2 35475.6 lineto
67671.9 35507.5 lineto
67664.4 35545.2 lineto
67664.4 35751.9 lineto
67671.9 35789.5 lineto
67693.2 35821.4 lineto
67725.2 35842.8 lineto
67762.8 35850.3 lineto
68117.2 35850.3 lineto
68154.8 35842.8 lineto
68186.8 35821.4 lineto
68208.1 35789.5 lineto
68215.6 35751.9 lineto
68215.6 35545.2 lineto
68208.1 35507.5 lineto
68186.8 35475.6 lineto
68154.8 35454.2 lineto
68117.2 35446.7 lineto
67762.8 35446.7 lineto
poly1
0 0 0 setrgbcolor
newpath
67362.2 58280.4 moveto
67339.6 58284.9 lineto
67320.4 58297.7 lineto
67307.6 58316.8 lineto
67303.1 58339.4 lineto
67303.1 58802 lineto
67307.6 58824.6 lineto
67320.4 58843.8 lineto
67339.6 58856.6 lineto
67362.2 58861.1 lineto
67480.3 58861.1 lineto
67502.9 58856.6 lineto
67522.1 58843.8 lineto
67534.9 58824.6 lineto
67539.4 58802 lineto
67539.4 58339.4 lineto
67534.9 58316.8 lineto
67522.1 58297.7 lineto
67502.9 58284.9 lineto
67480.3 58280.4 lineto
67362.2 58280.4 lineto
poly1
0 0 0 setrgbcolor
newpath
68110.2 58280.4 moveto
68087.6 58284.9 lineto
68068.5 58297.7 lineto
68055.7 58316.8 lineto
68051.2 58339.4 lineto
68051.2 58802 lineto
68055.7 58824.6 lineto
68068.5 58843.8 lineto
68087.6 58856.6 lineto
68110.2 58861.1 lineto
68228.3 58861.1 lineto
68250.9 58856.6 lineto
68270.1 58843.8 lineto
68282.9 58824.6 lineto
68287.4 58802 lineto
68287.4 58339.4 lineto
68282.9 58316.8 lineto
68270.1 58297.7 lineto
68250.9 58284.9 lineto
68228.3 58280.4 lineto
68110.2 58280.4 lineto
poly1
0 0 0 setrgbcolor
newpath
67736.2 59018.6 moveto
67713.6 59023.1 lineto
67694.5 59035.9 lineto
67681.7 59055 lineto
67677.2 59077.6 lineto
67677.2 59540.2 lineto
67681.7 59562.8 lineto
67694.5 59582 lineto
67713.6 59594.8 lineto
67736.2 59599.3 lineto
67854.3 59599.3 lineto
67876.9 59594.8 lineto
67896.1 59582 lineto
67908.9 59562.8 lineto
67913.4 59540.2 lineto
67913.4 59077.6 lineto
67908.9 59055 lineto
67896.1 59035.9 lineto
67876.9 59023.1 lineto
67854.3 59018.6 lineto
67736.2 59018.6 lineto
poly1
0 0 0 setrgbcolor
newpath
67500 57970.4 moveto
67537.7 57962.9 lineto
67569.6 57941.5 lineto
67590.9 57909.6 lineto
67598.4 57871.9 lineto
67598.4 57665.2 lineto
67590.9 57627.6 lineto
67569.6 57595.6 lineto
67537.7 57574.3 lineto
67500 57566.8 lineto
67145.7 57566.8 lineto
67108 57574.3 lineto
67076.1 57595.6 lineto
67054.7 57627.6 lineto
67047.2 57665.2 lineto
67047.2 57871.9 lineto
67054.7 57909.6 lineto
67076.1 57941.5 lineto
67108 57962.9 lineto
67145.7 57970.4 lineto
67500 57970.4 lineto
poly1
0 0 0 setrgbcolor
newpath
67500 57251.9 moveto
67537.7 57244.4 lineto
67569.6 57223 lineto
67590.9 57191.1 lineto
67598.4 57153.4 lineto
67598.4 56946.7 lineto
67590.9 56909.1 lineto
67569.6 56877.1 lineto
67537.7 56855.8 lineto
67500 56848.3 lineto
67145.7 56848.3 lineto
67108 56855.8 lineto
67076.1 56877.1 lineto
67054.7 56909.1 lineto
67047.2 56946.7 lineto
67047.2 57153.4 lineto
67054.7 57191.1 lineto
67076.1 57223 lineto
67108 57244.4 lineto
67145.7 57251.9 lineto
67500 57251.9 lineto
poly1
0 0 0 setrgbcolor
newpath
73735.2 38277.1 moveto
73735.2 38513.4 lineto
74266.7 38513.4 lineto
74266.7 38277.1 lineto
73735.2 38277.1 lineto
poly1
0 0 0 setrgbcolor
newpath
73735.2 38907.1 moveto
73735.2 39143.3 lineto
74266.7 39143.3 lineto
74266.7 38907.1 lineto
73735.2 38907.1 lineto
poly1
0 0 0 setrgbcolor
newpath
72711.6 39143.3 moveto
72711.6 39300.8 lineto
73203.7 39300.8 lineto
73203.7 39143.3 lineto
72711.6 39143.3 lineto
poly1
0 0 0 setrgbcolor
newpath
72711.6 38887.4 moveto
72711.6 39044.9 lineto
73203.7 39044.9 lineto
73203.7 38887.4 lineto
72711.6 38887.4 lineto
poly1
0 0 0 setrgbcolor
newpath
72711.6 38631.5 moveto
72711.6 38789 lineto
73203.7 38789 lineto
73203.7 38631.5 lineto
72711.6 38631.5 lineto
poly1
0 0 0 setrgbcolor
newpath
72711.6 38375.6 moveto
72711.6 38533.1 lineto
73203.7 38533.1 lineto
73203.7 38375.6 lineto
72711.6 38375.6 lineto
poly1
0 0 0 setrgbcolor
newpath
72711.6 38119.7 moveto
72711.6 38277.1 lineto
73203.7 38277.1 lineto
73203.7 38119.7 lineto
72711.6 38119.7 lineto
poly1
0 0 0 setrgbcolor
newpath
57677.2 55231.8 moveto
57714.8 55224.3 lineto
57746.8 55202.9 lineto
57768.1 55171 lineto
57775.6 55133.3 lineto
57775.6 54926.7 lineto
57768.1 54889 lineto
57746.8 54857.1 lineto
57714.8 54835.7 lineto
57677.2 54828.2 lineto
57322.8 54828.2 lineto
57285.2 54835.7 lineto
57253.2 54857.1 lineto
57231.9 54889 lineto
57224.4 54926.7 lineto
57224.4 55133.3 lineto
57231.9 55171 lineto
57253.2 55202.9 lineto
57285.2 55224.3 lineto
57322.8 55231.8 lineto
57677.2 55231.8 lineto
poly1
0 0 0 setrgbcolor
newpath
57677.2 54513.3 moveto
57714.8 54505.8 lineto
57746.8 54484.4 lineto
57768.1 54452.5 lineto
57775.6 54414.8 lineto
57775.6 54208.1 lineto
57768.1 54170.5 lineto
57746.8 54138.6 lineto
57714.8 54117.2 lineto
57677.2 54109.7 lineto
57322.8 54109.7 lineto
57285.2 54117.2 lineto
57253.2 54138.6 lineto
57231.9 54170.5 lineto
57224.4 54208.1 lineto
57224.4 54414.8 lineto
57231.9 54452.5 lineto
57253.2 54484.4 lineto
57285.2 54505.8 lineto
57322.8 54513.3 lineto
57677.2 54513.3 lineto
poly1
0 0 0 setrgbcolor
newpath
62111.2 43870.9 moveto
62103.7 43833.3 lineto
62082.4 43801.3 lineto
62050.5 43780 lineto
62012.8 43772.5 lineto
61815.9 43772.5 lineto
61778.3 43780 lineto
61746.3 43801.3 lineto
61725 43833.3 lineto
61717.5 43870.9 lineto
61717.5 44245 lineto
61725 44282.6 lineto
61746.3 44314.6 lineto
61778.3 44335.9 lineto
61815.9 44343.4 lineto
62012.8 44343.4 lineto
62050.5 44335.9 lineto
62082.4 44314.6 lineto
62103.7 44282.6 lineto
62111.2 44245 lineto
62111.2 43870.9 lineto
poly1
0 0 0 setrgbcolor
newpath
61363.2 43870.9 moveto
61355.7 43833.3 lineto
61334.4 43801.3 lineto
61302.4 43780 lineto
61264.8 43772.5 lineto
61067.9 43772.5 lineto
61030.2 43780 lineto
60998.3 43801.3 lineto
60977 43833.3 lineto
60969.5 43870.9 lineto
60969.5 44245 lineto
60977 44282.6 lineto
60998.3 44314.6 lineto
61030.2 44335.9 lineto
61067.9 44343.4 lineto
61264.8 44343.4 lineto
61302.4 44335.9 lineto
61334.4 44314.6 lineto
61355.7 44282.6 lineto
61363.2 44245 lineto
61363.2 43870.9 lineto
poly1
0 0 0 setrgbcolor
newpath
40157.5 37886.7 moveto
40150 37849 lineto
40128.7 37817.1 lineto
40096.7 37795.8 lineto
40059.1 37788.3 lineto
39862.2 37788.3 lineto
39824.5 37795.8 lineto
39792.6 37817.1 lineto
39771.3 37849 lineto
39763.8 37886.7 lineto
39763.8 38260.7 lineto
39771.3 38298.4 lineto
39792.6 38330.3 lineto
39824.5 38351.6 lineto
39862.2 38359.1 lineto
40059.1 38359.1 lineto
40096.7 38351.6 lineto
40128.7 38330.3 lineto
40150 38298.4 lineto
40157.5 38260.7 lineto
40157.5 37886.7 lineto
poly1
0 0 0 setrgbcolor
newpath
39409.4 37886.7 moveto
39402 37849 lineto
39380.6 37817.1 lineto
39348.7 37795.8 lineto
39311 37788.3 lineto
39114.2 37788.3 lineto
39076.5 37795.8 lineto
39044.6 37817.1 lineto
39023.2 37849 lineto
39015.7 37886.7 lineto
39015.7 38260.7 lineto
39023.2 38298.4 lineto
39044.6 38330.3 lineto
39076.5 38351.6 lineto
39114.2 38359.1 lineto
39311 38359.1 lineto
39348.7 38351.6 lineto
39380.6 38330.3 lineto
39402 38298.4 lineto
39409.4 38260.7 lineto
39409.4 37886.7 lineto
poly1
0 0 0 setrgbcolor
newpath
62106.3 44815.8 moveto
62098.8 44778.2 lineto
62077.5 44746.2 lineto
62045.5 44724.9 lineto
62007.9 44717.4 lineto
61811 44717.4 lineto
61773.4 44724.9 lineto
61741.4 44746.2 lineto
61720.1 44778.2 lineto
61712.6 44815.8 lineto
61712.6 45189.8 lineto
61720.1 45227.5 lineto
61741.4 45259.4 lineto
61773.4 45280.8 lineto
61811 45288.3 lineto
62007.9 45288.3 lineto
62045.5 45280.8 lineto
62077.5 45259.4 lineto
62098.8 45227.5 lineto
62106.3 45189.8 lineto
62106.3 44815.8 lineto
poly1
0 0 0 setrgbcolor
newpath
61358.3 44815.8 moveto
61350.8 44778.2 lineto
61329.4 44746.2 lineto
61297.5 44724.9 lineto
61259.8 44717.4 lineto
61063 44717.4 lineto
61025.3 44724.9 lineto
60993.4 44746.2 lineto
60972.1 44778.2 lineto
60964.6 44815.8 lineto
60964.6 45189.8 lineto
60972.1 45227.5 lineto
60993.4 45259.4 lineto
61025.3 45280.8 lineto
61063 45288.3 lineto
61259.8 45288.3 lineto
61297.5 45280.8 lineto
61329.4 45259.4 lineto
61350.8 45227.5 lineto
61358.3 45189.8 lineto
61358.3 44815.8 lineto
poly1
0 0 0 setrgbcolor
newpath
53192.8 51919.7 moveto
53155.2 51927.2 lineto
53123.2 51948.6 lineto
53101.9 51980.5 lineto
53094.4 52018.1 lineto
53094.4 52224.8 lineto
53101.9 52262.5 lineto
53123.2 52294.4 lineto
53155.2 52315.8 lineto
53192.8 52323.3 lineto
53547.2 52323.3 lineto
53584.8 52315.8 lineto
53616.8 52294.4 lineto
53638.1 52262.5 lineto
53645.6 52224.8 lineto
53645.6 52018.1 lineto
53638.1 51980.5 lineto
53616.8 51948.6 lineto
53584.8 51927.2 lineto
53547.2 51919.7 lineto
53192.8 51919.7 lineto
poly1
0 0 0 setrgbcolor
newpath
53192.8 52638.2 moveto
53155.2 52645.7 lineto
53123.2 52667.1 lineto
53101.9 52699 lineto
53094.4 52736.7 lineto
53094.4 52943.3 lineto
53101.9 52981 lineto
53123.2 53012.9 lineto
53155.2 53034.3 lineto
53192.8 53041.8 lineto
53547.2 53041.8 lineto
53584.8 53034.3 lineto
53616.8 53012.9 lineto
53638.1 52981 lineto
53645.6 52943.3 lineto
53645.6 52736.7 lineto
53638.1 52699 lineto
53616.8 52667.1 lineto
53584.8 52645.7 lineto
53547.2 52638.2 lineto
53192.8 52638.2 lineto
poly1
0 0 0 setrgbcolor
newpath
46857.9 34011.9 moveto
46857.9 34248.1 lineto
47468.1 34248.1 lineto
47468.1 34011.9 lineto
46857.9 34011.9 lineto
poly1
0 0 0 setrgbcolor
newpath
46857.9 33511.9 moveto
46857.9 33748.1 lineto
47468.1 33748.1 lineto
47468.1 33511.9 lineto
46857.9 33511.9 lineto
poly1
0 0 0 setrgbcolor
newpath
46857.9 33011.9 moveto
46857.9 33248.1 lineto
47468.1 33248.1 lineto
47468.1 33011.9 lineto
46857.9 33011.9 lineto
poly1
0 0 0 setrgbcolor
newpath
46857.9 32511.9 moveto
46857.9 32748.1 lineto
47468.1 32748.1 lineto
47468.1 32511.9 lineto
46857.9 32511.9 lineto
poly1
0 0 0 setrgbcolor
newpath
44731.9 32511.9 moveto
44731.9 32748.1 lineto
45342.1 32748.1 lineto
45342.1 32511.9 lineto
44731.9 32511.9 lineto
poly1
0 0 0 setrgbcolor
newpath
44731.9 33011.9 moveto
44731.9 33248.1 lineto
45342.1 33248.1 lineto
45342.1 33011.9 lineto
44731.9 33011.9 lineto
poly1
0 0 0 setrgbcolor
newpath
44731.9 33511.9 moveto
44731.9 33748.1 lineto
45342.1 33748.1 lineto
45342.1 33511.9 lineto
44731.9 33511.9 lineto
poly1
0 0 0 setrgbcolor
newpath
44731.9 34011.9 moveto
44731.9 34248.1 lineto
45342.1 34248.1 lineto
45342.1 34011.9 lineto
44731.9 34011.9 lineto
poly1
0 0 0 setrgbcolor
newpath
55367.2 55181.8 moveto
55404.8 55174.3 lineto
55436.8 55152.9 lineto
55458.1 55121 lineto
55465.6 55083.3 lineto
55465.6 54876.7 lineto
55458.1 54839 lineto
55436.8 54807.1 lineto
55404.8 54785.7 lineto
55367.2 54778.2 lineto
55012.8 54778.2 lineto
54975.2 54785.7 lineto
54943.2 54807.1 lineto
54921.9 54839 lineto
54914.4 54876.7 lineto
54914.4 55083.3 lineto
54921.9 55121 lineto
54943.2 55152.9 lineto
54975.2 55174.3 lineto
55012.8 55181.8 lineto
55367.2 55181.8 lineto
poly1
0 0 0 setrgbcolor
newpath
55367.2 54463.3 moveto
55404.8 54455.8 lineto
55436.8 54434.4 lineto
55458.1 54402.5 lineto
55465.6 54364.8 lineto
55465.6 54158.1 lineto
55458.1 54120.5 lineto
55436.8 54088.6 lineto
55404.8 54067.2 lineto
55367.2 54059.7 lineto
55012.8 54059.7 lineto
54975.2 54067.2 lineto
54943.2 54088.6 lineto
54921.9 54120.5 lineto
54914.4 54158.1 lineto
54914.4 54364.8 lineto
54921.9 54402.5 lineto
54943.2 54434.4 lineto
54975.2 54455.8 lineto
55012.8 54463.3 lineto
55367.2 54463.3 lineto
poly1
0 0 0 setrgbcolor
newpath
69601.4 43172.1 moveto
69593.9 43134.5 lineto
69572.6 43102.5 lineto
69540.6 43081.2 lineto
69503 43073.7 lineto
69296.3 43073.7 lineto
69258.6 43081.2 lineto
69226.7 43102.5 lineto
69205.3 43134.5 lineto
69197.8 43172.1 lineto
69197.8 43526.5 lineto
69205.3 43564.1 lineto
69226.7 43596.1 lineto
69258.6 43617.4 lineto
69296.3 43624.9 lineto
69503 43624.9 lineto
69540.6 43617.4 lineto
69572.6 43596.1 lineto
69593.9 43564.1 lineto
69601.4 43526.5 lineto
69601.4 43172.1 lineto
poly1
0 0 0 setrgbcolor
newpath
68882.9 43172.1 moveto
68875.4 43134.5 lineto
68854 43102.5 lineto
68822.1 43081.2 lineto
68784.4 43073.7 lineto
68577.8 43073.7 lineto
68540.1 43081.2 lineto
68508.2 43102.5 lineto
68486.8 43134.5 lineto
68479.3 43172.1 lineto
68479.3 43526.5 lineto
68486.8 43564.1 lineto
68508.2 43596.1 lineto
68540.1 43617.4 lineto
68577.8 43624.9 lineto
68784.4 43624.9 lineto
68822.1 43617.4 lineto
68854 43596.1 lineto
68875.4 43564.1 lineto
68882.9 43526.5 lineto
68882.9 43172.1 lineto
poly1
0 0 0 setrgbcolor
newpath
48868.1 40322.1 moveto
48868.1 39711.9 lineto
48631.9 39711.9 lineto
48631.9 40322.1 lineto
48868.1 40322.1 lineto
poly1
0 0 0 setrgbcolor
newpath
48368.1 40322.1 moveto
48368.1 39711.9 lineto
48131.9 39711.9 lineto
48131.9 40322.1 lineto
48368.1 40322.1 lineto
poly1
0 0 0 setrgbcolor
newpath
47868.1 40322.1 moveto
47868.1 39711.9 lineto
47631.9 39711.9 lineto
47631.9 40322.1 lineto
47868.1 40322.1 lineto
poly1
0 0 0 setrgbcolor
newpath
47368.1 40322.1 moveto
47368.1 39711.9 lineto
47131.9 39711.9 lineto
47131.9 40322.1 lineto
47368.1 40322.1 lineto
poly1
0 0 0 setrgbcolor
newpath
47368.1 42448.1 moveto
47368.1 41837.9 lineto
47131.9 41837.9 lineto
47131.9 42448.1 lineto
47368.1 42448.1 lineto
poly1
0 0 0 setrgbcolor
newpath
47868.1 42448.1 moveto
47868.1 41837.9 lineto
47631.9 41837.9 lineto
47631.9 42448.1 lineto
47868.1 42448.1 lineto
poly1
0 0 0 setrgbcolor
newpath
48368.1 42448.1 moveto
48368.1 41837.9 lineto
48131.9 41837.9 lineto
48131.9 42448.1 lineto
48368.1 42448.1 lineto
poly1
0 0 0 setrgbcolor
newpath
48868.1 42458 moveto
48868.1 41828 lineto
48631.9 41828 lineto
48631.9 42458 lineto
48868.1 42458 lineto
poly1
0 0 0 setrgbcolor
newpath
70519.7 35547.2 moveto
70527.2 35584.8 lineto
70548.6 35616.8 lineto
70580.5 35638.1 lineto
70618.1 35645.6 lineto
70824.8 35645.6 lineto
70862.5 35638.1 lineto
70894.4 35616.8 lineto
70915.8 35584.8 lineto
70923.3 35547.2 lineto
70923.3 35192.8 lineto
70915.8 35155.2 lineto
70894.4 35123.2 lineto
70862.5 35101.9 lineto
70824.8 35094.4 lineto
70618.1 35094.4 lineto
70580.5 35101.9 lineto
70548.6 35123.2 lineto
70527.2 35155.2 lineto
70519.7 35192.8 lineto
70519.7 35547.2 lineto
poly1
0 0 0 setrgbcolor
newpath
71238.2 35547.2 moveto
71245.7 35584.8 lineto
71267.1 35616.8 lineto
71299 35638.1 lineto
71336.7 35645.6 lineto
71543.3 35645.6 lineto
71581 35638.1 lineto
71612.9 35616.8 lineto
71634.3 35584.8 lineto
71641.8 35547.2 lineto
71641.8 35192.8 lineto
71634.3 35155.2 lineto
71612.9 35123.2 lineto
71581 35101.9 lineto
71543.3 35094.4 lineto
71336.7 35094.4 lineto
71299 35101.9 lineto
71267.1 35123.2 lineto
71245.7 35155.2 lineto
71238.2 35192.8 lineto
71238.2 35547.2 lineto
poly1
0 0 0 setrgbcolor
newpath
40161 39502.8 moveto
40153.5 39465.2 lineto
40132.2 39433.2 lineto
40100.3 39411.9 lineto
40062.6 39404.4 lineto
39855.9 39404.4 lineto
39818.2 39411.9 lineto
39786.3 39433.2 lineto
39765 39465.2 lineto
39757.5 39502.8 lineto
39757.5 39857.2 lineto
39765 39894.8 lineto
39786.3 39926.8 lineto
39818.2 39948.1 lineto
39855.9 39955.6 lineto
40062.6 39955.6 lineto
40100.3 39948.1 lineto
40132.2 39926.8 lineto
40153.5 39894.8 lineto
40161 39857.2 lineto
40161 39502.8 lineto
poly1
0 0 0 setrgbcolor
newpath
39442.5 39502.8 moveto
39435 39465.2 lineto
39413.7 39433.2 lineto
39381.8 39411.9 lineto
39344.1 39404.4 lineto
39137.4 39404.4 lineto
39099.7 39411.9 lineto
39067.8 39433.2 lineto
39046.5 39465.2 lineto
39039 39502.8 lineto
39039 39857.2 lineto
39046.5 39894.8 lineto
39067.8 39926.8 lineto
39099.7 39948.1 lineto
39137.4 39955.6 lineto
39344.1 39955.6 lineto
39381.8 39948.1 lineto
39413.7 39926.8 lineto
39435 39894.8 lineto
39442.5 39857.2 lineto
39442.5 39502.8 lineto
poly1
0 0 0 setrgbcolor
newpath
40161 40902.8 moveto
40153.5 40865.2 lineto
40132.2 40833.2 lineto
40100.3 40811.9 lineto
40062.6 40804.4 lineto
39855.9 40804.4 lineto
39818.2 40811.9 lineto
39786.3 40833.2 lineto
39765 40865.2 lineto
39757.5 40902.8 lineto
39757.5 41257.2 lineto
39765 41294.8 lineto
39786.3 41326.8 lineto
39818.2 41348.1 lineto
39855.9 41355.6 lineto
40062.6 41355.6 lineto
40100.3 41348.1 lineto
40132.2 41326.8 lineto
40153.5 41294.8 lineto
40161 41257.2 lineto
40161 40902.8 lineto
poly1
0 0 0 setrgbcolor
newpath
39442.5 40902.8 moveto
39435 40865.2 lineto
39413.7 40833.2 lineto
39381.8 40811.9 lineto
39344.1 40804.4 lineto
39137.4 40804.4 lineto
39099.7 40811.9 lineto
39067.8 40833.2 lineto
39046.5 40865.2 lineto
39039 40902.8 lineto
39039 41257.2 lineto
39046.5 41294.8 lineto
39067.8 41326.8 lineto
39099.7 41348.1 lineto
39137.4 41355.6 lineto
39344.1 41355.6 lineto
39381.8 41348.1 lineto
39413.7 41326.8 lineto
39435 41294.8 lineto
39442.5 41257.2 lineto
39442.5 40902.8 lineto
poly1
0 0 0 setrgbcolor
newpath
70004.9 45160.3 moveto
70674.2 45160.3 lineto
70674.2 44648.5 lineto
70004.9 44648.5 lineto
70004.9 45160.3 lineto
poly1
0 0 0 setrgbcolor
newpath
70004.9 43782.4 moveto
70674.2 43782.4 lineto
70674.2 43270.6 lineto
70004.9 43270.6 lineto
70004.9 43782.4 lineto
poly1
0 0 0 setrgbcolor
newpath
56363 54035.1 moveto
56325.3 54042.6 lineto
56293.4 54063.9 lineto
56272.1 54095.9 lineto
56264.6 54133.5 lineto
56264.6 54330.4 lineto
56272.1 54368.1 lineto
56293.4 54400 lineto
56325.3 54421.3 lineto
56363 54428.8 lineto
56737 54428.8 lineto
56774.7 54421.3 lineto
56806.6 54400 lineto
56827.9 54368.1 lineto
56835.4 54330.4 lineto
56835.4 54133.5 lineto
56827.9 54095.9 lineto
56806.6 54063.9 lineto
56774.7 54042.6 lineto
56737 54035.1 lineto
56363 54035.1 lineto
poly1
0 0 0 setrgbcolor
newpath
56363 54783.1 moveto
56325.3 54790.6 lineto
56293.4 54812 lineto
56272.1 54843.9 lineto
56264.6 54881.6 lineto
56264.6 55078.4 lineto
56272.1 55116.1 lineto
56293.4 55148 lineto
56325.3 55169.4 lineto
56363 55176.9 lineto
56737 55176.9 lineto
56774.7 55169.4 lineto
56806.6 55148 lineto
56827.9 55116.1 lineto
56835.4 55078.4 lineto
56835.4 54881.6 lineto
56827.9 54843.9 lineto
56806.6 54812 lineto
56774.7 54790.6 lineto
56737 54783.1 lineto
56363 54783.1 lineto
poly1
0 0 0 setrgbcolor
newpath
63996.1 41124.9 moveto
63996.1 40534.3 lineto
63208.7 40534.3 lineto
63208.7 41124.9 lineto
63996.1 41124.9 lineto
poly1
0 0 0 setrgbcolor
newpath
61515.7 42483.1 moveto
61515.7 40987.1 lineto
60728.3 40987.1 lineto
60728.3 42483.1 lineto
61515.7 42483.1 lineto
poly1
0 0 0 setrgbcolor
newpath
63996.1 42030.4 moveto
63996.1 41439.8 lineto
63208.7 41439.8 lineto
63208.7 42030.4 lineto
63996.1 42030.4 lineto
poly1
0 0 0 setrgbcolor
newpath
63996.1 42935.9 moveto
63996.1 42345.4 lineto
63208.7 42345.4 lineto
63208.7 42935.9 lineto
63996.1 42935.9 lineto
poly1
0 0 0 setrgbcolor
newpath
74178.1 53585.5 moveto
74173.7 53562.9 lineto
74160.9 53543.8 lineto
74141.7 53531 lineto
74119.1 53526.5 lineto
73656.5 53526.5 lineto
73633.9 53531 lineto
73614.7 53543.8 lineto
73601.9 53562.9 lineto
73597.4 53585.5 lineto
73597.4 53703.6 lineto
73601.9 53726.2 lineto
73614.7 53745.4 lineto
73633.9 53758.2 lineto
73656.5 53762.7 lineto
74119.1 53762.7 lineto
74141.7 53758.2 lineto
74160.9 53745.4 lineto
74173.7 53726.2 lineto
74178.1 53703.6 lineto
74178.1 53585.5 lineto
poly1
0 0 0 setrgbcolor
newpath
74178.1 54333.5 moveto
74173.7 54310.9 lineto
74160.9 54291.8 lineto
74141.7 54279 lineto
74119.1 54274.5 lineto
73656.5 54274.5 lineto
73633.9 54279 lineto
73614.7 54291.8 lineto
73601.9 54310.9 lineto
73597.4 54333.5 lineto
73597.4 54451.7 lineto
73601.9 54474.3 lineto
73614.7 54493.4 lineto
73633.9 54506.2 lineto
73656.5 54510.7 lineto
74119.1 54510.7 lineto
74141.7 54506.2 lineto
74160.9 54493.4 lineto
74173.7 54474.3 lineto
74178.1 54451.7 lineto
74178.1 54333.5 lineto
poly1
0 0 0 setrgbcolor
newpath
73440 53959.5 moveto
73435.5 53936.9 lineto
73422.7 53917.8 lineto
73403.5 53905 lineto
73380.9 53900.5 lineto
72918.3 53900.5 lineto
72895.7 53905 lineto
72876.5 53917.8 lineto
72863.7 53936.9 lineto
72859.3 53959.5 lineto
72859.3 54077.6 lineto
72863.7 54100.2 lineto
72876.5 54119.4 lineto
72895.7 54132.2 lineto
72918.3 54136.7 lineto
73380.9 54136.7 lineto
73403.5 54132.2 lineto
73422.7 54119.4 lineto
73435.5 54100.2 lineto
73440 54077.6 lineto
73440 53959.5 lineto
poly1
0 0 0 setrgbcolor
newpath
68861.5 35723.1 moveto
68866 35745.7 lineto
68878.8 35764.8 lineto
68897.9 35777.6 lineto
68920.5 35782.1 lineto
69383.1 35782.1 lineto
69405.7 35777.6 lineto
69424.9 35764.8 lineto
69437.7 35745.7 lineto
69442.2 35723.1 lineto
69442.2 35605 lineto
69437.7 35582.4 lineto
69424.9 35563.2 lineto
69405.7 35550.4 lineto
69383.1 35545.9 lineto
68920.5 35545.9 lineto
68897.9 35550.4 lineto
68878.8 35563.2 lineto
68866 35582.4 lineto
68861.5 35605 lineto
68861.5 35723.1 lineto
poly1
0 0 0 setrgbcolor
newpath
68861.5 34975 moveto
68866 34997.6 lineto
68878.8 35016.8 lineto
68897.9 35029.6 lineto
68920.5 35034.1 lineto
69383.1 35034.1 lineto
69405.7 35029.6 lineto
69424.9 35016.8 lineto
69437.7 34997.6 lineto
69442.2 34975 lineto
69442.2 34856.9 lineto
69437.7 34834.3 lineto
69424.9 34815.2 lineto
69405.7 34802.4 lineto
69383.1 34797.9 lineto
68920.5 34797.9 lineto
68897.9 34802.4 lineto
68878.8 34815.2 lineto
68866 34834.3 lineto
68861.5 34856.9 lineto
68861.5 34975 lineto
poly1
0 0 0 setrgbcolor
newpath
69599.6 35349.1 moveto
69604.1 35371.7 lineto
69616.9 35390.8 lineto
69636.1 35403.6 lineto
69658.7 35408.1 lineto
70121.3 35408.1 lineto
70143.9 35403.6 lineto
70163.1 35390.8 lineto
70175.9 35371.7 lineto
70180.4 35349.1 lineto
70180.4 35230.9 lineto
70175.9 35208.3 lineto
70163.1 35189.2 lineto
70143.9 35176.4 lineto
70121.3 35171.9 lineto
69658.7 35171.9 lineto
69636.1 35176.4 lineto
69616.9 35189.2 lineto
69604.1 35208.3 lineto
69599.6 35230.9 lineto
69599.6 35349.1 lineto
poly1
0 0 0 setrgbcolor
newpath
72942.9 59825.7 moveto
72950.4 59863.3 lineto
72971.7 59895.3 lineto
73003.7 59916.6 lineto
73041.3 59924.1 lineto
73248 59924.1 lineto
73285.7 59916.6 lineto
73317.6 59895.3 lineto
73339 59863.3 lineto
73346.5 59825.7 lineto
73346.5 59471.3 lineto
73339 59433.7 lineto
73317.6 59401.7 lineto
73285.7 59380.4 lineto
73248 59372.9 lineto
73041.3 59372.9 lineto
73003.7 59380.4 lineto
72971.7 59401.7 lineto
72950.4 59433.7 lineto
72942.9 59471.3 lineto
72942.9 59825.7 lineto
poly1
0 0 0 setrgbcolor
newpath
73661.4 59825.7 moveto
73668.9 59863.3 lineto
73690.2 59895.3 lineto
73722.2 59916.6 lineto
73759.8 59924.1 lineto
73966.5 59924.1 lineto
74004.2 59916.6 lineto
74036.1 59895.3 lineto
74057.5 59863.3 lineto
74065 59825.7 lineto
74065 59471.3 lineto
74057.5 59433.7 lineto
74036.1 59401.7 lineto
74004.2 59380.4 lineto
73966.5 59372.9 lineto
73759.8 59372.9 lineto
73722.2 59380.4 lineto
73690.2 59401.7 lineto
73668.9 59433.7 lineto
73661.4 59471.3 lineto
73661.4 59825.7 lineto
poly1
0 0 0 setrgbcolor
newpath
73986.2 58093.4 moveto
73978.7 58055.7 lineto
73957.4 58023.8 lineto
73925.5 58002.5 lineto
73887.8 57995 lineto
73681.1 57995 lineto
73643.4 58002.5 lineto
73611.5 58023.8 lineto
73590.2 58055.7 lineto
73582.7 58093.4 lineto
73582.7 58447.7 lineto
73590.2 58485.4 lineto
73611.5 58517.3 lineto
73643.4 58538.6 lineto
73681.1 58546.1 lineto
73887.8 58546.1 lineto
73925.5 58538.6 lineto
73957.4 58517.3 lineto
73978.7 58485.4 lineto
73986.2 58447.7 lineto
73986.2 58093.4 lineto
poly1
0 0 0 setrgbcolor
newpath
73267.7 58093.4 moveto
73260.2 58055.7 lineto
73238.9 58023.8 lineto
73207 58002.5 lineto
73169.3 57995 lineto
72962.6 57995 lineto
72924.9 58002.5 lineto
72893 58023.8 lineto
72871.7 58055.7 lineto
72864.2 58093.4 lineto
72864.2 58447.7 lineto
72871.7 58485.4 lineto
72893 58517.3 lineto
72924.9 58538.6 lineto
72962.6 58546.1 lineto
73169.3 58546.1 lineto
73207 58538.6 lineto
73238.9 58517.3 lineto
73260.2 58485.4 lineto
73267.7 58447.7 lineto
73267.7 58093.4 lineto
poly1
0 0 0 setrgbcolor
newpath
71601.8 32182.8 moveto
71594.3 32145.2 lineto
71572.9 32113.2 lineto
71541 32091.9 lineto
71503.3 32084.4 lineto
71296.7 32084.4 lineto
71259 32091.9 lineto
71227.1 32113.2 lineto
71205.7 32145.2 lineto
71198.2 32182.8 lineto
71198.2 32537.2 lineto
71205.7 32574.8 lineto
71227.1 32606.8 lineto
71259 32628.1 lineto
71296.7 32635.6 lineto
71503.3 32635.6 lineto
71541 32628.1 lineto
71572.9 32606.8 lineto
71594.3 32574.8 lineto
71601.8 32537.2 lineto
71601.8 32182.8 lineto
poly1
0 0 0 setrgbcolor
newpath
70883.3 32182.8 moveto
70875.8 32145.2 lineto
70854.4 32113.2 lineto
70822.5 32091.9 lineto
70784.8 32084.4 lineto
70578.1 32084.4 lineto
70540.5 32091.9 lineto
70508.6 32113.2 lineto
70487.2 32145.2 lineto
70479.7 32182.8 lineto
70479.7 32537.2 lineto
70487.2 32574.8 lineto
70508.6 32606.8 lineto
70540.5 32628.1 lineto
70578.1 32635.6 lineto
70784.8 32635.6 lineto
70822.5 32628.1 lineto
70854.4 32606.8 lineto
70875.8 32574.8 lineto
70883.3 32537.2 lineto
70883.3 32182.8 lineto
poly1
0 0 0 setrgbcolor
newpath
72782.8 28598.2 moveto
72745.2 28605.7 lineto
72713.2 28627.1 lineto
72691.9 28659 lineto
72684.4 28696.7 lineto
72684.4 28903.3 lineto
72691.9 28941 lineto
72713.2 28972.9 lineto
72745.2 28994.3 lineto
72782.8 29001.8 lineto
73137.2 29001.8 lineto
73174.8 28994.3 lineto
73206.8 28972.9 lineto
73228.1 28941 lineto
73235.6 28903.3 lineto
73235.6 28696.7 lineto
73228.1 28659 lineto
73206.8 28627.1 lineto
73174.8 28605.7 lineto
73137.2 28598.2 lineto
72782.8 28598.2 lineto
poly1
0 0 0 setrgbcolor
newpath
72782.8 29316.7 moveto
72745.2 29324.2 lineto
72713.2 29345.6 lineto
72691.9 29377.5 lineto
72684.4 29415.2 lineto
72684.4 29621.9 lineto
72691.9 29659.5 lineto
72713.2 29691.4 lineto
72745.2 29712.8 lineto
72782.8 29720.3 lineto
73137.2 29720.3 lineto
73174.8 29712.8 lineto
73206.8 29691.4 lineto
73228.1 29659.5 lineto
73235.6 29621.9 lineto
73235.6 29415.2 lineto
73228.1 29377.5 lineto
73206.8 29345.6 lineto
73174.8 29324.2 lineto
73137.2 29316.7 lineto
72782.8 29316.7 lineto
poly1
0 0 0 setrgbcolor
newpath
62544.3 45061.9 moveto
62544.3 45416.2 lineto
63056.1 45416.2 lineto
63056.1 45061.9 lineto
62544.3 45061.9 lineto
poly1
0 0 0 setrgbcolor
newpath
64355.3 44307.4 moveto
63125 44307.4 lineto
63125 44471.3 lineto
62544.3 44471.3 lineto
62544.3 44825.7 lineto
63125 44825.7 lineto
63125 44989.6 lineto
64355.3 44989.6 lineto
64355.3 44307.4 lineto
poly1
0 0 0 setrgbcolor
newpath
62544.3 43880.8 moveto
62544.3 44235.1 lineto
63056.1 44235.1 lineto
63056.1 43880.8 lineto
62544.3 43880.8 lineto
poly1
0 0 0 setrgbcolor
newpath
68818.9 58241 moveto
68796.3 58245.5 lineto
68777.1 58258.3 lineto
68764.3 58277.5 lineto
68759.8 58300.1 lineto
68759.8 58762.7 lineto
68764.3 58785.3 lineto
68777.1 58804.4 lineto
68796.3 58817.2 lineto
68818.9 58821.7 lineto
68937 58821.7 lineto
68959.6 58817.2 lineto
68978.8 58804.4 lineto
68991.6 58785.3 lineto
68996.1 58762.7 lineto
68996.1 58300.1 lineto
68991.6 58277.5 lineto
68978.8 58258.3 lineto
68959.6 58245.5 lineto
68937 58241 lineto
68818.9 58241 lineto
poly1
0 0 0 setrgbcolor
newpath
69566.9 58241 moveto
69544.3 58245.5 lineto
69525.2 58258.3 lineto
69512.4 58277.5 lineto
69507.9 58300.1 lineto
69507.9 58762.7 lineto
69512.4 58785.3 lineto
69525.2 58804.4 lineto
69544.3 58817.2 lineto
69566.9 58821.7 lineto
69685 58821.7 lineto
69707.6 58817.2 lineto
69726.8 58804.4 lineto
69739.6 58785.3 lineto
69744.1 58762.7 lineto
69744.1 58300.1 lineto
69739.6 58277.5 lineto
69726.8 58258.3 lineto
69707.6 58245.5 lineto
69685 58241 lineto
69566.9 58241 lineto
poly1
0 0 0 setrgbcolor
newpath
69192.9 58979.2 moveto
69170.3 58983.7 lineto
69151.2 58996.5 lineto
69138.4 59015.7 lineto
69133.9 59038.3 lineto
69133.9 59500.9 lineto
69138.4 59523.5 lineto
69151.2 59542.6 lineto
69170.3 59555.4 lineto
69192.9 59559.9 lineto
69311 59559.9 lineto
69333.6 59555.4 lineto
69352.8 59542.6 lineto
69365.6 59523.5 lineto
69370.1 59500.9 lineto
69370.1 59038.3 lineto
69365.6 59015.7 lineto
69352.8 58996.5 lineto
69333.6 58983.7 lineto
69311 58979.2 lineto
69192.9 58979.2 lineto
poly1
0 0 0 setrgbcolor
newpath
67066.9 54933.9 moveto
67029.3 54941.4 lineto
66997.3 54962.8 lineto
66976 54994.7 lineto
66968.5 55032.4 lineto
66968.5 55288.3 lineto
66976 55325.9 lineto
66997.3 55357.9 lineto
67029.3 55379.2 lineto
67066.9 55386.7 lineto
67578.7 55386.7 lineto
67616.4 55379.2 lineto
67648.3 55357.9 lineto
67669.7 55325.9 lineto
67677.2 55288.3 lineto
67677.2 55032.4 lineto
67669.7 54994.7 lineto
67648.3 54962.8 lineto
67616.4 54941.4 lineto
67578.7 54933.9 lineto
67066.9 54933.9 lineto
poly1
0 0 0 setrgbcolor
newpath
67066.9 56095.4 moveto
67029.3 56102.8 lineto
66997.3 56124.2 lineto
66976 56156.1 lineto
66968.5 56193.8 lineto
66968.5 56449.7 lineto
66976 56487.4 lineto
66997.3 56519.3 lineto
67029.3 56540.6 lineto
67066.9 56548.1 lineto
67578.7 56548.1 lineto
67616.4 56540.6 lineto
67648.3 56519.3 lineto
67669.7 56487.4 lineto
67677.2 56449.7 lineto
67677.2 56193.8 lineto
67669.7 56156.1 lineto
67648.3 56124.2 lineto
67616.4 56102.8 lineto
67578.7 56095.4 lineto
67066.9 56095.4 lineto
poly1
0 0 0 setrgbcolor
newpath
72223.1 35547 moveto
72230.6 35584.7 lineto
72252 35616.6 lineto
72283.9 35637.9 lineto
72321.6 35645.4 lineto
72518.4 35645.4 lineto
72556.1 35637.9 lineto
72588 35616.6 lineto
72609.4 35584.7 lineto
72616.9 35547 lineto
72616.9 35173 lineto
72609.4 35135.3 lineto
72588 35103.4 lineto
72556.1 35082.1 lineto
72518.4 35074.6 lineto
72321.6 35074.6 lineto
72283.9 35082.1 lineto
72252 35103.4 lineto
72230.6 35135.3 lineto
72223.1 35173 lineto
72223.1 35547 lineto
poly1
0 0 0 setrgbcolor
newpath
72971.2 35547 moveto
72978.7 35584.7 lineto
73000 35616.6 lineto
73031.9 35637.9 lineto
73069.6 35645.4 lineto
73266.5 35645.4 lineto
73304.1 35637.9 lineto
73336.1 35616.6 lineto
73357.4 35584.7 lineto
73364.9 35547 lineto
73364.9 35173 lineto
73357.4 35135.3 lineto
73336.1 35103.4 lineto
73304.1 35082.1 lineto
73266.5 35074.6 lineto
73069.6 35074.6 lineto
73031.9 35082.1 lineto
73000 35103.4 lineto
72978.7 35135.3 lineto
72971.2 35173 lineto
72971.2 35547 lineto
poly1
0 0 0 setrgbcolor
newpath
72731.3 56813.9 moveto
72735.8 56836.5 lineto
72748.6 56855.6 lineto
72767.8 56868.4 lineto
72790.4 56872.9 lineto
73193.9 56872.9 lineto
73216.5 56868.4 lineto
73235.7 56855.6 lineto
73248.5 56836.5 lineto
73253 56813.9 lineto
73253 56695.7 lineto
73248.5 56673.1 lineto
73235.7 56654 lineto
73216.5 56641.2 lineto
73193.9 56636.7 lineto
72790.4 56636.7 lineto
72767.8 56641.2 lineto
72748.6 56654 lineto
72735.8 56673.1 lineto
72731.3 56695.7 lineto
72731.3 56813.9 lineto
poly1
0 0 0 setrgbcolor
newpath
72731.3 56439.8 moveto
72735.8 56462.4 lineto
72748.6 56481.6 lineto
72767.8 56494.4 lineto
72790.4 56498.9 lineto
73193.9 56498.9 lineto
73216.5 56494.4 lineto
73235.7 56481.6 lineto
73248.5 56462.4 lineto
73253 56439.8 lineto
73253 56321.7 lineto
73248.5 56299.1 lineto
73235.7 56280 lineto
73216.5 56267.2 lineto
73193.9 56262.7 lineto
72790.4 56262.7 lineto
72767.8 56267.2 lineto
72748.6 56280 lineto
72735.8 56299.1 lineto
72731.3 56321.7 lineto
72731.3 56439.8 lineto
poly1
0 0 0 setrgbcolor
newpath
72731.3 56065.8 moveto
72735.8 56088.4 lineto
72748.6 56107.6 lineto
72767.8 56120.4 lineto
72790.4 56124.9 lineto
73193.9 56124.9 lineto
73216.5 56120.4 lineto
73235.7 56107.6 lineto
73248.5 56088.4 lineto
73253 56065.8 lineto
73253 55947.7 lineto
73248.5 55925.1 lineto
73235.7 55906 lineto
73216.5 55893.2 lineto
73193.9 55888.7 lineto
72790.4 55888.7 lineto
72767.8 55893.2 lineto
72748.6 55906 lineto
72735.8 55925.1 lineto
72731.3 55947.7 lineto
72731.3 56065.8 lineto
poly1
0 0 0 setrgbcolor
newpath
73627 56065.8 moveto
73631.5 56088.4 lineto
73644.3 56107.6 lineto
73663.4 56120.4 lineto
73686 56124.9 lineto
74089.6 56124.9 lineto
74112.2 56120.4 lineto
74131.3 56107.6 lineto
74144.1 56088.4 lineto
74148.6 56065.8 lineto
74148.6 55947.7 lineto
74144.1 55925.1 lineto
74131.3 55906 lineto
74112.2 55893.2 lineto
74089.6 55888.7 lineto
73686 55888.7 lineto
73663.4 55893.2 lineto
73644.3 55906 lineto
73631.5 55925.1 lineto
73627 55947.7 lineto
73627 56065.8 lineto
poly1
0 0 0 setrgbcolor
newpath
73627 56813.9 moveto
73631.5 56836.5 lineto
73644.3 56855.6 lineto
73663.4 56868.4 lineto
73686 56872.9 lineto
74089.6 56872.9 lineto
74112.2 56868.4 lineto
74131.3 56855.6 lineto
74144.1 56836.5 lineto
74148.6 56813.9 lineto
74148.6 56695.7 lineto
74144.1 56673.1 lineto
74131.3 56654 lineto
74112.2 56641.2 lineto
74089.6 56636.7 lineto
73686 56636.7 lineto
73663.4 56641.2 lineto
73644.3 56654 lineto
73631.5 56673.1 lineto
73627 56695.7 lineto
73627 56813.9 lineto
poly1
0 0 0 setrgbcolor
newpath
55381.8 52902.8 moveto
55374.3 52865.2 lineto
55352.9 52833.2 lineto
55321 52811.9 lineto
55283.3 52804.4 lineto
55076.7 52804.4 lineto
55039 52811.9 lineto
55007.1 52833.2 lineto
54985.7 52865.2 lineto
54978.2 52902.8 lineto
54978.2 53257.2 lineto
54985.7 53294.8 lineto
55007.1 53326.8 lineto
55039 53348.1 lineto
55076.7 53355.6 lineto
55283.3 53355.6 lineto
55321 53348.1 lineto
55352.9 53326.8 lineto
55374.3 53294.8 lineto
55381.8 53257.2 lineto
55381.8 52902.8 lineto
poly1
0 0 0 setrgbcolor
newpath
54663.3 52902.8 moveto
54655.8 52865.2 lineto
54634.4 52833.2 lineto
54602.5 52811.9 lineto
54564.8 52804.4 lineto
54358.1 52804.4 lineto
54320.5 52811.9 lineto
54288.6 52833.2 lineto
54267.2 52865.2 lineto
54259.7 52902.8 lineto
54259.7 53257.2 lineto
54267.2 53294.8 lineto
54288.6 53326.8 lineto
54320.5 53348.1 lineto
54358.1 53355.6 lineto
54564.8 53355.6 lineto
54602.5 53348.1 lineto
54634.4 53326.8 lineto
54655.8 53294.8 lineto
54663.3 53257.2 lineto
54663.3 52902.8 lineto
poly1
0 0 0 setrgbcolor
newpath
65117.5 52517.5 moveto
65117.5 52202.5 lineto
64802.5 52202.5 lineto
64802.5 52517.5 lineto
65117.5 52517.5 lineto
poly1
0 0 0 setrgbcolor
newpath
64526.9 52517.5 moveto
64526.9 52202.5 lineto
64212 52202.5 lineto
64212 52517.5 lineto
64526.9 52517.5 lineto
poly1
0 0 0 setrgbcolor
newpath
39856.7 45707.2 moveto
39959.1 45707.2 lineto
39959.1 45380.4 lineto
39856.7 45380.4 lineto
39856.7 45707.2 lineto
poly1
0 0 0 setrgbcolor
newpath
40053.5 45707.2 moveto
40155.9 45707.2 lineto
40155.9 45380.4 lineto
40053.5 45380.4 lineto
40053.5 45707.2 lineto
poly1
0 0 0 setrgbcolor
newpath
40250.4 45707.2 moveto
40352.8 45707.2 lineto
40352.8 45380.4 lineto
40250.4 45380.4 lineto
40250.4 45707.2 lineto
poly1
0 0 0 setrgbcolor
newpath
40447.2 45707.2 moveto
40549.6 45707.2 lineto
40549.6 45380.4 lineto
40447.2 45380.4 lineto
40447.2 45707.2 lineto
poly1
0 0 0 setrgbcolor
newpath
40644.1 45707.2 moveto
40746.5 45707.2 lineto
40746.5 45380.4 lineto
40644.1 45380.4 lineto
40644.1 45707.2 lineto
poly1
0 0 0 setrgbcolor
newpath
40840.9 45707.2 moveto
40943.3 45707.2 lineto
40943.3 45380.4 lineto
40840.9 45380.4 lineto
40840.9 45707.2 lineto
poly1
0 0 0 setrgbcolor
newpath
41327.2 45323.3 moveto
41327.2 45220.9 lineto
41000.4 45220.9 lineto
41000.4 45323.3 lineto
41327.2 45323.3 lineto
poly1
0 0 0 setrgbcolor
newpath
41327.2 45126.5 moveto
41327.2 45024.1 lineto
41000.4 45024.1 lineto
41000.4 45126.5 lineto
41327.2 45126.5 lineto
poly1
0 0 0 setrgbcolor
newpath
41327.2 44929.6 moveto
41327.2 44827.2 lineto
41000.4 44827.2 lineto
41000.4 44929.6 lineto
41327.2 44929.6 lineto
poly1
0 0 0 setrgbcolor
newpath
41327.2 44732.8 moveto
41327.2 44630.4 lineto
41000.4 44630.4 lineto
41000.4 44732.8 lineto
41327.2 44732.8 lineto
poly1
0 0 0 setrgbcolor
newpath
41327.2 44535.9 moveto
41327.2 44433.5 lineto
41000.4 44433.5 lineto
41000.4 44535.9 lineto
41327.2 44535.9 lineto
poly1
0 0 0 setrgbcolor
newpath
41327.2 44339.1 moveto
41327.2 44236.7 lineto
41000.4 44236.7 lineto
41000.4 44339.1 lineto
41327.2 44339.1 lineto
poly1
0 0 0 setrgbcolor
newpath
40943.3 43852.8 moveto
40840.9 43852.8 lineto
40840.9 44179.6 lineto
40943.3 44179.6 lineto
40943.3 43852.8 lineto
poly1
0 0 0 setrgbcolor
newpath
40746.5 43852.8 moveto
40644.1 43852.8 lineto
40644.1 44179.6 lineto
40746.5 44179.6 lineto
40746.5 43852.8 lineto
poly1
0 0 0 setrgbcolor
newpath
40549.6 43852.8 moveto
40447.2 43852.8 lineto
40447.2 44179.6 lineto
40549.6 44179.6 lineto
40549.6 43852.8 lineto
poly1
0 0 0 setrgbcolor
newpath
40352.8 43852.8 moveto
40250.4 43852.8 lineto
40250.4 44179.6 lineto
40352.8 44179.6 lineto
40352.8 43852.8 lineto
poly1
0 0 0 setrgbcolor
newpath
40155.9 43852.8 moveto
40053.5 43852.8 lineto
40053.5 44179.6 lineto
40155.9 44179.6 lineto
40155.9 43852.8 lineto
poly1
0 0 0 setrgbcolor
newpath
39959.1 43852.8 moveto
39856.7 43852.8 lineto
39856.7 44179.6 lineto
39959.1 44179.6 lineto
39959.1 43852.8 lineto
poly1
0 0 0 setrgbcolor
newpath
39472.8 44236.7 moveto
39472.8 44339.1 lineto
39799.6 44339.1 lineto
39799.6 44236.7 lineto
39472.8 44236.7 lineto
poly1
0 0 0 setrgbcolor
newpath
39472.8 44433.5 moveto
39472.8 44535.9 lineto
39799.6 44535.9 lineto
39799.6 44433.5 lineto
39472.8 44433.5 lineto
poly1
0 0 0 setrgbcolor
newpath
39472.8 44630.4 moveto
39472.8 44732.8 lineto
39799.6 44732.8 lineto
39799.6 44630.4 lineto
39472.8 44630.4 lineto
poly1
0 0 0 setrgbcolor
newpath
39472.8 44827.2 moveto
39472.8 44929.6 lineto
39799.6 44929.6 lineto
39799.6 44827.2 lineto
39472.8 44827.2 lineto
poly1
0 0 0 setrgbcolor
newpath
39472.8 45024.1 moveto
39472.8 45126.5 lineto
39799.6 45126.5 lineto
39799.6 45024.1 lineto
39472.8 45024.1 lineto
poly1
0 0 0 setrgbcolor
newpath
39472.8 45220.9 moveto
39472.8 45323.3 lineto
39799.6 45323.3 lineto
39799.6 45220.9 lineto
39472.8 45220.9 lineto
poly1
0 0 0 setrgbcolor
newpath
64832.7 41991 moveto
64870.3 41983.5 lineto
64902.3 41962.2 lineto
64923.6 41930.3 lineto
64931.1 41892.6 lineto
64931.1 41695.7 lineto
64923.6 41658.1 lineto
64902.3 41626.2 lineto
64870.3 41604.8 lineto
64832.7 41597.3 lineto
64458.7 41597.3 lineto
64421 41604.8 lineto
64389.1 41626.2 lineto
64367.7 41658.1 lineto
64360.2 41695.7 lineto
64360.2 41892.6 lineto
64367.7 41930.3 lineto
64389.1 41962.2 lineto
64421 41983.5 lineto
64458.7 41991 lineto
64832.7 41991 lineto
poly1
0 0 0 setrgbcolor
newpath
64832.7 41243 moveto
64870.3 41235.5 lineto
64902.3 41214.2 lineto
64923.6 41182.2 lineto
64931.1 41144.6 lineto
64931.1 40947.7 lineto
64923.6 40910.1 lineto
64902.3 40878.1 lineto
64870.3 40856.8 lineto
64832.7 40849.3 lineto
64458.7 40849.3 lineto
64421 40856.8 lineto
64389.1 40878.1 lineto
64367.7 40910.1 lineto
64360.2 40947.7 lineto
64360.2 41144.6 lineto
64367.7 41182.2 lineto
64389.1 41214.2 lineto
64421 41235.5 lineto
64458.7 41243 lineto
64832.7 41243 lineto
poly1
0 0 0 setrgbcolor
newpath
68011.8 56813.9 moveto
68681.1 56813.9 lineto
68681.1 56302 lineto
68011.8 56302 lineto
68011.8 56813.9 lineto
poly1
0 0 0 setrgbcolor
newpath
68011.8 55435.9 moveto
68681.1 55435.9 lineto
68681.1 54924.1 lineto
68011.8 54924.1 lineto
68011.8 55435.9 lineto
poly1
0 0 0 setrgbcolor
newpath
73161.3 28271.8 moveto
73174.5 28269.2 lineto
73185.7 28261.7 lineto
73193.1 28250.5 lineto
73195.7 28237.4 lineto
73195.7 28089.7 lineto
73193.1 28076.5 lineto
73185.7 28065.4 lineto
73174.5 28057.9 lineto
73161.3 28055.3 lineto
73092.4 28055.3 lineto
73079.2 28057.9 lineto
73068 28065.4 lineto
73060.6 28076.5 lineto
73058 28089.7 lineto
73058 28237.4 lineto
73060.6 28250.5 lineto
73068 28261.7 lineto
73079.2 28269.2 lineto
73092.4 28271.8 lineto
73161.3 28271.8 lineto
poly1
0 0 0 setrgbcolor
newpath
73092.4 27248.2 moveto
73079.2 27250.8 lineto
73068 27258.3 lineto
73060.6 27269.5 lineto
73058 27282.6 lineto
73058 27430.3 lineto
73060.6 27443.5 lineto
73068 27454.6 lineto
73079.2 27462.1 lineto
73092.4 27464.7 lineto
73161.3 27464.7 lineto
73174.5 27462.1 lineto
73185.7 27454.6 lineto
73193.1 27443.5 lineto
73195.7 27430.3 lineto
73195.7 27282.6 lineto
73193.1 27269.5 lineto
73185.7 27258.3 lineto
73174.5 27250.8 lineto
73161.3 27248.2 lineto
73092.4 27248.2 lineto
poly1
0 0 0 setrgbcolor
newpath
72767.6 28271.8 moveto
72780.8 28269.2 lineto
72792 28261.7 lineto
72799.4 28250.5 lineto
72802 28237.4 lineto
72802 28089.7 lineto
72799.4 28076.5 lineto
72792 28065.4 lineto
72780.8 28057.9 lineto
72767.6 28055.3 lineto
72698.7 28055.3 lineto
72685.5 28057.9 lineto
72674.3 28065.4 lineto
72666.9 28076.5 lineto
72664.3 28089.7 lineto
72664.3 28237.4 lineto
72666.9 28250.5 lineto
72674.3 28261.7 lineto
72685.5 28269.2 lineto
72698.7 28271.8 lineto
72767.6 28271.8 lineto
poly1
0 0 0 setrgbcolor
newpath
72698.7 27248.2 moveto
72685.5 27250.8 lineto
72674.3 27258.3 lineto
72666.9 27269.5 lineto
72664.3 27282.6 lineto
72664.3 27430.3 lineto
72666.9 27443.5 lineto
72674.3 27454.6 lineto
72685.5 27462.1 lineto
72698.7 27464.7 lineto
72767.6 27464.7 lineto
72780.8 27462.1 lineto
72792 27454.6 lineto
72799.4 27443.5 lineto
72802 27430.3 lineto
72802 27282.6 lineto
72799.4 27269.5 lineto
72792 27258.3 lineto
72780.8 27250.8 lineto
72767.6 27248.2 lineto
72698.7 27248.2 lineto
poly1
0 0 0 setrgbcolor
newpath
72703.6 27661.6 moveto
72684.8 27665.3 lineto
72668.8 27676 lineto
72658.2 27692 lineto
72654.4 27710.8 lineto
72654.4 27809.2 lineto
72658.2 27828 lineto
72668.8 27844 lineto
72684.8 27854.7 lineto
72703.6 27858.4 lineto
73156.4 27858.4 lineto
73175.2 27854.7 lineto
73191.2 27844 lineto
73201.8 27828 lineto
73205.6 27809.2 lineto
73205.6 27710.8 lineto
73201.8 27692 lineto
73191.2 27676 lineto
73175.2 27665.3 lineto
73156.4 27661.6 lineto
72703.6 27661.6 lineto
poly1
0 0 0 setrgbcolor
newpath
73853 28883.1 moveto
73815.3 28890.6 lineto
73783.4 28912 lineto
73762.1 28943.9 lineto
73754.6 28981.6 lineto
73754.6 29178.4 lineto
73762.1 29216.1 lineto
73783.4 29248 lineto
73815.3 29269.4 lineto
73853 29276.9 lineto
74227 29276.9 lineto
74264.7 29269.4 lineto
74296.6 29248 lineto
74317.9 29216.1 lineto
74325.4 29178.4 lineto
74325.4 28981.6 lineto
74317.9 28943.9 lineto
74296.6 28912 lineto
74264.7 28890.6 lineto
74227 28883.1 lineto
73853 28883.1 lineto
poly1
0 0 0 setrgbcolor
newpath
73853 29631.2 moveto
73815.3 29638.7 lineto
73783.4 29660 lineto
73762.1 29691.9 lineto
73754.6 29729.6 lineto
73754.6 29926.5 lineto
73762.1 29964.1 lineto
73783.4 29996.1 lineto
73815.3 30017.4 lineto
73853 30024.9 lineto
74227 30024.9 lineto
74264.7 30017.4 lineto
74296.6 29996.1 lineto
74317.9 29964.1 lineto
74325.4 29926.5 lineto
74325.4 29729.6 lineto
74317.9 29691.9 lineto
74296.6 29660 lineto
74264.7 29638.7 lineto
74227 29631.2 lineto
73853 29631.2 lineto
poly1
0 0 0 setrgbcolor
newpath
41020.9 42543 moveto
41013.4 42505.3 lineto
40992 42473.4 lineto
40960.1 42452.1 lineto
40922.4 42444.6 lineto
40725.6 42444.6 lineto
40687.9 42452.1 lineto
40656 42473.4 lineto
40634.7 42505.3 lineto
40627.2 42543 lineto
40627.2 42917 lineto
40634.7 42954.7 lineto
40656 42986.6 lineto
40687.9 43007.9 lineto
40725.6 43015.4 lineto
40922.4 43015.4 lineto
40960.1 43007.9 lineto
40992 42986.6 lineto
41013.4 42954.7 lineto
41020.9 42917 lineto
41020.9 42543 lineto
poly1
0 0 0 setrgbcolor
newpath
40272.8 42543 moveto
40265.3 42505.3 lineto
40244 42473.4 lineto
40212.1 42452.1 lineto
40174.4 42444.6 lineto
39977.6 42444.6 lineto
39939.9 42452.1 lineto
39908 42473.4 lineto
39886.6 42505.3 lineto
39879.1 42543 lineto
39879.1 42917 lineto
39886.6 42954.7 lineto
39908 42986.6 lineto
39939.9 43007.9 lineto
39977.6 43015.4 lineto
40174.4 43015.4 lineto
40212.1 43007.9 lineto
40244 42986.6 lineto
40265.3 42954.7 lineto
40272.8 42917 lineto
40272.8 42543 lineto
poly1
0 0 0 setrgbcolor
newpath
74002.8 27218.2 moveto
73965.2 27225.7 lineto
73933.2 27247.1 lineto
73911.9 27279 lineto
73904.4 27316.7 lineto
73904.4 27523.3 lineto
73911.9 27561 lineto
73933.2 27592.9 lineto
73965.2 27614.3 lineto
74002.8 27621.8 lineto
74357.2 27621.8 lineto
74394.8 27614.3 lineto
74426.8 27592.9 lineto
74448.1 27561 lineto
74455.6 27523.3 lineto
74455.6 27316.7 lineto
74448.1 27279 lineto
74426.8 27247.1 lineto
74394.8 27225.7 lineto
74357.2 27218.2 lineto
74002.8 27218.2 lineto
poly1
0 0 0 setrgbcolor
newpath
74002.8 27936.7 moveto
73965.2 27944.2 lineto
73933.2 27965.6 lineto
73911.9 27997.5 lineto
73904.4 28035.2 lineto
73904.4 28241.9 lineto
73911.9 28279.5 lineto
73933.2 28311.4 lineto
73965.2 28332.8 lineto
74002.8 28340.3 lineto
74357.2 28340.3 lineto
74394.8 28332.8 lineto
74426.8 28311.4 lineto
74448.1 28279.5 lineto
74455.6 28241.9 lineto
74455.6 28035.2 lineto
74448.1 27997.5 lineto
74426.8 27965.6 lineto
74394.8 27944.2 lineto
74357.2 27936.7 lineto
74002.8 27936.7 lineto
poly1
0 0 0 setrgbcolor
newpath
40170.9 36393 moveto
40163.4 36355.3 lineto
40142 36323.4 lineto
40110.1 36302.1 lineto
40072.4 36294.6 lineto
39875.6 36294.6 lineto
39837.9 36302.1 lineto
39806 36323.4 lineto
39784.7 36355.3 lineto
39777.2 36393 lineto
39777.2 36767 lineto
39784.7 36804.7 lineto
39806 36836.6 lineto
39837.9 36857.9 lineto
39875.6 36865.4 lineto
40072.4 36865.4 lineto
40110.1 36857.9 lineto
40142 36836.6 lineto
40163.4 36804.7 lineto
40170.9 36767 lineto
40170.9 36393 lineto
poly1
0 0 0 setrgbcolor
newpath
39422.8 36393 moveto
39415.3 36355.3 lineto
39394 36323.4 lineto
39362.1 36302.1 lineto
39324.4 36294.6 lineto
39127.6 36294.6 lineto
39089.9 36302.1 lineto
39058 36323.4 lineto
39036.6 36355.3 lineto
39029.1 36393 lineto
39029.1 36767 lineto
39036.6 36804.7 lineto
39058 36836.6 lineto
39089.9 36857.9 lineto
39127.6 36865.4 lineto
39324.4 36865.4 lineto
39362.1 36857.9 lineto
39394 36836.6 lineto
39415.3 36804.7 lineto
39422.8 36767 lineto
39422.8 36393 lineto
poly1
0 0 0 setrgbcolor
newpath
53312.9 53959.6 moveto
53290.3 53964.1 lineto
53271.2 53976.9 lineto
53258.4 53996.1 lineto
53253.9 54018.7 lineto
53253.9 54481.3 lineto
53258.4 54503.9 lineto
53271.2 54523.1 lineto
53290.3 54535.9 lineto
53312.9 54540.4 lineto
53431 54540.4 lineto
53453.6 54535.9 lineto
53472.8 54523.1 lineto
53485.6 54503.9 lineto
53490.1 54481.3 lineto
53490.1 54018.7 lineto
53485.6 53996.1 lineto
53472.8 53976.9 lineto
53453.6 53964.1 lineto
53431 53959.6 lineto
53312.9 53959.6 lineto
poly1
0 0 0 setrgbcolor
newpath
54060.9 53959.6 moveto
54038.3 53964.1 lineto
54019.2 53976.9 lineto
54006.4 53996.1 lineto
54001.9 54018.7 lineto
54001.9 54481.3 lineto
54006.4 54503.9 lineto
54019.2 54523.1 lineto
54038.3 54535.9 lineto
54060.9 54540.4 lineto
54179.1 54540.4 lineto
54201.7 54535.9 lineto
54220.8 54523.1 lineto
54233.6 54503.9 lineto
54238.1 54481.3 lineto
54238.1 54018.7 lineto
54233.6 53996.1 lineto
54220.8 53976.9 lineto
54201.7 53964.1 lineto
54179.1 53959.6 lineto
54060.9 53959.6 lineto
poly1
0 0 0 setrgbcolor
newpath
53686.9 54697.8 moveto
53664.3 54702.3 lineto
53645.2 54715.1 lineto
53632.4 54734.3 lineto
53627.9 54756.9 lineto
53627.9 55219.5 lineto
53632.4 55242.1 lineto
53645.2 55261.2 lineto
53664.3 55274 lineto
53686.9 55278.5 lineto
53805 55278.5 lineto
53827.6 55274 lineto
53846.8 55261.2 lineto
53859.6 55242.1 lineto
53864.1 55219.5 lineto
53864.1 54756.9 lineto
53859.6 54734.3 lineto
53846.8 54715.1 lineto
53827.6 54702.3 lineto
53805 54697.8 lineto
53686.9 54697.8 lineto
poly1
0 0 0 setrgbcolor
newpath
73085.6 52788.3 moveto
73093.1 52825.9 lineto
73114.5 52857.9 lineto
73146.4 52879.2 lineto
73184.1 52886.7 lineto
73380.9 52886.7 lineto
73418.6 52879.2 lineto
73450.5 52857.9 lineto
73471.8 52825.9 lineto
73479.3 52788.3 lineto
73479.3 52414.3 lineto
73471.8 52376.6 lineto
73450.5 52344.7 lineto
73418.6 52323.3 lineto
73380.9 52315.8 lineto
73184.1 52315.8 lineto
73146.4 52323.3 lineto
73114.5 52344.7 lineto
73093.1 52376.6 lineto
73085.6 52414.3 lineto
73085.6 52788.3 lineto
poly1
0 0 0 setrgbcolor
newpath
73833.7 52788.3 moveto
73841.2 52825.9 lineto
73862.5 52857.9 lineto
73894.4 52879.2 lineto
73932.1 52886.7 lineto
74128.9 52886.7 lineto
74166.6 52879.2 lineto
74198.5 52857.9 lineto
74219.9 52825.9 lineto
74227.4 52788.3 lineto
74227.4 52414.3 lineto
74219.9 52376.6 lineto
74198.5 52344.7 lineto
74166.6 52323.3 lineto
74128.9 52315.8 lineto
73932.1 52315.8 lineto
73894.4 52323.3 lineto
73862.5 52344.7 lineto
73841.2 52376.6 lineto
73833.7 52414.3 lineto
73833.7 52788.3 lineto
poly1
showpage
grestore
%%EOF
