%!PS-Adobe-3.0
%%Creator: PCBNEW
%%CreationDate: Fri Apr  8 23:10:55 2022
%%Title: ()
%%Pages: 1
%%PageOrder: Ascend
%%BoundingBox: 0 0 596 842
%%DocumentMedia: A4 595 842 0 () ()
%%Orientation: Landscape
%%EndComments
%%BeginProlog
/line { newpath moveto lineto stroke } bind def
/cir0 { newpath 0 360 arc stroke } bind def
/cir1 { newpath 0 360 arc gsave fill grestore stroke } bind def
/cir2 { newpath 0 360 arc gsave fill grestore stroke } bind def
/arc0 { newpath arc stroke } bind def
/arc1 { newpath 4 index 4 index moveto arc closepath gsave fill
    grestore stroke } bind def
/arc2 { newpath 4 index 4 index moveto arc closepath gsave fill
    grestore stroke } bind def
/poly0 { stroke } bind def
/poly1 { closepath gsave fill grestore stroke } bind def
/poly2 { closepath gsave fill grestore stroke } bind def
/rect0 { rectstroke } bind def
/rect1 { rectfill } bind def
/rect2 { rectfill } bind def
/linemode0 { 0 setlinecap 0 setlinejoin 0 setlinewidth } bind def
/linemode1 { 1 setlinecap 1 setlinejoin } bind def
/dashedline { [200] 100 setdash } bind def
/solidline { [] 0 setdash } bind def
/phantomshow { moveto
    /KicadFont findfont 0.000001 scalefont setfont
    show } bind def
/textshow { gsave
    findfont exch scalefont setfont concat 1 scale 0 0 moveto show
    } bind def
/reencodefont {
  findfont dup length dict begin
  { 1 index /FID ne
    { def }
    { pop pop } ifelse
  } forall
  /Encoding ISOLatin1Encoding def
  currentdict
  end } bind def
/KicadFont /Helvetica reencodefont definefont pop
/KicadFont-Bold /Helvetica-Bold reencodefont definefont pop
/KicadFont-Oblique /Helvetica-Oblique reencodefont definefont pop
/KicadFont-BoldOblique /Helvetica-BoldOblique reencodefont definefont pop
%%EndProlog
%%Page: 1 1
%%BeginPageSetup
gsave
0.0072 0.0072 scale
linemode1
82680 0 translate 90 rotate
8.34646 setlinewidth
%%EndPageSetup
0 0 0 setrgbcolor
0 0 0 setrgbcolor
19.685 setlinewidth
newpath
42318.5 35577.2 moveto
45192.5 35577.2 lineto
stroke
0 0 0 setrgbcolor
newpath
42318.5 42254.3 moveto
42318.5 35577.2 lineto
stroke
0 0 0 setrgbcolor
newpath
45192.5 35577.2 moveto
45192.5 42254.3 lineto
stroke
0 0 0 setrgbcolor
newpath
45192.5 42254.3 moveto
42318.5 42254.3 lineto
stroke
0 0 0 setrgbcolor
newpath
72344.5 31782.1 moveto
72344.5 30797.9 lineto
stroke
0 0 0 setrgbcolor
newpath
73643.7 30797.9 moveto
72344.5 30797.9 lineto
stroke
0 0 0 setrgbcolor
newpath
72344.5 31782.1 moveto
73643.7 31782.1 lineto
stroke
0 0 0 setrgbcolor
newpath
73643.7 30797.9 moveto
73643.7 31782.1 lineto
stroke
0 0 0 setrgbcolor
newpath
60196.9 40918.2 moveto
60196.9 43339.4 lineto
stroke
0 0 0 setrgbcolor
newpath
60196.9 43339.4 moveto
58779.5 43339.4 lineto
stroke
0 0 0 setrgbcolor
newpath
58779.5 40918.2 moveto
60196.9 40918.2 lineto
stroke
0 0 0 setrgbcolor
newpath
58779.5 43339.4 moveto
58779.5 40918.2 lineto
stroke
0 0 0 setrgbcolor
61770 53308.3 1673.23 cir0
0 0 0 setrgbcolor
newpath
68245.1 45258.7 moveto
68245.1 43920.2 lineto
stroke
0 0 0 setrgbcolor
newpath
69756.9 43920.2 moveto
69756.9 45258.7 lineto
stroke
0 0 0 setrgbcolor
newpath
69756.9 45258.7 moveto
68245.1 45258.7 lineto
stroke
0 0 0 setrgbcolor
newpath
68245.1 43920.2 moveto
69756.9 43920.2 lineto
stroke
0 0 0 setrgbcolor
newpath
68314 35950.7 moveto
68314 34627.8 lineto
stroke
0 0 0 setrgbcolor
newpath
67566 35950.7 moveto
68314 35950.7 lineto
stroke
0 0 0 setrgbcolor
newpath
67566 34627.8 moveto
67566 35950.7 lineto
stroke
0 0 0 setrgbcolor
newpath
68314 34627.8 moveto
67566 34627.8 lineto
stroke
0 0 0 setrgbcolor
newpath
68464.6 58183.9 moveto
68464.6 59695.7 lineto
stroke
0 0 0 setrgbcolor
newpath
68464.6 59695.7 moveto
67126 59695.7 lineto
stroke
0 0 0 setrgbcolor
newpath
67126 59695.7 moveto
67126 58183.9 lineto
stroke
0 0 0 setrgbcolor
newpath
67126 58183.9 moveto
68464.6 58183.9 lineto
stroke
0 0 0 setrgbcolor
newpath
67684.3 31955.6 moveto
67684.3 34376.9 lineto
stroke
0 0 0 setrgbcolor
newpath
66266.9 31955.6 moveto
67684.3 31955.6 lineto
stroke
0 0 0 setrgbcolor
newpath
67684.3 34376.9 moveto
66266.9 34376.9 lineto
stroke
0 0 0 setrgbcolor
newpath
66266.9 34376.9 moveto
66266.9 31955.6 lineto
stroke
0 0 0 setrgbcolor
newpath
67696.9 58070.7 moveto
67696.9 56747.9 lineto
stroke
0 0 0 setrgbcolor
newpath
67696.9 56747.9 moveto
66948.8 56747.9 lineto
stroke
0 0 0 setrgbcolor
newpath
66948.8 56747.9 moveto
66948.8 58070.7 lineto
stroke
0 0 0 setrgbcolor
newpath
66948.8 58070.7 moveto
67696.9 58070.7 lineto
stroke
0 0 0 setrgbcolor
newpath
59608.7 53988.7 moveto
58191.3 53988.7 lineto
stroke
0 0 0 setrgbcolor
newpath
58191.3 51567.4 moveto
59608.7 51567.4 lineto
stroke
0 0 0 setrgbcolor
newpath
59608.7 51567.4 moveto
59608.7 53988.7 lineto
stroke
0 0 0 setrgbcolor
newpath
58191.3 53988.7 moveto
58191.3 51567.4 lineto
stroke
0 0 0 setrgbcolor
newpath
74936 36983.8 moveto
72593.5 36983.8 lineto
stroke
0 0 0 setrgbcolor
newpath
72593.5 36983.8 moveto
72593.5 40436.6 lineto
stroke
0 0 0 setrgbcolor
newpath
74936 40436.6 moveto
74936 36983.8 lineto
stroke
0 0 0 setrgbcolor
newpath
72593.5 40436.6 moveto
74936 40436.6 lineto
stroke
0 0 0 setrgbcolor
newpath
57126 55332.2 moveto
57874 55332.2 lineto
stroke
0 0 0 setrgbcolor
newpath
57126 54009.3 moveto
57126 55332.2 lineto
stroke
0 0 0 setrgbcolor
newpath
57874 54009.3 moveto
57126 54009.3 lineto
stroke
0 0 0 setrgbcolor
newpath
57874 55332.2 moveto
57874 54009.3 lineto
stroke
0 0 0 setrgbcolor
newpath
62209.6 44443.8 moveto
62209.6 43672.1 lineto
stroke
0 0 0 setrgbcolor
newpath
60871.1 44443.8 moveto
62209.6 44443.8 lineto
stroke
0 0 0 setrgbcolor
newpath
60871.1 43672.1 moveto
60871.1 44443.8 lineto
stroke
0 0 0 setrgbcolor
newpath
62209.6 43672.1 moveto
60871.1 43672.1 lineto
stroke
0 0 0 setrgbcolor
newpath
40255.9 37687.9 moveto
38917.3 37687.9 lineto
stroke
0 0 0 setrgbcolor
newpath
38917.3 38459.5 moveto
40255.9 38459.5 lineto
stroke
0 0 0 setrgbcolor
newpath
38917.3 37687.9 moveto
38917.3 38459.5 lineto
stroke
0 0 0 setrgbcolor
newpath
40255.9 38459.5 moveto
40255.9 37687.9 lineto
stroke
0 0 0 setrgbcolor
newpath
62204.7 44617 moveto
60866.1 44617 lineto
stroke
0 0 0 setrgbcolor
newpath
60866.1 45388.7 moveto
62204.7 45388.7 lineto
stroke
0 0 0 setrgbcolor
newpath
62204.7 45388.7 moveto
62204.7 44617 lineto
stroke
0 0 0 setrgbcolor
newpath
60866.1 44617 moveto
60866.1 45388.7 lineto
stroke
0 0 0 setrgbcolor
newpath
52996 53142.2 moveto
53744 53142.2 lineto
stroke
0 0 0 setrgbcolor
newpath
53744 53142.2 moveto
53744 51819.3 lineto
stroke
0 0 0 setrgbcolor
newpath
52996 51819.3 moveto
52996 53142.2 lineto
stroke
0 0 0 setrgbcolor
newpath
53744 51819.3 moveto
52996 51819.3 lineto
stroke
0 0 0 setrgbcolor
newpath
47576.4 32297.3 moveto
44623.6 32297.3 lineto
stroke
0 0 0 setrgbcolor
newpath
47576.4 34462.7 moveto
47576.4 32297.3 lineto
stroke
0 0 0 setrgbcolor
newpath
44623.6 34462.7 moveto
47576.4 34462.7 lineto
stroke
0 0 0 setrgbcolor
newpath
44623.6 32297.3 moveto
44623.6 34462.7 lineto
stroke
0 0 0 setrgbcolor
newpath
70059.1 60306 moveto
70059.1 52849.3 lineto
stroke
0 0 0 setrgbcolor
newpath
72303.1 60306 moveto
70059.1 60306 lineto
stroke
0 0 0 setrgbcolor
newpath
70059.1 52849.3 moveto
72303.1 52849.3 lineto
stroke
0 0 0 setrgbcolor
newpath
72303.1 52849.3 moveto
72303.1 60306 lineto
stroke
0 0 0 setrgbcolor
newpath
73718.7 32329.4 moveto
73718.7 34750.6 lineto
stroke
0 0 0 setrgbcolor
newpath
73718.7 34750.6 moveto
72301.3 34750.6 lineto
stroke
0 0 0 setrgbcolor
newpath
72301.3 34750.6 moveto
72301.3 32329.4 lineto
stroke
0 0 0 setrgbcolor
newpath
72301.3 32329.4 moveto
73718.7 32329.4 lineto
stroke
0 0 0 setrgbcolor
newpath
55564 55282.2 moveto
55564 53959.3 lineto
stroke
0 0 0 setrgbcolor
newpath
54816 53959.3 moveto
54816 55282.2 lineto
stroke
0 0 0 setrgbcolor
newpath
54816 55282.2 moveto
55564 55282.2 lineto
stroke
0 0 0 setrgbcolor
newpath
55564 53959.3 moveto
54816 53959.3 lineto
stroke
0 0 0 setrgbcolor
newpath
47008.7 38388.7 moveto
45591.3 38388.7 lineto
stroke
0 0 0 setrgbcolor
newpath
45591.3 38388.7 moveto
45591.3 35967.4 lineto
stroke
0 0 0 setrgbcolor
newpath
45591.3 35967.4 moveto
47008.7 35967.4 lineto
stroke
0 0 0 setrgbcolor
newpath
47008.7 35967.4 moveto
47008.7 38388.7 lineto
stroke
0 0 0 setrgbcolor
newpath
68378.9 42975.3 moveto
68378.9 43723.3 lineto
stroke
0 0 0 setrgbcolor
newpath
68378.9 43723.3 moveto
69701.8 43723.3 lineto
stroke
0 0 0 setrgbcolor
newpath
69701.8 42975.3 moveto
68378.9 42975.3 lineto
stroke
0 0 0 setrgbcolor
newpath
69701.8 43723.3 moveto
69701.8 42975.3 lineto
stroke
0 0 0 setrgbcolor
newpath
49082.7 42556.4 moveto
49082.7 39603.6 lineto
stroke
0 0 0 setrgbcolor
newpath
46917.3 39603.6 moveto
46917.3 42556.4 lineto
stroke
0 0 0 setrgbcolor
newpath
46917.3 42556.4 moveto
49082.7 42556.4 lineto
stroke
0 0 0 setrgbcolor
newpath
49082.7 39603.6 moveto
46917.3 39603.6 lineto
stroke
0 0 0 setrgbcolor
newpath
70419.3 34996 moveto
70419.3 35744 lineto
stroke
0 0 0 setrgbcolor
newpath
70419.3 35744 moveto
71742.2 35744 lineto
stroke
0 0 0 setrgbcolor
newpath
71742.2 34996 moveto
70419.3 34996 lineto
stroke
0 0 0 setrgbcolor
newpath
71742.2 35744 moveto
71742.2 34996 lineto
stroke
0 0 0 setrgbcolor
newpath
70708.7 47388.7 moveto
70708.7 45991 lineto
stroke
0 0 0 setrgbcolor
newpath
37303.1 45991 moveto
37303.1 47388.7 lineto
stroke
0 0 0 setrgbcolor
newpath
70708.7 45991 moveto
37303.1 45991 lineto
stroke
0 0 0 setrgbcolor
newpath
37303.1 47388.7 moveto
70708.7 47388.7 lineto
stroke
0 0 0 setrgbcolor
newpath
40261.4 39306 moveto
38938.6 39306 lineto
stroke
0 0 0 setrgbcolor
newpath
38938.6 40054 moveto
40261.4 40054 lineto
stroke
0 0 0 setrgbcolor
newpath
40261.4 40054 moveto
40261.4 39306 lineto
stroke
0 0 0 setrgbcolor
newpath
38938.6 39306 moveto
38938.6 40054 lineto
stroke
0 0 0 setrgbcolor
newpath
38938.6 40706 moveto
38938.6 41454 lineto
stroke
0 0 0 setrgbcolor
newpath
40261.4 41454 moveto
40261.4 40706 lineto
stroke
0 0 0 setrgbcolor
newpath
40261.4 40706 moveto
38938.6 40706 lineto
stroke
0 0 0 setrgbcolor
newpath
38938.6 41454 moveto
40261.4 41454 lineto
stroke
0 0 0 setrgbcolor
newpath
69906.5 45258.7 moveto
70772.6 45258.7 lineto
stroke
0 0 0 setrgbcolor
newpath
69906.5 43172.1 moveto
69906.5 45258.7 lineto
stroke
0 0 0 setrgbcolor
newpath
70772.6 45258.7 moveto
70772.6 43172.1 lineto
stroke
0 0 0 setrgbcolor
newpath
70772.6 43172.1 moveto
69906.5 43172.1 lineto
stroke
0 0 0 setrgbcolor
newpath
56164.2 53936.7 moveto
56164.2 55275.3 lineto
stroke
0 0 0 setrgbcolor
newpath
56935.8 55275.3 moveto
56935.8 53936.7 lineto
stroke
0 0 0 setrgbcolor
newpath
56164.2 55275.3 moveto
56935.8 55275.3 lineto
stroke
0 0 0 setrgbcolor
newpath
56935.8 53936.7 moveto
56164.2 53936.7 lineto
stroke
0 0 0 setrgbcolor
newpath
60629.9 40317.8 moveto
64094.5 40317.8 lineto
stroke
0 0 0 setrgbcolor
newpath
64094.5 43152.4 moveto
60629.9 43152.4 lineto
stroke
0 0 0 setrgbcolor
newpath
60629.9 43152.4 moveto
60629.9 40317.8 lineto
stroke
0 0 0 setrgbcolor
newpath
64094.5 40317.8 moveto
64094.5 43152.4 lineto
stroke
0 0 0 setrgbcolor
newpath
74274.6 53349.3 moveto
74274.6 54687.9 lineto
stroke
0 0 0 setrgbcolor
newpath
72762.8 53349.3 moveto
74274.6 53349.3 lineto
stroke
0 0 0 setrgbcolor
newpath
74274.6 54687.9 moveto
72762.8 54687.9 lineto
stroke
0 0 0 setrgbcolor
newpath
72762.8 54687.9 moveto
72762.8 53349.3 lineto
stroke
0 0 0 setrgbcolor
newpath
68765 34620.7 moveto
70276.8 34620.7 lineto
stroke
0 0 0 setrgbcolor
newpath
70276.8 34620.7 moveto
70276.8 35959.3 lineto
stroke
0 0 0 setrgbcolor
newpath
68765 35959.3 moveto
68765 34620.7 lineto
stroke
0 0 0 setrgbcolor
newpath
70276.8 35959.3 moveto
68765 35959.3 lineto
stroke
0 0 0 setrgbcolor
newpath
70811.3 29552.6 moveto
70811.3 27131.3 lineto
stroke
0 0 0 setrgbcolor
newpath
72228.7 29552.6 moveto
70811.3 29552.6 lineto
stroke
0 0 0 setrgbcolor
newpath
72228.7 27131.3 moveto
72228.7 29552.6 lineto
stroke
0 0 0 setrgbcolor
newpath
70811.3 27131.3 moveto
72228.7 27131.3 lineto
stroke
0 0 0 setrgbcolor
newpath
72185 43243 moveto
74429.1 43243 lineto
stroke
0 0 0 setrgbcolor
newpath
74429.1 43243 moveto
74429.1 50699.7 lineto
stroke
0 0 0 setrgbcolor
newpath
72185 50699.7 moveto
72185 43243 lineto
stroke
0 0 0 setrgbcolor
newpath
74429.1 50699.7 moveto
72185 50699.7 lineto
stroke
0 0 0 setrgbcolor
newpath
58478.7 42827.4 moveto
58478.7 45248.7 lineto
stroke
0 0 0 setrgbcolor
newpath
58478.7 45248.7 moveto
57061.3 45248.7 lineto
stroke
0 0 0 setrgbcolor
newpath
57061.3 42827.4 moveto
58478.7 42827.4 lineto
stroke
0 0 0 setrgbcolor
newpath
57061.3 45248.7 moveto
57061.3 42827.4 lineto
stroke
0 0 0 setrgbcolor
newpath
67913.4 52256.8 moveto
69330.7 52256.8 lineto
stroke
0 0 0 setrgbcolor
newpath
69330.7 54678 moveto
67913.4 54678 lineto
stroke
0 0 0 setrgbcolor
newpath
67913.4 54678 moveto
67913.4 52256.8 lineto
stroke
0 0 0 setrgbcolor
newpath
69330.7 52256.8 moveto
69330.7 54678 lineto
stroke
0 0 0 setrgbcolor
newpath
65246.1 43624.9 moveto
65246.1 42207.6 lineto
stroke
0 0 0 setrgbcolor
newpath
67667.3 43624.9 moveto
65246.1 43624.9 lineto
stroke
0 0 0 setrgbcolor
newpath
67667.3 42207.6 moveto
67667.3 43624.9 lineto
stroke
0 0 0 setrgbcolor
newpath
65246.1 42207.6 moveto
67667.3 42207.6 lineto
stroke
0 0 0 setrgbcolor
newpath
37303.1 49971.3 moveto
70708.7 49971.3 lineto
stroke
0 0 0 setrgbcolor
newpath
70708.7 49971.3 moveto
70708.7 51388.7 lineto
stroke
0 0 0 setrgbcolor
newpath
70708.7 51388.7 moveto
37303.1 51388.7 lineto
stroke
0 0 0 setrgbcolor
newpath
37303.1 51388.7 moveto
37303.1 49971.3 lineto
stroke
0 0 0 setrgbcolor
newpath
74165.4 60022.5 moveto
74165.4 59274.5 lineto
stroke
0 0 0 setrgbcolor
newpath
72842.5 59274.5 moveto
72842.5 60022.5 lineto
stroke
0 0 0 setrgbcolor
newpath
72842.5 60022.5 moveto
74165.4 60022.5 lineto
stroke
0 0 0 setrgbcolor
newpath
74165.4 59274.5 moveto
72842.5 59274.5 lineto
stroke
0 0 0 setrgbcolor
newpath
65271.7 45239.1 moveto
65271.7 43821.7 lineto
stroke
0 0 0 setrgbcolor
newpath
67692.9 43821.7 moveto
67692.9 45239.1 lineto
stroke
0 0 0 setrgbcolor
newpath
65271.7 43821.7 moveto
67692.9 43821.7 lineto
stroke
0 0 0 setrgbcolor
newpath
67692.9 45239.1 moveto
65271.7 45239.1 lineto
stroke
0 0 0 setrgbcolor
newpath
74086.6 57896.5 moveto
72763.8 57896.5 lineto
stroke
0 0 0 setrgbcolor
newpath
72763.8 57896.5 moveto
72763.8 58644.6 lineto
stroke
0 0 0 setrgbcolor
newpath
72763.8 58644.6 moveto
74086.6 58644.6 lineto
stroke
0 0 0 setrgbcolor
newpath
74086.6 58644.6 moveto
74086.6 57896.5 lineto
stroke
0 0 0 setrgbcolor
newpath
70379.3 31986 moveto
70379.3 32734 lineto
stroke
0 0 0 setrgbcolor
newpath
70379.3 32734 moveto
71702.2 32734 lineto
stroke
0 0 0 setrgbcolor
newpath
71702.2 31986 moveto
70379.3 31986 lineto
stroke
0 0 0 setrgbcolor
newpath
71702.2 32734 moveto
71702.2 31986 lineto
stroke
0 0 0 setrgbcolor
newpath
72586 28497.8 moveto
72586 29820.7 lineto
stroke
0 0 0 setrgbcolor
newpath
73334 28497.8 moveto
72586 28497.8 lineto
stroke
0 0 0 setrgbcolor
newpath
72586 29820.7 moveto
73334 29820.7 lineto
stroke
0 0 0 setrgbcolor
newpath
73334 29820.7 moveto
73334 28497.8 lineto
stroke
0 0 0 setrgbcolor
newpath
37303.1 27388.7 moveto
37303.1 25971.3 lineto
stroke
0 0 0 setrgbcolor
newpath
37303.1 25971.3 moveto
70708.7 25971.3 lineto
stroke
0 0 0 setrgbcolor
newpath
70708.7 27388.7 moveto
37303.1 27388.7 lineto
stroke
0 0 0 setrgbcolor
newpath
70708.7 25971.3 moveto
70708.7 27388.7 lineto
stroke
0 0 0 setrgbcolor
newpath
62445.9 43664.3 moveto
64453.7 43664.3 lineto
stroke
0 0 0 setrgbcolor
newpath
64453.7 45632.8 moveto
64453.7 43664.3 lineto
stroke
0 0 0 setrgbcolor
newpath
64453.7 45632.8 moveto
62445.9 45632.8 lineto
stroke
0 0 0 setrgbcolor
newpath
62445.9 43664.3 moveto
62445.9 45632.8 lineto
stroke
0 0 0 setrgbcolor
newpath
69921.3 58144.6 moveto
69921.3 59656.4 lineto
stroke
0 0 0 setrgbcolor
newpath
68582.7 58144.6 moveto
69921.3 58144.6 lineto
stroke
0 0 0 setrgbcolor
newpath
69921.3 59656.4 moveto
68582.7 59656.4 lineto
stroke
0 0 0 setrgbcolor
newpath
68582.7 59656.4 moveto
68582.7 58144.6 lineto
stroke
0 0 0 setrgbcolor
newpath
68767.7 62995 moveto
67350.4 62995 lineto
stroke
0 0 0 setrgbcolor
newpath
67350.4 62995 moveto
67350.4 60573.7 lineto
stroke
0 0 0 setrgbcolor
newpath
68767.7 60573.7 moveto
68767.7 62995 lineto
stroke
0 0 0 setrgbcolor
newpath
67350.4 60573.7 moveto
68767.7 60573.7 lineto
stroke
0 0 0 setrgbcolor
newpath
66870.1 56646.5 moveto
67775.6 56646.5 lineto
stroke
0 0 0 setrgbcolor
newpath
67775.6 56646.5 moveto
67775.6 54835.5 lineto
stroke
0 0 0 setrgbcolor
newpath
67775.6 54835.5 moveto
66870.1 54835.5 lineto
stroke
0 0 0 setrgbcolor
newpath
66870.1 54835.5 moveto
66870.1 56646.5 lineto
stroke
0 0 0 setrgbcolor
newpath
50708.7 55662.3 moveto
50708.7 53241 lineto
stroke
0 0 0 setrgbcolor
newpath
52126 55662.3 moveto
50708.7 55662.3 lineto
stroke
0 0 0 setrgbcolor
newpath
50708.7 53241 moveto
52126 53241 lineto
stroke
0 0 0 setrgbcolor
newpath
52126 53241 moveto
52126 55662.3 lineto
stroke
0 0 0 setrgbcolor
newpath
72124.7 34974.2 moveto
72124.7 35745.8 lineto
stroke
0 0 0 setrgbcolor
newpath
72124.7 35745.8 moveto
73463.3 35745.8 lineto
stroke
0 0 0 setrgbcolor
newpath
73463.3 34974.2 moveto
72124.7 34974.2 lineto
stroke
0 0 0 setrgbcolor
newpath
73463.3 35745.8 moveto
73463.3 34974.2 lineto
stroke
0 0 0 setrgbcolor
newpath
74238.7 26888.7 moveto
71817.4 26888.7 lineto
stroke
0 0 0 setrgbcolor
newpath
71817.4 26888.7 moveto
71817.4 25471.3 lineto
stroke
0 0 0 setrgbcolor
newpath
71817.4 25471.3 moveto
74238.7 25471.3 lineto
stroke
0 0 0 setrgbcolor
newpath
74238.7 25471.3 moveto
74238.7 26888.7 lineto
stroke
0 0 0 setrgbcolor
newpath
66378 54678 moveto
66378 52256.8 lineto
stroke
0 0 0 setrgbcolor
newpath
66378 52256.8 moveto
67795.3 52256.8 lineto
stroke
0 0 0 setrgbcolor
newpath
67795.3 52256.8 moveto
67795.3 54678 lineto
stroke
0 0 0 setrgbcolor
newpath
67795.3 54678 moveto
66378 54678 lineto
stroke
0 0 0 setrgbcolor
newpath
56391.3 51507.4 moveto
57808.7 51507.4 lineto
stroke
0 0 0 setrgbcolor
newpath
56391.3 53928.7 moveto
56391.3 51507.4 lineto
stroke
0 0 0 setrgbcolor
newpath
57808.7 53928.7 moveto
56391.3 53928.7 lineto
stroke
0 0 0 setrgbcolor
newpath
57808.7 51507.4 moveto
57808.7 53928.7 lineto
stroke
0 0 0 setrgbcolor
newpath
54638.7 43009.4 moveto
54638.7 45430.6 lineto
stroke
0 0 0 setrgbcolor
newpath
53221.3 45430.6 moveto
53221.3 43009.4 lineto
stroke
0 0 0 setrgbcolor
newpath
53221.3 43009.4 moveto
54638.7 43009.4 lineto
stroke
0 0 0 setrgbcolor
newpath
54638.7 45430.6 moveto
53221.3 45430.6 lineto
stroke
0 0 0 setrgbcolor
newpath
70708.7 29991 moveto
37303.1 29991 lineto
stroke
0 0 0 setrgbcolor
newpath
70708.7 31388.7 moveto
70708.7 29991 lineto
stroke
0 0 0 setrgbcolor
newpath
37303.1 29991 moveto
37303.1 31388.7 lineto
stroke
0 0 0 setrgbcolor
newpath
37303.1 31388.7 moveto
70708.7 31388.7 lineto
stroke
0 0 0 setrgbcolor
newpath
72632.9 55711.5 moveto
74247 55711.5 lineto
stroke
0 0 0 setrgbcolor
newpath
72632.9 57050.1 moveto
72632.9 55711.5 lineto
stroke
0 0 0 setrgbcolor
newpath
74247 57050.1 moveto
72632.9 57050.1 lineto
stroke
0 0 0 setrgbcolor
newpath
74247 55711.5 moveto
74247 57050.1 lineto
stroke
0 0 0 setrgbcolor
newpath
54159.3 52706 moveto
54159.3 53454 lineto
stroke
0 0 0 setrgbcolor
newpath
55482.2 53454 moveto
55482.2 52706 lineto
stroke
0 0 0 setrgbcolor
newpath
55482.2 52706 moveto
54159.3 52706 lineto
stroke
0 0 0 setrgbcolor
newpath
54159.3 53454 moveto
55482.2 53454 lineto
stroke
0 0 0 setrgbcolor
newpath
64113.5 52104.1 moveto
65215.9 52104.1 lineto
stroke
0 0 0 setrgbcolor
newpath
64113.5 52615.9 moveto
64113.5 52104.1 lineto
stroke
0 0 0 setrgbcolor
newpath
65215.9 52104.1 moveto
65215.9 52615.9 lineto
stroke
0 0 0 setrgbcolor
newpath
65215.9 52615.9 moveto
64113.5 52615.9 lineto
stroke
0 0 0 setrgbcolor
newpath
70334.6 63010.7 moveto
70334.6 60589.4 lineto
stroke
0 0 0 setrgbcolor
newpath
71752 63010.7 moveto
70334.6 63010.7 lineto
stroke
0 0 0 setrgbcolor
newpath
70334.6 60589.4 moveto
71752 60589.4 lineto
stroke
0 0 0 setrgbcolor
newpath
71752 60589.4 moveto
71752 63010.7 lineto
stroke
0 0 0 setrgbcolor
newpath
66716.5 55912.3 moveto
35850.4 55912.3 lineto
stroke
0 0 0 setrgbcolor
newpath
35850.4 63983.1 moveto
66716.5 63983.1 lineto
stroke
0 0 0 setrgbcolor
newpath
35850.4 55912.3 moveto
35850.4 63983.1 lineto
stroke
0 0 0 setrgbcolor
newpath
66716.5 63983.1 moveto
66716.5 55912.3 lineto
stroke
0 0 0 setrgbcolor
newpath
70361 34597.1 moveto
71739 34597.1 lineto
stroke
0 0 0 setrgbcolor
newpath
70361 32982.9 moveto
70361 34597.1 lineto
stroke
0 0 0 setrgbcolor
newpath
71739 34597.1 moveto
71739 32982.9 lineto
stroke
0 0 0 setrgbcolor
newpath
71739 32982.9 moveto
70361 32982.9 lineto
stroke
0 0 0 setrgbcolor
newpath
56588.7 43079.4 moveto
56588.7 45500.6 lineto
stroke
0 0 0 setrgbcolor
newpath
55171.3 43079.4 moveto
56588.7 43079.4 lineto
stroke
0 0 0 setrgbcolor
newpath
56588.7 45500.6 moveto
55171.3 45500.6 lineto
stroke
0 0 0 setrgbcolor
newpath
55171.3 45500.6 moveto
55171.3 43079.4 lineto
stroke
0 0 0 setrgbcolor
newpath
41285.8 45665.8 moveto
41285.8 45421.7 lineto
stroke
0 0 0 setrgbcolor
newpath
39514.2 45665.8 moveto
39758.3 45665.8 lineto
stroke
0 0 0 setrgbcolor
newpath
41285.8 43894.2 moveto
41041.7 43894.2 lineto
stroke
0 0 0 setrgbcolor
newpath
41285.8 44138.3 moveto
41285.8 43894.2 lineto
stroke
0 0 0 setrgbcolor
newpath
41041.7 45665.8 moveto
41285.8 45665.8 lineto
stroke
0 0 0 setrgbcolor
newpath
39514.2 43894.2 moveto
39514.2 44138.3 lineto
stroke
0 0 0 setrgbcolor
newpath
39758.3 43752.4 moveto
39758.3 43894.2 lineto
stroke
0 0 0 setrgbcolor
newpath
39514.2 45421.7 moveto
39514.2 45665.8 lineto
stroke
0 0 0 setrgbcolor
newpath
39372.4 45421.7 moveto
39514.2 45421.7 lineto
stroke
0 0 0 setrgbcolor
newpath
39514.2 44138.3 moveto
39372.4 44138.3 lineto
stroke
0 0 0 setrgbcolor
newpath
39758.3 45665.8 moveto
39758.3 45807.6 lineto
stroke
0 0 0 setrgbcolor
newpath
39758.3 43894.2 moveto
39514.2 43894.2 lineto
stroke
0 0 0 setrgbcolor
newpath
39372.4 44138.3 moveto
39372.4 45421.7 lineto
stroke
0 0 0 setrgbcolor
newpath
41285.8 45421.7 moveto
41427.6 45421.7 lineto
stroke
0 0 0 setrgbcolor
newpath
41041.7 43752.4 moveto
39758.3 43752.4 lineto
stroke
0 0 0 setrgbcolor
newpath
41427.6 44138.3 moveto
41285.8 44138.3 lineto
stroke
0 0 0 setrgbcolor
newpath
41041.7 43894.2 moveto
41041.7 43752.4 lineto
stroke
0 0 0 setrgbcolor
newpath
39758.3 45807.6 moveto
41041.7 45807.6 lineto
stroke
0 0 0 setrgbcolor
newpath
41427.6 45421.7 moveto
41427.6 44138.3 lineto
stroke
0 0 0 setrgbcolor
newpath
41041.7 45807.6 moveto
41041.7 45665.8 lineto
stroke
0 0 0 setrgbcolor
newpath
65031.5 42089.4 moveto
65031.5 40750.9 lineto
stroke
0 0 0 setrgbcolor
newpath
64259.8 40750.9 moveto
64259.8 42089.4 lineto
stroke
0 0 0 setrgbcolor
newpath
65031.5 40750.9 moveto
64259.8 40750.9 lineto
stroke
0 0 0 setrgbcolor
newpath
64259.8 42089.4 moveto
65031.5 42089.4 lineto
stroke
0 0 0 setrgbcolor
newpath
68521.3 32001.3 moveto
69938.7 32001.3 lineto
stroke
0 0 0 setrgbcolor
newpath
68521.3 34422.6 moveto
68521.3 32001.3 lineto
stroke
0 0 0 setrgbcolor
newpath
69938.7 32001.3 moveto
69938.7 34422.6 lineto
stroke
0 0 0 setrgbcolor
newpath
69938.7 34422.6 moveto
68521.3 34422.6 lineto
stroke
0 0 0 setrgbcolor
newpath
67913.4 54825.7 moveto
67913.4 56912.3 lineto
stroke
0 0 0 setrgbcolor
newpath
67913.4 56912.3 moveto
68779.5 56912.3 lineto
stroke
0 0 0 setrgbcolor
newpath
68779.5 54825.7 moveto
67913.4 54825.7 lineto
stroke
0 0 0 setrgbcolor
newpath
68779.5 56912.3 moveto
68779.5 54825.7 lineto
stroke
0 0 0 setrgbcolor
newpath
73422.1 28330.9 moveto
72437.9 28330.9 lineto
stroke
0 0 0 setrgbcolor
newpath
73422.1 27189.1 moveto
73422.1 28330.9 lineto
stroke
0 0 0 setrgbcolor
newpath
72437.9 28330.9 moveto
72437.9 27189.1 lineto
stroke
0 0 0 setrgbcolor
newpath
72437.9 27189.1 moveto
73422.1 27189.1 lineto
stroke
0 0 0 setrgbcolor
newpath
74425.8 28784.7 moveto
73654.2 28784.7 lineto
stroke
0 0 0 setrgbcolor
newpath
74425.8 30123.3 moveto
74425.8 28784.7 lineto
stroke
0 0 0 setrgbcolor
newpath
73654.2 28784.7 moveto
73654.2 30123.3 lineto
stroke
0 0 0 setrgbcolor
newpath
73654.2 30123.3 moveto
74425.8 30123.3 lineto
stroke
0 0 0 setrgbcolor
newpath
41119.3 42344.2 moveto
39780.7 42344.2 lineto
stroke
0 0 0 setrgbcolor
newpath
39780.7 43115.8 moveto
41119.3 43115.8 lineto
stroke
0 0 0 setrgbcolor
newpath
39780.7 42344.2 moveto
39780.7 43115.8 lineto
stroke
0 0 0 setrgbcolor
newpath
41119.3 43115.8 moveto
41119.3 42344.2 lineto
stroke
0 0 0 setrgbcolor
newpath
74554 27117.8 moveto
73806 27117.8 lineto
stroke
0 0 0 setrgbcolor
newpath
74554 28440.7 moveto
74554 27117.8 lineto
stroke
0 0 0 setrgbcolor
newpath
73806 27117.8 moveto
73806 28440.7 lineto
stroke
0 0 0 setrgbcolor
newpath
73806 28440.7 moveto
74554 28440.7 lineto
stroke
0 0 0 setrgbcolor
newpath
72204.7 60573.7 moveto
73622 60573.7 lineto
stroke
0 0 0 setrgbcolor
newpath
73622 62995 moveto
72204.7 62995 lineto
stroke
0 0 0 setrgbcolor
newpath
73622 60573.7 moveto
73622 62995 lineto
stroke
0 0 0 setrgbcolor
newpath
72204.7 62995 moveto
72204.7 60573.7 lineto
stroke
0 0 0 setrgbcolor
newpath
38930.7 36965.8 moveto
40269.3 36965.8 lineto
stroke
0 0 0 setrgbcolor
newpath
38930.7 36194.2 moveto
38930.7 36965.8 lineto
stroke
0 0 0 setrgbcolor
newpath
40269.3 36194.2 moveto
38930.7 36194.2 lineto
stroke
0 0 0 setrgbcolor
newpath
40269.3 36965.8 moveto
40269.3 36194.2 lineto
stroke
0 0 0 setrgbcolor
newpath
65984.3 31872.9 moveto
65984.3 34294.2 lineto
stroke
0 0 0 setrgbcolor
newpath
65984.3 34294.2 moveto
64566.9 34294.2 lineto
stroke
0 0 0 setrgbcolor
newpath
64566.9 31872.9 moveto
65984.3 31872.9 lineto
stroke
0 0 0 setrgbcolor
newpath
64566.9 34294.2 moveto
64566.9 31872.9 lineto
stroke
0 0 0 setrgbcolor
newpath
68858.3 62995 moveto
68858.3 60573.7 lineto
stroke
0 0 0 setrgbcolor
newpath
70275.6 60573.7 moveto
70275.6 62995 lineto
stroke
0 0 0 setrgbcolor
newpath
70275.6 62995 moveto
68858.3 62995 lineto
stroke
0 0 0 setrgbcolor
newpath
68858.3 60573.7 moveto
70275.6 60573.7 lineto
stroke
0 0 0 setrgbcolor
newpath
53076.7 55375 moveto
53076.7 53863.2 lineto
stroke
0 0 0 setrgbcolor
newpath
53076.7 53863.2 moveto
54415.3 53863.2 lineto
stroke
0 0 0 setrgbcolor
newpath
54415.3 55375 moveto
53076.7 55375 lineto
stroke
0 0 0 setrgbcolor
newpath
54415.3 53863.2 moveto
54415.3 55375 lineto
stroke
0 0 0 setrgbcolor
newpath
52760.6 33238.7 moveto
50339.4 33238.7 lineto
stroke
0 0 0 setrgbcolor
newpath
52760.6 31821.3 moveto
52760.6 33238.7 lineto
stroke
0 0 0 setrgbcolor
newpath
50339.4 31821.3 moveto
52760.6 31821.3 lineto
stroke
0 0 0 setrgbcolor
newpath
50339.4 33238.7 moveto
50339.4 31821.3 lineto
stroke
0 0 0 setrgbcolor
newpath
74325.8 52215.4 moveto
72987.2 52215.4 lineto
stroke
0 0 0 setrgbcolor
newpath
74325.8 52987.1 moveto
74325.8 52215.4 lineto
stroke
0 0 0 setrgbcolor
newpath
72987.2 52215.4 moveto
72987.2 52987.1 lineto
stroke
0 0 0 setrgbcolor
newpath
72987.2 52987.1 moveto
74325.8 52987.1 lineto
stroke
0 0 0 setrgbcolor
newpath
52398.7 45468.7 moveto
50981.3 45468.7 lineto
stroke
0 0 0 setrgbcolor
newpath
52398.7 43047.4 moveto
52398.7 45468.7 lineto
stroke
0 0 0 setrgbcolor
newpath
50981.3 45468.7 moveto
50981.3 43047.4 lineto
stroke
0 0 0 setrgbcolor
newpath
50981.3 43047.4 moveto
52398.7 43047.4 lineto
stroke
showpage
grestore
%%EOF
