Source:,C:\Users\razpar\Documents\Razeen\UCT\EEE3088F - Design\PCB Backup 3-7-22 - Copy\microcontroller_interfacing.kicad_sch,,,,,,,,
Date:,3/13/2022 13:10,,,,,,,,
Tool:,Eeschema (6.0.2),,,,,,,,
Generator:,C:\Program Files\KiCad\6.0\bin\scripting\plugins/bom_csv_grouped_by_value.py,,,,,,,,
Component Count:,17,,,,,,,,
,,,,,,,,,
Individual Components:,,,,,,,,,
,,,,,,,,,
Item,Qty,Reference(s),Value,LibPart,Footprint,Datasheet,LCSC,Price,
,,J1,AFC10-S10PCC-00(Debug_connector),HAT_Team31:Debug_connector,,https://datasheet.lcsc.com/lcsc/1912111437_JUSHUO-AFC10-S10PCC-00_C395323.pdf,C395323,$0.12 ,
,,J2,AFC10-S10QCC-00(back-up Debug_connector),HAT_Team31:Debug_connector,,https://datasheet.lcsc.com/lcsc/1912111437_JUSHUO-AFC10-S10QCC-00_C395307.pdf,C395307,$0.12 ,
,,J3,C404969(USB_B_Micro),Connector:USB_B_Micro,,https://datasheet.lcsc.com/lcsc/1912111437_SHOU-HAN-MicroXNJ_C404969.pdf,C404969,$0.05 ,
,,JP1,Jumper,Jumper:Jumper_2_Bridged,,https://datasheet.lcsc.com/lcsc/2003141409_XFCN-PZ254V-11-02P_C492401.pdf,C492401,$0.01 ,
,,JP2,Jumper,Jumper:Jumper_2_Bridged,,https://datasheet.lcsc.com/lcsc/2003141409_XFCN-PZ254V-11-02P_C492401.pdf,C492401,$0.01 ,
,,JP3,Jumper,Jumper:Jumper_2_Bridged,,https://datasheet.lcsc.com/lcsc/2003141409_XFCN-PZ254V-11-02P_C492401.pdf,C492401,$0.01 ,
,,JP4,Jumper,Jumper:Jumper_2_Bridged,,https://datasheet.lcsc.com/lcsc/2003141409_XFCN-PZ254V-11-02P_C492401.pdf,C492401,$0.01 ,
,,JP5,Jumper,Jumper:Jumper_2_Bridged,,https://datasheet.lcsc.com/lcsc/2003141409_XFCN-PZ254V-11-02P_C492401.pdf,C492401,$0.01 ,
,,JP6,Jumper,Jumper:Jumper_2_Bridged,,https://datasheet.lcsc.com/lcsc/2003141409_XFCN-PZ254V-11-02P_C492401.pdf,C492401,$0.01 ,
,,JP7,Jumper,Jumper:Jumper_2_Bridged,,https://datasheet.lcsc.com/lcsc/2003141409_XFCN-PZ254V-11-02P_C492401.pdf,C492401,$0.01 ,
,,JP8,Jumper,Jumper:Jumper_2_Bridged,,https://datasheet.lcsc.com/lcsc/2003141409_XFCN-PZ254V-11-02P_C492401.pdf,C492401,$0.01 ,
,,JP9,Jumper,Jumper:Jumper_2_Bridged,,https://datasheet.lcsc.com/lcsc/2003141409_XFCN-PZ254V-11-02P_C492401.pdf,C492401,$0.01 ,
,,JP10,Jumper,Jumper:Jumper_2_Bridged,,https://datasheet.lcsc.com/lcsc/2003141409_XFCN-PZ254V-11-02P_C492401.pdf,C492401,$0.01 ,
,,R(pull-down)1,15k,Device:R,,https://datasheet.lcsc.com/lcsc/2110252130_UNI-ROYAL-Uniroyal-Elec-0603WAF3300T5E_C23138.pdf,C22809,$0.00 ,
,,R(pull-down)2,15k,Device:R,,https://datasheet.lcsc.com/lcsc/2110252130_UNI-ROYAL-Uniroyal-Elec-0603WAF3300T5E_C23138.pdf,C22809,$0.00 ,
,,U1,AT24C256C(EEPROM),HAT_Team31:EEPROM,,https://datasheet.lcsc.com/lcsc/1809151932_Microchip-Tech-AT24C256C-SSHL-T_C6482.pdf,C6482,$1.56 ,
,,U2,M24C64-RMN6TP(Secondary EEPROM),HAT_Team31:EEPROM,,https://datasheet.lcsc.com/lcsc/1809261911_STMicroelectronics-M24C64-RMN6TP_C79988.pdf,C79988,$0.91 ,
,,,,,,,,,
,,,,,,,,,
,,,,,,,,,
Collated Components:,,,,,,,,,
,,,,,,,,,
Item,Qty,Reference(s),Value,LibPart,Footprint,Datasheet,LCSC,Price,Total per Component
1,1,J1,AFC10-S10PCC-00(Debug_connector),HAT_Team31:Debug_connector,,https://datasheet.lcsc.com/lcsc/1912111437_JUSHUO-AFC10-S10PCC-00_C395323.pdf,C395323,$0.1191 ,$0.1191 
2,1,J2,AFC10-S10QCC-00(back-up Debug_connector),HAT_Team31:Debug_connector,,https://datasheet.lcsc.com/lcsc/1912111437_JUSHUO-AFC10-S10QCC-00_C395307.pdf,C395307,$0.1206 ,$0.1206 
3,1,J3,C404969(USB_B_Micro),Connector:USB_B_Micro,,https://datasheet.lcsc.com/lcsc/1912111437_SHOU-HAN-MicroXNJ_C404969.pdf,C404969,$0.0489 ,$0.0489 
4,10,"JP1, JP2, JP3, JP4, JP5, JP6, JP7, JP8, JP9, JP10",Jumper,Jumper:Jumper_2_Bridged,,https://datasheet.lcsc.com/lcsc/2003141409_XFCN-PZ254V-11-02P_C492401.pdf,C492401,$0.0113 ,$0.1130 
5,2,"R(pull-down)1, R(pull-down)2",15k,Device:R,,https://datasheet.lcsc.com/lcsc/2110252130_UNI-ROYAL-Uniroyal-Elec-0603WAF3300T5E_C23138.pdf,C22809,$0.0013 ,$0.0026 
6,1,U1,AT24C256C(EEPROM),HAT_Team31:EEPROM,,https://datasheet.lcsc.com/lcsc/1809151932_Microchip-Tech-AT24C256C-SSHL-T_C6482.pdf,C6482,$1.5556 ,$1.5556 
7,1,U2,M24C64-RMN6TP(Secondary EEPROM),HAT_Team31:EEPROM,,https://datasheet.lcsc.com/lcsc/1809261911_STMicroelectronics-M24C64-RMN6TP_C79988.pdf,C79988,$0.9112 ,$0.9112 
,,,,,,,,,
,,,,,,,,Total Without Extended,$2.8710 
,,,,,,,,Extended (4 Items ),$12 
,,,,,,,,Final Total,$14.8710 
