Source:,C:\Users\razpar\Documents\Razeen\UCT\EEE3088F - Design\git\eee3088f-envirosensing-hat\PCB\sensing.kicad_sch,,,,,,,,,,
Date:,3/13/2022 12:25,,,,,,,,,,
Tool:,Eeschema (6.0.2),,,,,,,,,,
Generator:,C:\Program Files\KiCad\6.0\bin\scripting\plugins/bom_csv_grouped_by_value.py,,,,,,,,,,
Component Count:,21,,,,,,,,,,
,,,,,,,,,,,
Individual Components:,,,,,,,,,,,
,,,,,,,,,,,
Item,Qty,Reference(s),Value,LibPart,Footprint,Datasheet,Extended,LCSC,Price,,
,,C1,100nF,Device:C,,https://datasheet.lcsc.com/lcsc/1810191219_Samsung-Electro-Mechanics-CL05B104KO5NNNC_C1525.pdf,,C1525,$0.0011 ,,
,,C2,100nF,Device:C,,https://datasheet.lcsc.com/lcsc/1810191219_Samsung-Electro-Mechanics-CL05B104KO5NNNC_C1525.pdf,,C1525,$0.0011 ,,
,,C3,100nF,Device:C,,https://datasheet.lcsc.com/lcsc/1810191219_Samsung-Electro-Mechanics-CL05B104KO5NNNC_C1525.pdf,,C1525,$0.0011 ,,
,,C4,680uF C_Polarized,Device:C_Polarized_US,,https://datasheet.lcsc.com/lcsc/1808021541_Rubycon-25ZLH680MEFCT810X16_C239301.pdf,Yes,C88760,$0.1367 ,,
,,JP1,Jumper_2_Bridged,Jumper:Jumper_2_Bridged,,https://datasheet.lcsc.com/lcsc/2003141409_XFCN-PZ254V-11-02P_C492401.pdf,Yes,C492401,$0.0113 ,,
,,JP2,Jumper_2_Open,Jumper:Jumper_2_Open,,https://datasheet.lcsc.com/lcsc/2003141409_XFCN-PZ254V-11-02P_C492401.pdf,Yes,C492401,$0.0113 ,,
,,JP3,Jumper_2_Open,Jumper:Jumper_2_Open,,https://datasheet.lcsc.com/lcsc/2003141409_XFCN-PZ254V-11-02P_C492401.pdf,Yes,C492401,$0.0113 ,,
,,JP4,Jumper_2_Bridged,Jumper:Jumper_2_Bridged,,https://datasheet.lcsc.com/lcsc/2003141409_XFCN-PZ254V-11-02P_C492401.pdf,Yes,C492401,$0.0113 ,,
,,Q1,AO3401A,:AO3401A_1,Package_TO_SOT_SMD:SOT-23,http://www.aosmd.com/pdfs/datasheet/AO3401A.pdf,,C15127,$0.1757 ,,
,,Q2,AO3401A,Transistor_FET:AO3401A,Package_TO_SOT_SMD:SOT-23,http://www.aosmd.com/pdfs/datasheet/AO3401A.pdf,,C15127,$0.1757 ,,
,,R1,10k,Device:R,,https://datasheet.lcsc.com/lcsc/2110252130_UNI-ROYAL-Uniroyal-Elec-0603WAF3300T5E_C23138.pdf,,C25804,$0.0013 ,,
,,R2,10k,Device:R,,https://datasheet.lcsc.com/lcsc/2110252130_UNI-ROYAL-Uniroyal-Elec-0603WAF3300T5E_C23138.pdf,,C25804,$0.0013 ,,
,,R3,330,Device:R,,https://datasheet.lcsc.com/lcsc/2110252130_UNI-ROYAL-Uniroyal-Elec-0603WAF3300T5E_C23138.pdf,,C25104,$0.0007 ,,
,,R4,330,Device:R,,https://datasheet.lcsc.com/lcsc/2110252130_UNI-ROYAL-Uniroyal-Elec-0603WAF3300T5E_C23138.pdf,,C25104,$0.0007 ,,
,,R5,10k,Device:R,,https://datasheet.lcsc.com/lcsc/2110252130_UNI-ROYAL-Uniroyal-Elec-0603WAF3300T5E_C23138.pdf,,C25804,$0.0013 ,,
,,R6,10k,Device:R,,https://datasheet.lcsc.com/lcsc/2110252130_UNI-ROYAL-Uniroyal-Elec-0603WAF3300T5E_C23138.pdf,,C25804,$0.0013 ,,
,,R7,10k,Device:R,,https://datasheet.lcsc.com/lcsc/2110252130_UNI-ROYAL-Uniroyal-Elec-0603WAF3300T5E_C23138.pdf,,C25804,$0.0013 ,,
,,R8,1k,Device:R,,https://datasheet.lcsc.com/lcsc/2110252130_UNI-ROYAL-Uniroyal-Elec-0603WAF3300T5E_C23138.pdf,,C21190,$0.0012 ,,
,,U1,SHT20,HAT_Team31:SHT20,,https://datasheet.lcsc.com/lcsc/1809192317_Sensirion-SHT20_C53865.pdf,Yes,C53865,$2.0753 ,,
,,U2,SHTC3,Sensor_Humidity:SHTC3,Sensor_Humidity:Sensirion_DFN-4-1EP_2x2mm_P1mm_EP0.7x1.6mm,https://www.sensirion.com/fileadmin/user_upload/customers/sensirion/Dokumente/0_Datasheets/Humidity/Sensirion_Humidity_Sensors_SHTC3_Datasheet.pdf,Yes,C194656,$1.6769 ,,
,,U3,ALS-PT19-315C/L177/TR8,HAT_Team31:ALS-PT19-315C{slash}L177{slash}TR8,,https://datasheet.lcsc.com/lcsc/1806131537_Everlight-Elec-ALS-PT19-315C-L177-TR8_C146233.pdf,Yes,C146233,$0.1443 ,,
,,,,,,,,,,,
,,,,,,,,,,,
,,,,,,,,,,,
Collated Components:,,,,,,,,,,,
,,,,,,,,,,,
Item,Qty,Reference(s),Value,LibPart,Footprint,Datasheet,Extended,LCSC,Price,Total per Component,
1,3,"C1, C2, C3",100nF,Device:C,,https://datasheet.lcsc.com/lcsc/1810191219_Samsung-Electro-Mechanics-CL05B104KO5NNNC_C1525.pdf,,C1525,$0.0011 ,$0.0033 ,
2,1,C4,680uF C_Polarized,Device:C_Polarized_US,,https://datasheet.lcsc.com/lcsc/1808021541_Rubycon-25ZLH680MEFCT810X16_C239301.pdf,Yes,C88760,$0.1367 ,$0.1367 ,
3,2,"JP1, JP4",Jumper_2_Bridged,Jumper:Jumper_2_Bridged,,https://datasheet.lcsc.com/lcsc/2003141409_XFCN-PZ254V-11-02P_C492401.pdf,Yes,C492401,$0.0113 ,$0.0226 ,
4,2,"JP2, JP3",Jumper_2_Open,Jumper:Jumper_2_Open,,https://datasheet.lcsc.com/lcsc/2003141409_XFCN-PZ254V-11-02P_C492401.pdf,Yes,C492401,$0.0113 ,$0.0226 ,
5,1,Q1,AO3401A,:AO3401A_1,Package_TO_SOT_SMD:SOT-23,http://www.aosmd.com/pdfs/datasheet/AO3401A.pdf,,C15127,$0.1757 ,$0.1757 ,
6,1,Q2,AO3401A,Transistor_FET:AO3401A,Package_TO_SOT_SMD:SOT-23,http://www.aosmd.com/pdfs/datasheet/AO3401A.pdf,,C15127,$0.1757 ,$0.1757 ,
7,5,"R1, R2, R5, R6, R7",10k,Device:R,,https://datasheet.lcsc.com/lcsc/2110252130_UNI-ROYAL-Uniroyal-Elec-0603WAF3300T5E_C23138.pdf,,C25804,$0.0013 ,$0.0065 ,
8,2,"R3, R4",330,Device:R,,https://datasheet.lcsc.com/lcsc/2110252130_UNI-ROYAL-Uniroyal-Elec-0603WAF3300T5E_C23138.pdf,,C25104,$0.0007 ,$0.0014 ,
9,1,R8,1k,Device:R,,https://datasheet.lcsc.com/lcsc/2110252130_UNI-ROYAL-Uniroyal-Elec-0603WAF3300T5E_C23138.pdf,,C21190,$0.0012 ,$0.0012 ,
10,1,U1,SHT20,HAT_Team31:SHT20,,https://datasheet.lcsc.com/lcsc/1809192317_Sensirion-SHT20_C53865.pdf,Yes,C53865,$2.0753 ,$2.0753 ,
11,1,U2,SHTC3,Sensor_Humidity:SHTC3,Sensor_Humidity:Sensirion_DFN-4-1EP_2x2mm_P1mm_EP0.7x1.6mm,https://www.sensirion.com/fileadmin/user_upload/customers/sensirion/Dokumente/0_Datasheets/Humidity/Sensirion_Humidity_Sensors_SHTC3_Datasheet.pdf,Yes,C194656,$1.6769 ,$1.6769 ,
12,1,U3,ALS-PT19-315C/L177/TR8,HAT_Team31:ALS-PT19-315C{slash}L177{slash}TR8,,https://datasheet.lcsc.com/lcsc/1806131537_Everlight-Elec-ALS-PT19-315C-L177-TR8_C146233.pdf,Yes,C146233,$0.1443 ,$0.1443 ,
,,,,,,,,,,,
,,,,,,,,,Total without extended,$4.4422 ,
,,,,,,,,,Extended costs,$15 ,(Two extended parts are used in the power sub module as well - but have still been factored in over here)
,,,,,,,,,Final Total,$19.4422 ,
